7	1.0	2013-06-25T00:00:00Z	40	133	-115.0	16.625	98299.38	33.13325119018555	6.0
7	1.0	2013-06-25T06:00:00Z	34	130	-115.75	16.25	98498.87	29.669193267822266	6.0
7	1.0	2013-06-25T12:00:00Z	30	127	-116.25	15.875	98436.836	29.226680755615234	6.0
7	1.0	2013-06-25T18:00:00Z	27	125	-116.625	15.625	98364.32	32.638954162597656	6.0
7	1.0	2013-06-26T00:00:00Z	24	129	-117.0	16.125	98346.02	37.10505676269531	6.0
7	1.0	2013-06-26T06:00:00Z	19	133	-117.625	16.625	98742.07	40.8183708190918	6.0
9	0.0	2013-06-28T00:00:00Z	70	151	-111.25	18.875	98854.44	25.13067054748535	3.0
9	0.0	2013-06-28T06:00:00Z	64	154	-112.0	19.25	98916.17	26.677940368652344	3.0
9	0.0	2013-06-28T18:00:00Z	51	151	-113.625	18.875	99074.914	22.35938262939453	3.0
11	2.0	2013-07-01T00:00:00Z	53	124	-113.375	15.5	97058.69	39.234214782714844	23.0
11	2.0	2013-07-01T06:00:00Z	53	128	-113.375	16.0	97123.11	35.92778396606445	23.0
11	2.0	2013-07-01T12:00:00Z	53	132	-113.375	16.5	97013.83	37.72877883911133	23.0
11	2.0	2013-07-01T18:00:00Z	52	135	-113.5	16.875	97287.33	42.062618255615234	23.0
11	2.0	2013-07-02T00:00:00Z	52	139	-113.5	17.375	96969.43	42.922752380371094	23.0
11	2.0	2013-07-02T06:00:00Z	51	143	-113.625	17.875	97201.21	40.395164489746094	23.0
11	2.0	2013-07-02T12:00:00Z	51	144	-113.625	18.0	97134.61	40.3531494140625	23.0
11	2.0	2013-07-02T18:00:00Z	51	147	-113.625	18.375	97391.26	40.08251190185547	23.0
11	2.0	2013-07-03T00:00:00Z	52	147	-113.5	18.375	97296.19	43.09850311279297	23.0
11	2.0	2013-07-03T06:00:00Z	53	146	-113.375	18.25	97509.79	39.180240631103516	23.0
11	2.0	2013-07-03T12:00:00Z	53	145	-113.375	18.125	97614.7	35.84575271606445	23.0
11	2.0	2013-07-03T18:00:00Z	52	141	-113.5	17.625	97727.09	38.34465408325195	23.0
11	2.0	2013-07-04T00:00:00Z	51	138	-113.625	17.25	97543.96	38.968597412109375	23.0
11	2.0	2013-07-04T06:00:00Z	48	135	-114.0	16.875	97777.15	38.68217468261719	23.0
11	2.0	2013-07-04T12:00:00Z	44	131	-114.5	16.375	97644.47	39.28501510620117	23.0
11	2.0	2013-07-04T18:00:00Z	41	127	-114.875	15.875	98060.51	39.71664810180664	23.0
11	2.0	2013-07-05T00:00:00Z	37	124	-115.375	15.5	97987.27	37.9366455078125	23.0
11	2.0	2013-07-05T06:00:00Z	33	120	-115.875	15.0	97984.37	41.264774322509766	23.0
11	2.0	2013-07-05T12:00:00Z	30	118	-116.25	14.75	97751.41	42.46923065185547	23.0
11	2.0	2013-07-05T18:00:00Z	30	116	-116.25	14.5	98010.82	41.65772247314453	23.0
11	2.0	2013-07-06T00:00:00Z	30	115	-116.25	14.375	98380.4	35.899925231933594	23.0
11	2.0	2013-07-06T06:00:00Z	30	114	-116.25	14.25	98495.97	36.02053451538086	23.0
11	2.0	2013-07-06T12:00:00Z	30	112	-116.25	14.0	98554.04	38.422096252441406	23.0
13	1.0	2013-07-01T18:00:00Z	829	513	-16.375	64.125	99743.984	33.266632080078125	6.0
13	1.0	2013-07-01T18:00:00Z	830	513	-16.25	64.125	99743.984	33.266632080078125	6.0
13	1.0	2013-07-01T18:00:00Z	828	520	-16.5	65.0	99869.805	12.206897735595703	6.0
13	1.0	2013-07-01T18:00:00Z	828	521	-16.5	65.125	99869.805	13.110225677490234	6.0
13	1.0	2013-07-02T00:00:00Z	828	520	-16.5	65.0	99920.16	14.521649360656738	6.0
13	1.0	2013-07-02T00:00:00Z	828	521	-16.5	65.125	99920.16	13.233163833618164	6.0
24	0.0	2013-07-22T00:00:00Z	504	431	-57.0	53.875	98490.58	28.093692779541016	3.0
24	0.0	2013-07-22T06:00:00Z	513	437	-55.875	54.625	98440.04	26.338232040405273	3.0
24	0.0	2013-07-22T12:00:00Z	512	434	-56.0	54.25	98564.055	23.252838134765625	3.0
28	1.0	2013-07-27T00:00:00Z	30	123	-116.25	15.375	99139.375	28.123743057250977	3.0
28	1.0	2013-07-27T06:00:00Z	24	117	-117.0	14.625	99310.37	37.88877868652344	3.0
28	1.0	2013-07-27T12:00:00Z	18	113	-117.75	14.125	99788.76	35.257415771484375	3.0
30	0.0	2013-08-06T06:00:00Z	28	110	-116.5	13.75	99652.08	25.31000328063965	3.0
30	0.0	2013-08-06T12:00:00Z	21	103	-117.375	12.875	99333.516	30.986743927001953	3.0
30	0.0	2013-08-06T18:00:00Z	17	101	-117.875	12.625	99642.29	32.6999397277832	3.0
34	2.0	2013-08-20T06:00:00Z	41	126	-114.875	15.75	99802.95	26.284013748168945	7.0
34	2.0	2013-08-20T12:00:00Z	35	130	-115.625	16.25	99402.555	28.11672019958496	7.0
34	2.0	2013-08-20T18:00:00Z	29	134	-116.375	16.75	99185.27	27.441097259521484	7.0
34	2.0	2013-08-21T00:00:00Z	27	137	-116.625	17.125	98802.766	30.23256492614746	7.0
34	2.0	2013-08-21T06:00:00Z	26	142	-116.75	17.75	98668.38	36.50442123413086	7.0
34	2.0	2013-08-21T12:00:00Z	21	147	-117.375	18.375	98636.82	38.04834747314453	7.0
34	2.0	2013-08-21T18:00:00Z	16	152	-118.0	19.0	99347.93	43.26270294189453	7.0
36	2.0	2013-08-26T06:00:00Z	711	539	-31.125	67.375	99325.1	28.527772903442383	3.0
36	2.0	2013-08-26T12:00:00Z	677	529	-35.375	66.125	99394.625	47.58155059814453	3.0
36	2.0	2013-08-26T12:00:00Z	712	530	-31.0	66.25	99357.516	35.351497650146484	3.0
40	1.0	2013-08-31T00:00:00Z	33	156	-115.875	19.5	98390.836	35.98340606689453	5.0
40	1.0	2013-08-31T06:00:00Z	32	161	-116.0	20.125	98260.62	36.81269073486328	5.0
40	1.0	2013-08-31T12:00:00Z	28	166	-116.5	20.75	98205.17	36.15963363647461	5.0
40	1.0	2013-08-31T18:00:00Z	24	169	-117.0	21.125	98408.84	41.131160736083984	5.0
40	1.0	2013-09-01T00:00:00Z	22	173	-117.25	21.625	98556.41	40.87348556518555	5.0
41	0.0	2013-08-31T00:00:00Z	829	513	-16.375	64.125	99011.76	26.29193115234375	3.0
41	0.0	2013-09-01T00:00:00Z	825	543	-16.875	67.875	99673.9	23.578031539916992	3.0
41	0.0	2013-09-01T06:00:00Z	827	550	-16.625	68.75	99966.83	25.825666427612305	3.0
42	0.0	2013-09-01T06:00:00Z	531	258	-53.625	32.25	100490.5	31.37228012084961	3.0
42	0.0	2013-09-01T12:00:00Z	536	265	-53.0	33.125	100423.91	26.91592025756836	3.0
42	0.0	2013-09-01T18:00:00Z	541	274	-52.375	34.25	100316.984	26.985946655273438	3.0
43	0.0	2013-09-05T12:00:00Z	37	160	-115.375	20.0	99840.766	28.053817749023438	4.0
43	0.0	2013-09-05T18:00:00Z	33	160	-115.875	20.0	99867.23	28.439237594604492	4.0
43	0.0	2013-09-06T00:00:00Z	28	160	-116.5	20.0	99720.77	30.171993255615234	4.0
43	0.0	2013-09-06T06:00:00Z	23	160	-117.125	20.0	99910.35	29.13217544555664	4.0
44	2.0	2013-09-08T12:00:00Z	54	112	-113.25	14.0	98184.93	30.779020309448242	15.0
44	2.0	2013-09-08T18:00:00Z	54	112	-113.25	14.0	97917.31	37.04588317871094	15.0
44	2.0	2013-09-09T00:00:00Z	55	115	-113.125	14.375	97393.75	40.52312469482422	15.0
44	2.0	2013-09-09T06:00:00Z	53	117	-113.375	14.625	96916.29	42.494205474853516	15.0
44	2.0	2013-09-09T12:00:00Z	52	118	-113.5	14.75	96448.25	47.780147552490234	15.0
44	2.0	2013-09-09T18:00:00Z	53	122	-113.375	15.25	96861.94	47.07716369628906	15.0
44	2.0	2013-09-10T00:00:00Z	53	126	-113.375	15.75	97206.945	39.41532897949219	15.0
44	2.0	2013-09-10T06:00:00Z	53	129	-113.375	16.125	97318.375	40.1359748840332	15.0
44	2.0	2013-09-10T12:00:00Z	54	134	-113.25	16.75	97188.46	42.489349365234375	15.0
44	2.0	2013-09-10T18:00:00Z	52	139	-113.5	17.375	97341.055	42.42509078979492	15.0
44	2.0	2013-09-11T00:00:00Z	50	143	-113.75	17.875	97046.766	45.7950325012207	15.0
44	2.0	2013-09-11T06:00:00Z	47	145	-114.125	18.125	97316.984	47.18018341064453	15.0
44	2.0	2013-09-11T12:00:00Z	43	149	-114.625	18.625	97345.69	43.483123779296875	15.0
44	2.0	2013-09-11T18:00:00Z	39	150	-115.125	18.75	98207.44	41.99697494506836	15.0
44	2.0	2013-09-12T00:00:00Z	35	153	-115.625	19.125	98693.3	40.18986129760742	15.0
45	1.0	2013-09-11T06:00:00Z	451	266	-63.625	33.25	99812.484	22.361989974975586	10.0
45	1.0	2013-09-11T12:00:00Z	448	270	-64.0	33.75	99557.7	28.673723220825195	10.0
45	1.0	2013-09-11T18:00:00Z	441	273	-64.875	34.125	99306.05	31.486127853393555	10.0
45	1.0	2013-09-12T00:00:00Z	435	278	-65.625	34.75	98963.41	33.171043395996094	10.0
45	1.0	2013-09-12T06:00:00Z	430	284	-66.25	35.5	98516.914	35.0523681640625	10.0
45	1.0	2013-09-12T12:00:00Z	427	291	-66.625	36.375	98014.64	38.072147369384766	10.0
45	1.0	2013-09-12T18:00:00Z	429	300	-66.375	37.5	97783.984	41.860816955566406	10.0
45	1.0	2013-09-13T00:00:00Z	435	312	-65.625	39.0	98023.79	36.716331481933594	10.0
45	1.0	2013-09-13T06:00:00Z	451	327	-63.625	40.875	98235.71	37.19160842895508	10.0
45	1.0	2013-09-13T12:00:00Z	473	343	-60.875	42.875	98792.47	36.5222282409668	10.0
47	2.0	2013-09-15T00:00:00Z	631	220	-41.125	27.5	99524.79	26.277151107788086	18.0
47	2.0	2013-09-15T06:00:00Z	623	220	-42.125	27.5	99119.88	26.864967346191406	18.0
47	2.0	2013-09-15T12:00:00Z	615	222	-43.125	27.75	98640.1	34.43023681640625	18.0
47	2.0	2013-09-15T18:00:00Z	607	225	-44.125	28.125	98231.28	37.68290710449219	18.0
47	2.0	2013-09-16T00:00:00Z	601	228	-44.875	28.5	98072.34	39.37096405029297	18.0
47	2.0	2013-09-16T06:00:00Z	595	230	-45.625	28.75	97679.86	35.60142517089844	18.0
47	2.0	2013-09-16T12:00:00Z	590	235	-46.25	29.375	97333.055	42.18217086791992	18.0
47	2.0	2013-09-16T18:00:00Z	584	241	-47.0	30.125	96992.36	46.87883377075195	18.0
47	2.0	2013-09-17T00:00:00Z	579	246	-47.625	30.75	96770.914	40.993343353271484	18.0
47	2.0	2013-09-17T06:00:00Z	575	255	-48.125	31.875	96817.234	42.27838897705078	18.0
47	2.0	2013-09-17T12:00:00Z	568	264	-49.0	33.0	97011.4	35.029354095458984	18.0
47	2.0	2013-09-17T18:00:00Z	562	275	-49.75	34.375	97100.016	35.343074798583984	18.0
47	2.0	2013-09-18T00:00:00Z	558	284	-50.25	35.5	97115.07	30.978843688964844	18.0
47	2.0	2013-09-18T06:00:00Z	553	295	-50.875	36.875	97171.016	32.677589416503906	18.0
47	2.0	2013-09-18T12:00:00Z	549	306	-51.375	38.25	97320.625	28.489517211914062	18.0
47	2.0	2013-09-18T18:00:00Z	549	318	-51.375	39.75	97419.7	33.55183029174805	18.0
47	2.0	2013-09-19T00:00:00Z	550	333	-51.25	41.625	97390.945	35.2054557800293	18.0
47	2.0	2013-09-19T06:00:00Z	557	348	-50.375	43.5	97597.3	35.00364303588867	18.0
50	1.0	2013-09-28T06:00:00Z	150	122	-101.25	15.25	98447.39	27.491907119750977	3.0
50	1.0	2013-09-28T12:00:00Z	150	124	-101.25	15.5	98107.67	31.912872314453125	3.0
50	1.0	2013-09-28T18:00:00Z	152	131	-101.0	16.375	98040.55	40.42106246948242	3.0
54	0.0	2013-10-03T12:00:00Z	592	255	-46.0	31.875	98774.35	27.521148681640625	3.0
54	0.0	2013-10-03T18:00:00Z	604	257	-44.5	32.125	98641.02	26.205955505371094	3.0
54	0.0	2013-10-04T00:00:00Z	613	260	-43.375	32.5	98561.38	29.47381019592285	3.0
58	0.0	2013-10-06T18:00:00Z	188	329	-96.5	41.125	100986.445	13.845868110656738	3.0
58	0.0	2013-10-07T00:00:00Z	186	327	-96.75	40.875	100982.48	32.812644958496094	3.0
58	0.0	2013-10-07T00:00:00Z	194	328	-95.75	41.0	100962.4	19.31945037841797	3.0
67	3.0	2013-11-16T00:00:00Z	698	540	-32.75	67.5	98827.16	50.2199592590332	1.0
