Sender: LSF System <lsfadmin@eu-ms-026-39>
Subject: Job 118451462: <catjob> in cluster <euler> Done

Job <catjob> was submitted from host <eu-login-21> by user <enjan> in cluster <euler> at Fri Apr 17 11:17:00 2020
Job was executed on host(s) <eu-ms-026-39>, in queue <normal.4h>, as user <enjan> in cluster <euler> at Fri Apr 17 11:17:50 2020
</cluster/home/enjan> was used as the home directory.
</cluster/home/enjan/hurricane_tracking/src> was used as the working directory.
Started at Fri Apr 17 11:17:50 2020
Terminated at Fri Apr 17 11:17:51 2020
Results reported at Fri Apr 17 11:17:51 2020

Your job looked like:

------------------------------------------------------------
# LSBATCH: User input
python -u ./tccat.py
------------------------------------------------------------

Successfully completed.

Resource usage summary:

    CPU time :                                   0.23 sec.
    Max Memory :                                 33 MB
    Average Memory :                             -
    Total Requested Memory :                     1024.00 MB
    Delta Memory :                               991.00 MB
    Max Swap :                                   -
    Max Processes :                              -
    Max Threads :                                -
    Run time :                                   30 sec.
    Turnaround time :                            51 sec.

The output (if any) follows:

