10	0.0	2013-06-07T18:00:00Z	68	505	-111.5	63.125	99732.12	17.425453186035156	5.0
10	0.0	2013-06-07T18:00:00Z	77	507	-110.375	63.375	99724.516	19.758583068847656	5.0
10	0.0	2013-06-08T00:00:00Z	87	512	-109.125	64.0	99944.734	8.262786865234375	5.0
10	0.0	2013-06-08T06:00:00Z	96	513	-108.0	64.125	100329.64	14.761889457702637	5.0
10	0.0	2013-06-08T12:00:00Z	114	524	-105.75	65.5	100578.15	19.313194274902344	5.0
13	-1.0	2013-06-09T06:00:00Z	605	453	-44.375	56.625	99686.69	15.903026580810547	9.0
13	-1.0	2013-06-09T12:00:00Z	631	449	-41.125	56.125	99657.99	16.769636154174805	9.0
13	-1.0	2013-06-09T18:00:00Z	645	449	-39.375	56.125	99687.15	11.50606632232666	9.0
13	-1.0	2013-06-10T00:00:00Z	666	447	-36.75	55.875	99657.28	12.20361042022705	9.0
13	-1.0	2013-06-10T06:00:00Z	675	445	-35.625	55.625	99632.89	12.920507431030273	9.0
13	-1.0	2013-06-10T18:00:00Z	715	442	-30.625	55.25	99701.73	14.091245651245117	9.0
13	-1.0	2013-06-11T00:00:00Z	729	446	-28.875	55.75	99686.94	10.28834342956543	9.0
13	-1.0	2013-06-11T06:00:00Z	737	450	-27.875	56.25	99622.49	9.488996505737305	9.0
13	-1.0	2013-06-12T00:00:00Z	743	474	-27.125	59.25	99479.5	13.449772834777832	9.0
15	0.0	2013-06-10T12:00:00Z	785	437	-21.875	54.625	100032.664	19.068965911865234	3.0
15	0.0	2013-06-11T06:00:00Z	737	450	-27.875	56.25	99622.49	9.488996505737305	3.0
15	0.0	2013-06-12T00:00:00Z	743	474	-27.125	59.25	99479.5	13.449772834777832	3.0
24	0.0	2013-06-13T18:00:00Z	725	465	-29.375	58.125	100471.99	17.914894104003906	5.0
24	0.0	2013-06-14T00:00:00Z	734	466	-28.25	58.25	100518.51	13.11471176147461	5.0
24	0.0	2013-06-14T06:00:00Z	736	470	-28.0	58.75	100437.805	15.315861701965332	5.0
24	0.0	2013-06-14T12:00:00Z	725	472	-29.375	59.0	100401.95	16.025714874267578	5.0
24	0.0	2013-06-14T18:00:00Z	726	469	-29.25	58.625	100659.02	17.938846588134766	5.0
25	0.0	2013-06-13T18:00:00Z	379	482	-72.625	60.25	100958.03	18.034025192260742	3.0
25	0.0	2013-06-13T18:00:00Z	363	489	-74.625	61.125	100958.016	17.325965881347656	3.0
25	0.0	2013-06-14T00:00:00Z	377	481	-72.875	60.125	100869.71	15.425865173339844	3.0
29	1.0	2013-06-14T18:00:00Z	566	376	-49.25	47.0	98043.78	17.72960090637207	5.0
29	1.0	2013-06-15T00:00:00Z	572	378	-48.5	47.25	97833.61	19.881093978881836	5.0
29	1.0	2013-06-15T06:00:00Z	588	381	-46.5	47.625	98110.9	27.92667007446289	5.0
29	1.0	2013-06-15T12:00:00Z	607	387	-44.125	48.375	98405.37	33.2440185546875	5.0
29	1.0	2013-06-15T18:00:00Z	624	392	-42.0	49.0	98629.555	35.51899337768555	5.0
30	1.0	2013-06-14T18:00:00Z	87	427	-109.125	53.375	99837.67	24.589141845703125	3.0
30	1.0	2013-06-15T00:00:00Z	88	428	-109.0	53.5	99513.86	37.929962158203125	3.0
30	1.0	2013-06-15T06:00:00Z	86	427	-109.25	53.375	99674.51	32.90833282470703	3.0
42	0.0	2013-06-19T18:00:00Z	825	512	-16.875	64.0	99240.14	9.84932804107666	8.0
42	0.0	2013-06-20T00:00:00Z	827	506	-16.625	63.25	99692.5	11.940356254577637	8.0
42	0.0	2013-06-20T00:00:00Z	828	521	-16.5	65.125	99589.27	16.605361938476562	8.0
42	0.0	2013-06-20T06:00:00Z	827	506	-16.625	63.25	99949.7	13.535082817077637	8.0
42	0.0	2013-06-20T06:00:00Z	828	520	-16.5	65.0	99967.02	18.421188354492188	8.0
42	0.0	2013-06-20T06:00:00Z	828	521	-16.5	65.125	99967.02	18.421188354492188	8.0
42	0.0	2013-06-20T12:00:00Z	828	520	-16.5	65.0	100239.13	19.36589813232422	8.0
42	0.0	2013-06-20T12:00:00Z	828	525	-16.5	65.625	100235.09	18.943981170654297	8.0
47	0.0	2013-06-21T00:00:00Z	348	528	-76.5	66.0	99078.87	29.042890548706055	5.0
47	0.0	2013-06-21T06:00:00Z	380	529	-72.5	66.125	98579.43	16.628311157226562	5.0
47	0.0	2013-06-22T00:00:00Z	450	540	-63.75	67.5	98921.68	31.489694595336914	5.0
47	0.0	2013-06-22T00:00:00Z	375	541	-73.125	67.625	98484.56	15.605213165283203	5.0
47	0.0	2013-06-22T06:00:00Z	370	537	-73.75	67.125	98700.1	15.829299926757812	5.0
48	4.0	2013-06-21T12:00:00Z	831	439	-16.125	54.875	99855.914	58.87208557128906	3.0
48	4.0	2013-06-21T18:00:00Z	831	439	-16.125	54.875	99634.21	41.63685607910156	3.0
48	4.0	2013-06-22T06:00:00Z	832	445	-16.0	55.625	99828.6	21.600370407104492	3.0
53	1.0	2013-06-23T12:00:00Z	72	131	-111.0	16.375	99274.766	22.641321182250977	11.0
53	1.0	2013-06-23T18:00:00Z	69	133	-111.375	16.625	99277.97	23.282209396362305	11.0
53	1.0	2013-06-24T06:00:00Z	57	134	-112.875	16.75	98797.98	29.889324188232422	11.0
53	1.0	2013-06-24T12:00:00Z	51	135	-113.625	16.875	98496.836	30.851160049438477	11.0
53	1.0	2013-06-24T18:00:00Z	46	134	-114.25	16.75	98386.9	32.359397888183594	11.0
53	1.0	2013-06-25T00:00:00Z	40	133	-115.0	16.625	98299.38	33.13325119018555	11.0
53	1.0	2013-06-25T06:00:00Z	34	130	-115.75	16.25	98498.87	29.669193267822266	11.0
53	1.0	2013-06-25T12:00:00Z	30	127	-116.25	15.875	98436.836	29.226680755615234	11.0
53	1.0	2013-06-25T18:00:00Z	27	125	-116.625	15.625	98364.32	32.638954162597656	11.0
53	1.0	2013-06-26T00:00:00Z	24	129	-117.0	16.125	98346.02	37.10505676269531	11.0
53	1.0	2013-06-26T06:00:00Z	19	133	-117.625	16.625	98742.07	40.8183708190918	11.0
54	1.0	2013-06-23T12:00:00Z	450	477	-63.75	59.625	99916.36	19.937829971313477	7.0
54	1.0	2013-06-23T18:00:00Z	453	467	-63.375	58.375	100145.39	37.137939453125	7.0
54	1.0	2013-06-23T18:00:00Z	483	473	-59.625	59.125	100137.61	24.733434677124023	7.0
54	1.0	2013-06-23T18:00:00Z	482	479	-59.75	59.875	100141.414	19.454849243164062	7.0
54	1.0	2013-06-24T00:00:00Z	453	471	-63.375	58.875	100396.99	21.717592239379883	7.0
54	1.0	2013-06-24T06:00:00Z	466	462	-61.75	57.75	100575.984	34.488033294677734	7.0
54	1.0	2013-06-25T00:00:00Z	456	466	-63.0	58.25	100489.11	21.842466354370117	7.0
56	0.0	2013-06-26T00:00:00Z	633	490	-40.875	61.25	100622.56	24.743722915649414	3.0
56	0.0	2013-06-27T06:00:00Z	671	488	-36.125	61.0	97527.23	29.89615249633789	3.0
56	0.0	2013-06-27T06:00:00Z	646	491	-39.25	61.375	97668.58	17.415454864501953	3.0
58	0.0	2013-06-26T12:00:00Z	124	111	-104.5	13.875	100064.67	22.851037979125977	4.0
58	0.0	2013-06-26T18:00:00Z	114	116	-105.75	14.5	99882.68	20.00174903869629	4.0
58	0.0	2013-06-27T00:00:00Z	105	125	-106.875	15.625	99596.64	26.046371459960938	4.0
58	0.0	2013-06-27T06:00:00Z	96	131	-108.0	16.375	99376.01	23.476144790649414	4.0
59	1.0	2013-06-26T12:00:00Z	710	539	-31.25	67.375	100866.31	19.200546264648438	3.0
59	1.0	2013-06-26T18:00:00Z	711	540	-31.125	67.5	100863.74	36.64239501953125	3.0
59	1.0	2013-06-27T00:00:00Z	713	551	-30.875	68.875	100748.58	40.42261505126953	3.0
60	2.0	2013-06-27T18:00:00Z	79	147	-110.125	18.375	99107.36	28.407577514648438	38.0
60	2.0	2013-06-28T00:00:00Z	70	151	-111.25	18.875	98854.44	25.13067054748535	38.0
60	2.0	2013-06-28T06:00:00Z	64	154	-112.0	19.25	98916.17	26.677940368652344	38.0
60	2.0	2013-06-28T12:00:00Z	55	154	-113.125	19.25	98906.26	25.946807861328125	38.0
60	2.0	2013-06-28T18:00:00Z	51	151	-113.625	18.875	99074.914	22.35938262939453	38.0
60	2.0	2013-06-29T00:00:00Z	48	147	-114.0	18.375	98944.27	23.035400390625	38.0
60	2.0	2013-06-29T06:00:00Z	49	141	-113.875	17.625	98890.6	22.85284423828125	38.0
60	2.0	2013-06-29T12:00:00Z	50	137	-113.75	17.125	98474.88	25.69780731201172	38.0
60	2.0	2013-06-29T18:00:00Z	50	131	-113.75	16.375	98448.47	26.79954719543457	38.0
60	2.0	2013-06-30T00:00:00Z	50	128	-113.75	16.0	98154.4	31.561134338378906	38.0
60	2.0	2013-06-30T06:00:00Z	52	124	-113.5	15.5	98052.51	30.995113372802734	38.0
60	2.0	2013-06-30T12:00:00Z	53	122	-113.375	15.25	97637.94	29.837514877319336	38.0
60	2.0	2013-06-30T18:00:00Z	52	122	-113.5	15.25	97430.31	37.61656188964844	38.0
60	2.0	2013-07-01T00:00:00Z	53	124	-113.375	15.5	97058.69	39.234214782714844	38.0
60	2.0	2013-07-01T06:00:00Z	53	128	-113.375	16.0	97123.11	35.92778396606445	38.0
60	2.0	2013-07-01T12:00:00Z	53	132	-113.375	16.5	97013.83	37.72877883911133	38.0
60	2.0	2013-07-01T18:00:00Z	52	135	-113.5	16.875	97287.33	42.062618255615234	38.0
60	2.0	2013-07-02T00:00:00Z	52	139	-113.5	17.375	96969.43	42.922752380371094	38.0
60	2.0	2013-07-02T06:00:00Z	51	143	-113.625	17.875	97201.21	40.395164489746094	38.0
60	2.0	2013-07-02T12:00:00Z	51	144	-113.625	18.0	97134.61	40.3531494140625	38.0
60	2.0	2013-07-02T18:00:00Z	51	147	-113.625	18.375	97391.26	40.08251190185547	38.0
60	2.0	2013-07-03T00:00:00Z	52	147	-113.5	18.375	97296.19	43.09850311279297	38.0
60	2.0	2013-07-03T06:00:00Z	53	146	-113.375	18.25	97509.79	39.180240631103516	38.0
60	2.0	2013-07-03T12:00:00Z	53	145	-113.375	18.125	97614.7	35.84575271606445	38.0
60	2.0	2013-07-03T18:00:00Z	52	141	-113.5	17.625	97727.09	38.34465408325195	38.0
60	2.0	2013-07-04T00:00:00Z	51	138	-113.625	17.25	97543.96	38.968597412109375	38.0
60	2.0	2013-07-04T06:00:00Z	48	135	-114.0	16.875	97777.15	38.68217468261719	38.0
60	2.0	2013-07-04T12:00:00Z	44	131	-114.5	16.375	97644.47	39.28501510620117	38.0
60	2.0	2013-07-04T18:00:00Z	41	127	-114.875	15.875	98060.51	39.71664810180664	38.0
60	2.0	2013-07-05T00:00:00Z	37	124	-115.375	15.5	97987.27	37.9366455078125	38.0
60	2.0	2013-07-05T06:00:00Z	33	120	-115.875	15.0	97984.37	41.264774322509766	38.0
60	2.0	2013-07-05T12:00:00Z	30	118	-116.25	14.75	97751.41	42.46923065185547	38.0
60	2.0	2013-07-05T18:00:00Z	30	116	-116.25	14.5	98010.82	41.65772247314453	38.0
60	2.0	2013-07-06T00:00:00Z	30	115	-116.25	14.375	98380.4	35.899925231933594	38.0
60	2.0	2013-07-06T06:00:00Z	30	114	-116.25	14.25	98495.97	36.02053451538086	38.0
60	2.0	2013-07-06T12:00:00Z	30	112	-116.25	14.0	98554.04	38.422096252441406	38.0
60	2.0	2013-07-06T18:00:00Z	31	110	-116.125	13.75	98902.65	32.799461364746094	38.0
60	2.0	2013-07-07T00:00:00Z	32	108	-116.0	13.5	99001.3	35.67448043823242	38.0
61	1.0	2013-06-27T18:00:00Z	725	512	-29.375	64.0	97888.13	18.249507904052734	20.0
61	1.0	2013-06-28T06:00:00Z	751	522	-26.125	65.25	99021.5	35.16368865966797	20.0
61	1.0	2013-06-29T00:00:00Z	806	523	-19.25	65.375	100403.99	38.32166290283203	20.0
61	1.0	2013-07-01T12:00:00Z	828	520	-16.5	65.0	99839.57	12.292162895202637	20.0
61	1.0	2013-07-01T12:00:00Z	828	521	-16.5	65.125	99839.57	13.972415924072266	20.0
61	1.0	2013-07-01T18:00:00Z	817	511	-17.875	63.875	99806.945	37.26618957519531	20.0
61	1.0	2013-07-01T18:00:00Z	829	513	-16.375	64.125	99743.984	33.266632080078125	20.0
61	1.0	2013-07-01T18:00:00Z	830	513	-16.25	64.125	99743.984	33.266632080078125	20.0
61	1.0	2013-07-01T18:00:00Z	828	520	-16.5	65.0	99869.805	12.206897735595703	20.0
61	1.0	2013-07-01T18:00:00Z	828	521	-16.5	65.125	99869.805	13.110225677490234	20.0
61	1.0	2013-07-02T00:00:00Z	819	511	-17.625	63.875	99857.46	34.251182556152344	20.0
61	1.0	2013-07-02T00:00:00Z	828	520	-16.5	65.0	99920.16	14.521649360656738	20.0
61	1.0	2013-07-02T00:00:00Z	828	521	-16.5	65.125	99920.16	13.233163833618164	20.0
61	1.0	2013-07-02T00:00:00Z	819	522	-17.625	65.25	100024.27	18.81421661376953	20.0
61	1.0	2013-07-02T18:00:00Z	827	550	-16.625	68.75	98902.25	11.485408782958984	20.0
61	1.0	2013-07-03T00:00:00Z	824	551	-17.0	68.875	99174.88	11.723145484924316	20.0
61	1.0	2013-07-06T06:00:00Z	799	532	-20.125	66.5	98439.8	16.56608772277832	20.0
61	1.0	2013-07-06T12:00:00Z	827	528	-16.625	66.0	98410.85	14.249295234680176	20.0
61	1.0	2013-07-06T18:00:00Z	827	545	-16.625	68.125	98833.15	11.591346740722656	20.0
61	1.0	2013-07-06T18:00:00Z	828	545	-16.5	68.125	98833.15	11.591346740722656	20.0
62	0.0	2013-06-27T18:00:00Z	652	533	-38.5	66.625	99433.086	30.852542877197266	4.0
62	0.0	2013-06-28T18:00:00Z	713	551	-30.875	68.875	100236.48	19.09821319580078	4.0
62	0.0	2013-06-29T00:00:00Z	704	550	-32.0	68.75	100435.79	17.703901290893555	4.0
62	0.0	2013-06-29T00:00:00Z	723	550	-29.625	68.75	100419.125	14.725591659545898	4.0
63	2.0	2013-06-28T06:00:00Z	493	506	-58.375	63.25	100178.9	12.728667259216309	11.0
63	2.0	2013-06-28T12:00:00Z	439	510	-65.125	63.75	100633.12	28.587875366210938	11.0
63	2.0	2013-06-28T18:00:00Z	439	501	-65.125	62.625	100751.36	31.3913516998291	11.0
63	2.0	2013-07-04T06:00:00Z	488	498	-59.0	62.25	99057.28	15.543310165405273	11.0
63	2.0	2013-07-04T12:00:00Z	530	478	-53.75	59.75	99365.81	24.919748306274414	11.0
63	2.0	2013-07-04T18:00:00Z	560	464	-50.0	58.0	99252.164	44.61301803588867	11.0
63	2.0	2013-07-05T00:00:00Z	609	457	-43.875	57.125	99377.55	34.224918365478516	11.0
63	2.0	2013-07-05T06:00:00Z	655	457	-38.125	57.125	98922.85	28.31018829345703	11.0
63	2.0	2013-07-05T12:00:00Z	678	456	-35.25	57.0	98852.75	21.659648895263672	11.0
63	2.0	2013-07-05T18:00:00Z	712	465	-31.0	58.125	98828.125	24.557514190673828	11.0
63	2.0	2013-07-06T00:00:00Z	743	475	-27.125	59.375	98596.98	31.702363967895508	11.0
64	2.0	2013-06-28T06:00:00Z	430	523	-66.25	65.375	100622.19	12.91121768951416	11.0
64	2.0	2013-06-28T12:00:00Z	439	510	-65.125	63.75	100633.12	28.587875366210938	11.0
64	2.0	2013-06-28T18:00:00Z	439	501	-65.125	62.625	100751.36	31.3913516998291	11.0
64	2.0	2013-07-04T06:00:00Z	488	498	-59.0	62.25	99057.28	15.543310165405273	11.0
64	2.0	2013-07-04T12:00:00Z	530	478	-53.75	59.75	99365.81	24.919748306274414	11.0
64	2.0	2013-07-04T18:00:00Z	560	464	-50.0	58.0	99252.164	44.61301803588867	11.0
64	2.0	2013-07-05T00:00:00Z	609	457	-43.875	57.125	99377.55	34.224918365478516	11.0
64	2.0	2013-07-05T06:00:00Z	655	457	-38.125	57.125	98922.85	28.31018829345703	11.0
64	2.0	2013-07-05T12:00:00Z	678	456	-35.25	57.0	98852.75	21.659648895263672	11.0
64	2.0	2013-07-05T18:00:00Z	712	465	-31.0	58.125	98828.125	24.557514190673828	11.0
64	2.0	2013-07-06T00:00:00Z	743	475	-27.125	59.375	98596.98	31.702363967895508	11.0
65	1.0	2013-06-28T12:00:00Z	552	515	-51.0	64.375	100320.53	23.798866271972656	9.0
65	1.0	2013-06-30T06:00:00Z	567	523	-49.125	65.375	100880.234	16.103429794311523	9.0
65	1.0	2013-07-01T00:00:00Z	632	518	-41.0	64.75	100428.484	13.265791893005371	9.0
65	1.0	2013-07-01T00:00:00Z	568	519	-49.0	64.875	100768.21	19.486255645751953	9.0
65	1.0	2013-07-01T06:00:00Z	638	517	-40.25	64.625	100345.234	39.444637298583984	9.0
65	1.0	2013-07-01T06:00:00Z	600	526	-45.0	65.75	100760.445	11.471826553344727	9.0
65	1.0	2013-07-01T12:00:00Z	643	527	-39.625	65.875	100517.22	24.146484375	9.0
65	1.0	2013-07-01T18:00:00Z	629	532	-41.375	66.5	100642.6	11.973949432373047	9.0
65	1.0	2013-07-02T00:00:00Z	579	528	-47.625	66.0	100375.305	11.093742370605469	9.0
68	0.0	2013-06-30T06:00:00Z	747	490	-26.625	61.25	98312.22	16.276723861694336	3.0
68	0.0	2013-06-30T12:00:00Z	745	497	-26.875	62.125	98425.72	11.46200942993164	3.0
68	0.0	2013-07-06T00:00:00Z	743	475	-27.125	59.375	98596.98	31.702363967895508	3.0
69	1.0	2013-07-02T00:00:00Z	832	456	-16.0	57.0	99666.08	25.331918716430664	12.0
69	1.0	2013-07-02T00:00:00Z	829	482	-16.375	60.25	100268.86	27.428075790405273	12.0
69	1.0	2013-07-02T00:00:00Z	819	511	-17.625	63.875	99857.46	34.251182556152344	12.0
69	1.0	2013-07-02T00:00:00Z	828	520	-16.5	65.0	99920.16	14.521649360656738	12.0
69	1.0	2013-07-02T00:00:00Z	828	521	-16.5	65.125	99920.16	13.233163833618164	12.0
69	1.0	2013-07-02T00:00:00Z	819	522	-17.625	65.25	100024.27	18.81421661376953	12.0
69	1.0	2013-07-02T18:00:00Z	827	550	-16.625	68.75	98902.25	11.485408782958984	12.0
69	1.0	2013-07-03T00:00:00Z	824	551	-17.0	68.875	99174.88	11.723145484924316	12.0
69	1.0	2013-07-06T06:00:00Z	799	532	-20.125	66.5	98439.8	16.56608772277832	12.0
69	1.0	2013-07-06T12:00:00Z	827	528	-16.625	66.0	98410.85	14.249295234680176	12.0
69	1.0	2013-07-06T18:00:00Z	827	545	-16.625	68.125	98833.15	11.591346740722656	12.0
69	1.0	2013-07-06T18:00:00Z	828	545	-16.5	68.125	98833.15	11.591346740722656	12.0
70	0.0	2013-07-03T06:00:00Z	12	523	-118.5	65.375	98995.17	16.563142776489258	4.0
70	0.0	2013-07-03T06:00:00Z	12	524	-118.5	65.5	98995.17	14.809502601623535	4.0
70	0.0	2013-07-03T12:00:00Z	12	523	-118.5	65.375	99293.85	20.382463455200195	4.0
70	0.0	2013-07-03T12:00:00Z	12	524	-118.5	65.5	99293.85	20.826641082763672	4.0
72	0.0	2013-07-04T12:00:00Z	292	533	-83.5	66.625	99543.27	20.10274887084961	5.0
72	0.0	2013-07-05T00:00:00Z	258	524	-87.75	65.5	99944.83	20.028783798217773	5.0
72	0.0	2013-07-05T06:00:00Z	281	519	-84.875	64.875	100055.21	17.300315856933594	5.0
72	0.0	2013-07-06T00:00:00Z	303	499	-82.125	62.375	100366.445	15.35258960723877	5.0
72	0.0	2013-07-06T06:00:00Z	318	494	-80.25	61.75	100386.01	13.382583618164062	5.0
78	0.0	2013-07-08T00:00:00Z	497	474	-57.875	59.25	98522.29	20.439374923706055	9.0
78	0.0	2013-07-08T06:00:00Z	496	475	-58.0	59.375	98674.234	14.643777847290039	9.0
78	0.0	2013-07-08T12:00:00Z	501	475	-57.375	59.375	98902.36	12.688356399536133	9.0
78	0.0	2013-07-08T18:00:00Z	505	478	-56.875	59.75	99241.37	9.836115837097168	9.0
78	0.0	2013-07-09T00:00:00Z	512	479	-56.0	59.875	99485.15	11.181758880615234	9.0
78	0.0	2013-07-09T06:00:00Z	515	479	-55.625	59.875	99716.49	12.025383949279785	9.0
78	0.0	2013-07-09T12:00:00Z	525	479	-54.375	59.875	99934.01	13.977838516235352	9.0
78	0.0	2013-07-09T18:00:00Z	536	479	-53.0	59.875	100266.15	16.728857040405273	9.0
78	0.0	2013-07-10T00:00:00Z	550	479	-51.25	59.875	100525.695	16.97342300415039	9.0
79	0.0	2013-07-08T06:00:00Z	63	143	-112.125	17.875	99890.51	26.9678897857666	4.0
79	0.0	2013-07-08T12:00:00Z	54	146	-113.25	18.25	99776.64	23.996156692504883	4.0
79	0.0	2013-07-08T18:00:00Z	45	148	-114.375	18.5	99905.12	24.644250869750977	4.0
79	0.0	2013-07-09T00:00:00Z	34	150	-115.75	18.75	99912.125	32.17469787597656	4.0
88	0.0	2013-07-15T00:00:00Z	399	487	-70.125	60.875	99637.06	21.632104873657227	3.0
88	0.0	2013-07-15T00:00:00Z	393	488	-70.875	61.0	99636.266	16.63013458251953	3.0
88	0.0	2013-07-15T06:00:00Z	416	489	-68.0	61.125	99701.79	19.111623764038086	3.0
93	1.0	2013-07-16T18:00:00Z	829	513	-16.375	64.125	99951.4	22.885488510131836	6.0
93	1.0	2013-07-16T18:00:00Z	830	513	-16.25	64.125	99951.4	21.525779724121094	6.0
93	1.0	2013-07-17T00:00:00Z	829	513	-16.375	64.125	100009.73	42.80281448364258	6.0
93	1.0	2013-07-17T00:00:00Z	830	513	-16.25	64.125	100009.73	42.80281448364258	6.0
93	1.0	2013-07-17T00:00:00Z	820	523	-17.5	65.375	100009.03	25.95159912109375	6.0
93	1.0	2013-07-17T06:00:00Z	826	526	-16.75	65.75	100271.01	31.685434341430664	6.0
94	0.0	2013-07-17T18:00:00Z	341	464	-77.375	58.0	97598.0	17.44024658203125	4.0
94	0.0	2013-07-18T00:00:00Z	361	465	-74.875	58.125	97820.6	17.975194931030273	4.0
94	0.0	2013-07-18T06:00:00Z	374	462	-73.25	57.75	98255.99	15.030216217041016	4.0
94	0.0	2013-07-18T12:00:00Z	396	459	-70.5	57.375	98651.74	13.127634048461914	4.0
97	0.0	2013-07-22T00:00:00Z	504	431	-57.0	53.875	98490.58	28.093692779541016	3.0
97	0.0	2013-07-22T06:00:00Z	513	437	-55.875	54.625	98440.04	26.338232040405273	3.0
97	0.0	2013-07-22T12:00:00Z	512	434	-56.0	54.25	98564.055	23.252838134765625	3.0
99	3.0	2013-07-23T00:00:00Z	831	403	-16.125	50.375	100922.484	32.9878044128418	12.0
99	3.0	2013-07-23T00:00:00Z	832	403	-16.0	50.375	100922.484	31.3720703125	12.0
99	3.0	2013-07-23T06:00:00Z	831	421	-16.125	52.625	100645.06	22.09099006652832	12.0
99	3.0	2013-07-23T12:00:00Z	831	421	-16.125	52.625	100558.47	19.52712059020996	12.0
99	3.0	2013-07-23T18:00:00Z	831	421	-16.125	52.625	100595.91	36.41582489013672	12.0
99	3.0	2013-07-23T18:00:00Z	831	431	-16.125	53.875	100593.8	14.944392204284668	12.0
99	3.0	2013-07-24T00:00:00Z	831	421	-16.125	52.625	100779.14	56.00681686401367	12.0
99	3.0	2013-07-24T00:00:00Z	831	431	-16.125	53.875	100748.29	27.57366371154785	12.0
99	3.0	2013-07-24T06:00:00Z	829	446	-16.375	55.75	100716.92	10.133485794067383	12.0
99	3.0	2013-07-24T06:00:00Z	832	456	-16.0	57.0	100709.09	14.497587203979492	12.0
99	3.0	2013-07-24T12:00:00Z	829	446	-16.375	55.75	100808.06	21.187326431274414	12.0
99	3.0	2013-07-24T12:00:00Z	832	456	-16.0	57.0	100850.37	20.8798828125	12.0
101	3.0	2013-07-23T12:00:00Z	832	456	-16.0	57.0	100703.42	28.853702545166016	8.0
101	3.0	2013-07-23T18:00:00Z	831	431	-16.125	53.875	100593.8	14.944392204284668	8.0
101	3.0	2013-07-24T00:00:00Z	831	421	-16.125	52.625	100779.14	56.00681686401367	8.0
101	3.0	2013-07-24T00:00:00Z	831	431	-16.125	53.875	100748.29	27.57366371154785	8.0
101	3.0	2013-07-24T06:00:00Z	829	446	-16.375	55.75	100716.92	10.133485794067383	8.0
101	3.0	2013-07-24T06:00:00Z	832	456	-16.0	57.0	100709.09	14.497587203979492	8.0
101	3.0	2013-07-24T12:00:00Z	829	446	-16.375	55.75	100808.06	21.187326431274414	8.0
101	3.0	2013-07-24T12:00:00Z	832	456	-16.0	57.0	100850.37	20.8798828125	8.0
103	0.0	2013-07-25T18:00:00Z	675	429	-35.625	53.625	99478.82	18.51715850830078	8.0
103	0.0	2013-07-26T00:00:00Z	671	427	-36.125	53.375	99596.93	16.28723907470703	8.0
103	0.0	2013-07-26T06:00:00Z	668	425	-36.5	53.125	99617.73	16.854000091552734	8.0
103	0.0	2013-07-26T12:00:00Z	666	427	-36.75	53.375	99736.52	14.505592346191406	8.0
103	0.0	2013-07-26T18:00:00Z	655	429	-38.125	53.625	99924.086	18.630109786987305	8.0
103	0.0	2013-07-27T00:00:00Z	650	423	-38.75	52.875	100003.86	15.464484214782715	8.0
103	0.0	2013-07-27T06:00:00Z	651	417	-38.625	52.125	99953.24	14.665140151977539	8.0
103	0.0	2013-07-27T12:00:00Z	660	406	-37.5	50.75	99992.625	13.215719223022461	8.0
104	1.0	2013-07-26T06:00:00Z	55	127	-113.125	15.875	99963.42	23.43853759765625	6.0
104	1.0	2013-07-26T12:00:00Z	47	129	-114.125	16.125	99651.75	25.61883544921875	6.0
104	1.0	2013-07-26T18:00:00Z	37	128	-115.375	16.0	99514.73	27.321863174438477	6.0
104	1.0	2013-07-27T00:00:00Z	30	123	-116.25	15.375	99139.375	28.123743057250977	6.0
104	1.0	2013-07-27T06:00:00Z	24	117	-117.0	14.625	99310.37	37.88877868652344	6.0
104	1.0	2013-07-27T12:00:00Z	18	113	-117.75	14.125	99788.76	35.257415771484375	6.0
113	0.0	2013-08-06T00:00:00Z	35	115	-115.625	14.375	99980.52	27.086938858032227	4.0
113	0.0	2013-08-06T06:00:00Z	28	110	-116.5	13.75	99652.08	25.31000328063965	4.0
113	0.0	2013-08-06T12:00:00Z	21	103	-117.375	12.875	99333.516	30.986743927001953	4.0
113	0.0	2013-08-06T18:00:00Z	17	101	-117.875	12.625	99642.29	32.6999397277832	4.0
114	0.0	2013-08-06T00:00:00Z	823	475	-17.125	59.375	100541.62	15.249707221984863	4.0
114	0.0	2013-08-06T00:00:00Z	830	475	-16.25	59.375	100536.97	13.178116798400879	4.0
114	0.0	2013-08-06T06:00:00Z	830	466	-16.25	58.25	100660.79	16.66146469116211	4.0
114	0.0	2013-08-06T12:00:00Z	832	462	-16.0	57.75	100836.58	25.1196346282959	4.0
117	0.0	2013-08-10T00:00:00Z	255	446	-88.125	55.75	100587.555	12.090034484863281	3.0
117	0.0	2013-08-10T00:00:00Z	277	451	-85.375	56.375	100661.445	20.448898315429688	3.0
117	0.0	2013-08-10T06:00:00Z	293	454	-83.375	56.75	100488.914	21.181812286376953	3.0
123	0.0	2013-08-15T12:00:00Z	559	481	-50.125	60.125	99447.6	14.445487976074219	3.0
123	0.0	2013-08-15T18:00:00Z	578	479	-47.75	59.875	99613.03	14.667747497558594	3.0
123	0.0	2013-08-16T00:00:00Z	592	472	-46.0	59.0	99729.664	20.104490280151367	3.0
126	0.0	2013-08-17T18:00:00Z	648	526	-39.0	65.75	98997.67	21.434314727783203	4.0
126	0.0	2013-08-17T18:00:00Z	653	532	-38.375	66.5	99009.25	14.754490852355957	4.0
126	0.0	2013-08-18T00:00:00Z	680	520	-35.0	65.0	98887.7	24.971309661865234	4.0
126	0.0	2013-08-18T00:00:00Z	645	526	-39.375	65.75	99020.3	28.639925003051758	4.0
128	2.0	2013-08-20T00:00:00Z	48	122	-114.0	15.25	99878.59	25.794923782348633	8.0
128	2.0	2013-08-20T06:00:00Z	41	126	-114.875	15.75	99802.95	26.284013748168945	8.0
128	2.0	2013-08-20T12:00:00Z	35	130	-115.625	16.25	99402.555	28.11672019958496	8.0
128	2.0	2013-08-20T18:00:00Z	29	134	-116.375	16.75	99185.27	27.441097259521484	8.0
128	2.0	2013-08-21T00:00:00Z	27	137	-116.625	17.125	98802.766	30.23256492614746	8.0
128	2.0	2013-08-21T06:00:00Z	26	142	-116.75	17.75	98668.38	36.50442123413086	8.0
128	2.0	2013-08-21T12:00:00Z	21	147	-117.375	18.375	98636.82	38.04834747314453	8.0
128	2.0	2013-08-21T18:00:00Z	16	152	-118.0	19.0	99347.93	43.26270294189453	8.0
140	0.0	2013-08-25T06:00:00Z	61	156	-112.375	19.5	99678.5	27.65098762512207	5.0
140	0.0	2013-08-25T12:00:00Z	53	161	-113.375	20.125	99420.91	27.8704776763916	5.0
140	0.0	2013-08-26T00:00:00Z	49	170	-113.875	21.25	99558.81	22.52671241760254	5.0
140	0.0	2013-08-26T06:00:00Z	46	174	-114.25	21.75	99540.125	23.545150756835938	5.0
140	0.0	2013-08-26T12:00:00Z	44	176	-114.5	22.0	99586.53	22.62710189819336	5.0
143	2.0	2013-08-25T12:00:00Z	641	525	-39.875	65.625	99764.31	27.085689544677734	7.0
143	2.0	2013-08-25T18:00:00Z	652	532	-38.5	66.5	99386.18	34.936668395996094	7.0
143	2.0	2013-08-26T06:00:00Z	711	539	-31.125	67.375	99325.1	28.527772903442383	7.0
143	2.0	2013-08-26T12:00:00Z	677	529	-35.375	66.125	99394.625	47.58155059814453	7.0
143	2.0	2013-08-26T12:00:00Z	712	530	-31.0	66.25	99357.516	35.351497650146484	7.0
143	2.0	2013-08-26T12:00:00Z	728	530	-29.0	66.25	99332.14	37.86259078979492	7.0
143	2.0	2013-08-26T12:00:00Z	682	535	-34.75	66.875	99378.12	31.811416625976562	7.0
144	1.0	2013-08-25T12:00:00Z	465	536	-61.875	67.0	99916.16	35.982215881347656	4.0
144	1.0	2013-08-25T12:00:00Z	446	539	-64.25	67.375	99934.55	26.18543815612793	4.0
144	1.0	2013-08-27T00:00:00Z	412	532	-68.5	66.5	100144.8	16.402170181274414	4.0
144	1.0	2013-08-27T06:00:00Z	455	524	-63.125	65.5	99904.49	22.38819694519043	4.0
145	1.0	2013-08-25T18:00:00Z	828	520	-16.5	65.0	99622.36	33.076011657714844	4.0
145	1.0	2013-08-25T18:00:00Z	828	521	-16.5	65.125	99622.36	32.4946403503418	4.0
145	1.0	2013-08-27T00:00:00Z	784	530	-22.0	66.25	99594.92	28.628311157226562	4.0
145	1.0	2013-08-27T00:00:00Z	765	537	-24.375	67.125	99395.31	24.502208709716797	4.0
148	0.0	2013-08-26T18:00:00Z	764	539	-24.5	67.375	99141.93	17.449382781982422	3.0
148	0.0	2013-08-27T00:00:00Z	784	530	-22.0	66.25	99594.92	28.628311157226562	3.0
148	0.0	2013-08-27T00:00:00Z	765	537	-24.375	67.125	99395.31	24.502208709716797	3.0
155	1.0	2013-08-30T00:00:00Z	42	143	-114.75	17.875	98795.34	28.701749801635742	11.0
155	1.0	2013-08-30T06:00:00Z	39	144	-115.125	18.0	98704.73	29.632848739624023	11.0
155	1.0	2013-08-30T12:00:00Z	38	147	-115.25	18.375	98503.87	33.74232864379883	11.0
155	1.0	2013-08-30T18:00:00Z	37	152	-115.375	19.0	98635.914	36.840938568115234	11.0
155	1.0	2013-08-31T00:00:00Z	33	156	-115.875	19.5	98390.836	35.98340606689453	11.0
155	1.0	2013-08-31T06:00:00Z	32	161	-116.0	20.125	98260.62	36.81269073486328	11.0
155	1.0	2013-08-31T12:00:00Z	28	166	-116.5	20.75	98205.17	36.15963363647461	11.0
155	1.0	2013-08-31T18:00:00Z	24	169	-117.0	21.125	98408.84	41.131160736083984	11.0
155	1.0	2013-09-01T00:00:00Z	22	173	-117.25	21.625	98556.41	40.87348556518555	11.0
155	1.0	2013-09-01T06:00:00Z	20	176	-117.5	22.0	99165.97	29.302932739257812	11.0
155	1.0	2013-09-01T12:00:00Z	17	179	-117.875	22.375	99563.89	29.239517211914062	11.0
156	4.0	2013-08-30T12:00:00Z	776	508	-23.0	63.5	99109.47	17.17466926574707	16.0
156	4.0	2013-08-31T00:00:00Z	829	513	-16.375	64.125	99011.76	26.29193115234375	16.0
156	4.0	2013-08-31T00:00:00Z	830	513	-16.25	64.125	99011.76	24.64228630065918	16.0
156	4.0	2013-08-31T12:00:00Z	825	539	-16.875	67.375	98635.15	22.14891815185547	16.0
156	4.0	2013-08-31T18:00:00Z	829	526	-16.375	65.75	99636.266	51.43564987182617	16.0
156	4.0	2013-08-31T18:00:00Z	828	543	-16.5	67.875	99381.875	20.95170783996582	16.0
156	4.0	2013-09-01T00:00:00Z	829	513	-16.375	64.125	99696.39	60.51830291748047	16.0
156	4.0	2013-09-01T00:00:00Z	830	513	-16.25	64.125	99696.39	60.51830291748047	16.0
156	4.0	2013-09-01T00:00:00Z	825	543	-16.875	67.875	99673.9	23.578031539916992	16.0
156	4.0	2013-09-01T06:00:00Z	829	513	-16.375	64.125	99790.07	53.75250244140625	16.0
156	4.0	2013-09-01T06:00:00Z	830	513	-16.25	64.125	99790.07	53.75250244140625	16.0
156	4.0	2013-09-01T06:00:00Z	829	544	-16.375	68.0	99969.414	33.36368179321289	16.0
156	4.0	2013-09-01T06:00:00Z	827	550	-16.625	68.75	99966.83	25.825666427612305	16.0
156	4.0	2013-09-01T12:00:00Z	826	521	-16.75	65.125	100087.58	40.13340377807617	16.0
156	4.0	2013-09-02T18:00:00Z	826	536	-16.75	67.0	98663.52	28.321287155151367	16.0
156	4.0	2013-09-03T00:00:00Z	825	543	-16.875	67.875	98601.38	18.674137115478516	16.0
158	0.0	2013-09-01T00:00:00Z	526	250	-54.25	31.25	100685.0	23.543643951416016	6.0
158	0.0	2013-09-01T06:00:00Z	531	258	-53.625	32.25	100490.5	31.37228012084961	6.0
158	0.0	2013-09-01T12:00:00Z	536	265	-53.0	33.125	100423.91	26.91592025756836	6.0
158	0.0	2013-09-01T18:00:00Z	541	274	-52.375	34.25	100316.984	26.985946655273438	6.0
158	0.0	2013-09-02T00:00:00Z	549	284	-51.375	35.5	100360.94	27.04210662841797	6.0
158	0.0	2013-09-02T06:00:00Z	560	296	-50.0	37.0	100406.38	28.513164520263672	6.0
161	3.0	2013-09-01T06:00:00Z	827	503	-16.625	62.875	99863.52	52.78561782836914	8.0
161	3.0	2013-09-01T06:00:00Z	829	513	-16.375	64.125	99790.07	53.75250244140625	8.0
161	3.0	2013-09-01T06:00:00Z	830	513	-16.25	64.125	99790.07	53.75250244140625	8.0
161	3.0	2013-09-01T06:00:00Z	829	544	-16.375	68.0	99969.414	33.36368179321289	8.0
161	3.0	2013-09-01T06:00:00Z	827	550	-16.625	68.75	99966.83	25.825666427612305	8.0
161	3.0	2013-09-01T12:00:00Z	826	521	-16.75	65.125	100087.58	40.13340377807617	8.0
161	3.0	2013-09-02T18:00:00Z	826	536	-16.75	67.0	98663.52	28.321287155151367	8.0
161	3.0	2013-09-03T00:00:00Z	825	543	-16.875	67.875	98601.38	18.674137115478516	8.0
162	3.0	2013-09-01T12:00:00Z	827	503	-16.625	62.875	99980.05	51.2274284362793	4.0
162	3.0	2013-09-01T12:00:00Z	826	521	-16.75	65.125	100087.58	40.13340377807617	4.0
162	3.0	2013-09-02T18:00:00Z	826	536	-16.75	67.0	98663.52	28.321287155151367	4.0
162	3.0	2013-09-03T00:00:00Z	825	543	-16.875	67.875	98601.38	18.674137115478516	4.0
167	0.0	2013-09-04T12:00:00Z	830	464	-16.25	58.0	100833.2	30.55181312561035	4.0
167	0.0	2013-09-04T12:00:00Z	829	473	-16.375	59.125	100876.26	28.350460052490234	4.0
167	0.0	2013-09-04T12:00:00Z	829	474	-16.375	59.25	100876.26	29.015247344970703	4.0
167	0.0	2013-09-04T18:00:00Z	830	485	-16.25	60.625	100677.625	15.178996086120605	4.0
168	2.0	2013-09-05T12:00:00Z	37	160	-115.375	20.0	99840.766	28.053817749023438	9.0
168	2.0	2013-09-05T18:00:00Z	33	160	-115.875	20.0	99867.23	28.439237594604492	9.0
168	2.0	2013-09-06T00:00:00Z	28	160	-116.5	20.0	99720.77	30.171993255615234	9.0
168	2.0	2013-09-06T06:00:00Z	23	160	-117.125	20.0	99910.35	29.13217544555664	9.0
168	2.0	2013-09-11T00:00:00Z	50	143	-113.75	17.875	97046.766	45.7950325012207	9.0
168	2.0	2013-09-11T06:00:00Z	47	145	-114.125	18.125	97316.984	47.18018341064453	9.0
168	2.0	2013-09-11T12:00:00Z	43	149	-114.625	18.625	97345.69	43.483123779296875	9.0
168	2.0	2013-09-11T18:00:00Z	39	150	-115.125	18.75	98207.44	41.99697494506836	9.0
168	2.0	2013-09-12T00:00:00Z	35	153	-115.625	19.125	98693.3	40.18986129760742	9.0
170	0.0	2013-09-06T18:00:00Z	472	513	-61.0	64.125	98011.7	14.846700668334961	6.0
170	0.0	2013-09-07T06:00:00Z	463	512	-62.125	64.0	97813.625	10.526227951049805	6.0
170	0.0	2013-09-07T12:00:00Z	457	505	-62.875	63.125	97997.83	20.060405731201172	6.0
170	0.0	2013-09-08T00:00:00Z	498	509	-57.75	63.625	98700.73	22.938989639282227	6.0
170	0.0	2013-09-08T06:00:00Z	496	513	-58.0	64.125	98987.93	22.54952049255371	6.0
170	0.0	2013-09-10T12:00:00Z	520	517	-55.0	64.625	97555.16	17.653995513916016	6.0
171	4.0	2013-09-07T06:00:00Z	615	476	-43.125	59.5	97663.11	22.6180477142334	4.0
171	4.0	2013-09-19T00:00:00Z	590	487	-46.25	60.875	100378.21	64.629638671875	4.0
171	4.0	2013-09-19T00:00:00Z	618	490	-42.75	61.25	99914.25	67.0567855834961	4.0
171	4.0	2013-09-19T06:00:00Z	644	512	-39.5	64.0	99487.02	20.740169525146484	4.0
172	0.0	2013-09-07T18:00:00Z	657	510	-37.875	63.75	97982.53	17.386371612548828	4.0
172	0.0	2013-09-08T00:00:00Z	654	518	-38.25	64.75	98589.84	21.349451065063477	4.0
172	0.0	2013-09-12T12:00:00Z	656	531	-38.0	66.375	98706.96	22.78399658203125	4.0
172	0.0	2013-09-19T06:00:00Z	644	512	-39.5	64.0	99487.02	20.740169525146484	4.0
173	2.0	2013-09-08T06:00:00Z	56	114	-113.0	14.25	98903.43	25.077228546142578	16.0
173	2.0	2013-09-08T12:00:00Z	54	112	-113.25	14.0	98184.93	30.779020309448242	16.0
173	2.0	2013-09-08T18:00:00Z	54	112	-113.25	14.0	97917.31	37.04588317871094	16.0
173	2.0	2013-09-09T00:00:00Z	55	115	-113.125	14.375	97393.75	40.52312469482422	16.0
173	2.0	2013-09-09T06:00:00Z	53	117	-113.375	14.625	96916.29	42.494205474853516	16.0
173	2.0	2013-09-09T12:00:00Z	52	118	-113.5	14.75	96448.25	47.780147552490234	16.0
173	2.0	2013-09-09T18:00:00Z	53	122	-113.375	15.25	96861.94	47.07716369628906	16.0
173	2.0	2013-09-10T00:00:00Z	53	126	-113.375	15.75	97206.945	39.41532897949219	16.0
173	2.0	2013-09-10T06:00:00Z	53	129	-113.375	16.125	97318.375	40.1359748840332	16.0
173	2.0	2013-09-10T12:00:00Z	54	134	-113.25	16.75	97188.46	42.489349365234375	16.0
173	2.0	2013-09-10T18:00:00Z	52	139	-113.5	17.375	97341.055	42.42509078979492	16.0
173	2.0	2013-09-11T00:00:00Z	50	143	-113.75	17.875	97046.766	45.7950325012207	16.0
173	2.0	2013-09-11T06:00:00Z	47	145	-114.125	18.125	97316.984	47.18018341064453	16.0
173	2.0	2013-09-11T12:00:00Z	43	149	-114.625	18.625	97345.69	43.483123779296875	16.0
173	2.0	2013-09-11T18:00:00Z	39	150	-115.125	18.75	98207.44	41.99697494506836	16.0
173	2.0	2013-09-12T00:00:00Z	35	153	-115.625	19.125	98693.3	40.18986129760742	16.0
174	3.0	2013-09-08T18:00:00Z	447	356	-64.125	44.5	99929.99	57.36112594604492	4.0
174	3.0	2013-09-13T06:00:00Z	451	327	-63.625	40.875	98235.71	37.19160842895508	4.0
174	3.0	2013-09-13T12:00:00Z	473	343	-60.875	42.875	98792.47	36.5222282409668	4.0
174	3.0	2013-09-13T18:00:00Z	503	358	-57.125	44.75	99528.8	38.99649429321289	4.0
177	1.0	2013-09-09T12:00:00Z	418	239	-67.75	29.875	100273.81	20.139755249023438	16.0
177	1.0	2013-09-09T18:00:00Z	428	246	-66.5	30.75	100212.97	28.794082641601562	16.0
177	1.0	2013-09-10T12:00:00Z	449	260	-63.875	32.5	100194.22	22.012039184570312	16.0
177	1.0	2013-09-10T18:00:00Z	451	262	-63.625	32.75	100225.85	20.876142501831055	16.0
177	1.0	2013-09-11T00:00:00Z	453	263	-63.375	32.875	100126.86	21.861196517944336	16.0
177	1.0	2013-09-11T06:00:00Z	451	266	-63.625	33.25	99812.484	22.361989974975586	16.0
177	1.0	2013-09-11T12:00:00Z	448	270	-64.0	33.75	99557.7	28.673723220825195	16.0
177	1.0	2013-09-11T18:00:00Z	441	273	-64.875	34.125	99306.05	31.486127853393555	16.0
177	1.0	2013-09-12T00:00:00Z	435	278	-65.625	34.75	98963.41	33.171043395996094	16.0
177	1.0	2013-09-12T06:00:00Z	430	284	-66.25	35.5	98516.914	35.0523681640625	16.0
177	1.0	2013-09-12T12:00:00Z	427	291	-66.625	36.375	98014.64	38.072147369384766	16.0
177	1.0	2013-09-12T18:00:00Z	429	300	-66.375	37.5	97783.984	41.860816955566406	16.0
177	1.0	2013-09-13T00:00:00Z	435	312	-65.625	39.0	98023.79	36.716331481933594	16.0
177	1.0	2013-09-13T06:00:00Z	451	327	-63.625	40.875	98235.71	37.19160842895508	16.0
177	1.0	2013-09-13T12:00:00Z	473	343	-60.875	42.875	98792.47	36.5222282409668	16.0
177	1.0	2013-09-13T18:00:00Z	503	358	-57.125	44.75	99528.8	38.99649429321289	16.0
179	0.0	2013-09-12T12:00:00Z	776	528	-23.0	66.0	97975.29	22.362600326538086	7.0
179	0.0	2013-09-12T18:00:00Z	827	550	-16.625	68.75	97318.21	19.405603408813477	7.0
179	0.0	2013-09-16T06:00:00Z	828	521	-16.5	65.125	99096.32	32.14373779296875	7.0
179	0.0	2013-09-16T06:00:00Z	826	526	-16.75	65.75	99224.164	30.032333374023438	7.0
179	0.0	2013-09-16T18:00:00Z	828	521	-16.5	65.125	99604.28	31.46276092529297	7.0
179	0.0	2013-09-16T18:00:00Z	830	536	-16.25	67.0	99568.23	17.715242385864258	7.0
179	0.0	2013-09-17T00:00:00Z	828	521	-16.5	65.125	99940.34	31.278766632080078	7.0
181	1.0	2013-09-13T06:00:00Z	829	513	-16.375	64.125	99917.02	28.173009872436523	8.0
181	1.0	2013-09-13T06:00:00Z	830	513	-16.25	64.125	99917.02	28.173009872436523	8.0
181	1.0	2013-09-16T06:00:00Z	827	501	-16.625	62.625	98644.87	37.47581481933594	8.0
181	1.0	2013-09-16T06:00:00Z	828	521	-16.5	65.125	99096.32	32.14373779296875	8.0
181	1.0	2013-09-16T06:00:00Z	826	526	-16.75	65.75	99224.164	30.032333374023438	8.0
181	1.0	2013-09-16T18:00:00Z	828	521	-16.5	65.125	99604.28	31.46276092529297	8.0
181	1.0	2013-09-16T18:00:00Z	830	536	-16.25	67.0	99568.23	17.715242385864258	8.0
181	1.0	2013-09-17T00:00:00Z	828	521	-16.5	65.125	99940.34	31.278766632080078	8.0
182	2.0	2013-09-13T12:00:00Z	677	202	-35.375	25.25	99923.65	16.81403350830078	24.0
182	2.0	2013-09-14T00:00:00Z	665	214	-36.875	26.75	99999.08	21.497356414794922	24.0
182	2.0	2013-09-14T06:00:00Z	658	215	-37.75	26.875	99842.13	17.802200317382812	24.0
182	2.0	2013-09-14T12:00:00Z	650	217	-38.75	27.125	99739.586	19.092586517333984	24.0
182	2.0	2013-09-14T18:00:00Z	639	219	-40.125	27.375	99625.016	24.94127655029297	24.0
182	2.0	2013-09-15T00:00:00Z	631	220	-41.125	27.5	99524.79	26.277151107788086	24.0
182	2.0	2013-09-15T06:00:00Z	623	220	-42.125	27.5	99119.88	26.864967346191406	24.0
182	2.0	2013-09-15T12:00:00Z	615	222	-43.125	27.75	98640.1	34.43023681640625	24.0
182	2.0	2013-09-15T18:00:00Z	607	225	-44.125	28.125	98231.28	37.68290710449219	24.0
182	2.0	2013-09-16T00:00:00Z	601	228	-44.875	28.5	98072.34	39.37096405029297	24.0
182	2.0	2013-09-16T06:00:00Z	595	230	-45.625	28.75	97679.86	35.60142517089844	24.0
182	2.0	2013-09-16T12:00:00Z	590	235	-46.25	29.375	97333.055	42.18217086791992	24.0
182	2.0	2013-09-16T18:00:00Z	584	241	-47.0	30.125	96992.36	46.87883377075195	24.0
182	2.0	2013-09-17T00:00:00Z	579	246	-47.625	30.75	96770.914	40.993343353271484	24.0
182	2.0	2013-09-17T06:00:00Z	575	255	-48.125	31.875	96817.234	42.27838897705078	24.0
182	2.0	2013-09-17T12:00:00Z	568	264	-49.0	33.0	97011.4	35.029354095458984	24.0
182	2.0	2013-09-17T18:00:00Z	562	275	-49.75	34.375	97100.016	35.343074798583984	24.0
182	2.0	2013-09-18T00:00:00Z	558	284	-50.25	35.5	97115.07	30.978843688964844	24.0
182	2.0	2013-09-18T06:00:00Z	553	295	-50.875	36.875	97171.016	32.677589416503906	24.0
182	2.0	2013-09-18T12:00:00Z	549	306	-51.375	38.25	97320.625	28.489517211914062	24.0
182	2.0	2013-09-18T18:00:00Z	549	318	-51.375	39.75	97419.7	33.55183029174805	24.0
182	2.0	2013-09-19T00:00:00Z	550	333	-51.25	41.625	97390.945	35.2054557800293	24.0
182	2.0	2013-09-19T06:00:00Z	557	348	-50.375	43.5	97597.3	35.00364303588867	24.0
182	2.0	2013-09-19T12:00:00Z	568	360	-49.0	45.0	98032.74	40.25707244873047	24.0
183	0.0	2013-09-14T00:00:00Z	246	498	-89.25	62.25	98459.76	22.10909080505371	4.0
183	0.0	2013-09-14T12:00:00Z	297	495	-82.875	61.875	98518.27	18.14774513244629	4.0
183	0.0	2013-09-14T18:00:00Z	330	497	-78.75	62.125	98925.984	26.54529571533203	4.0
183	0.0	2013-09-14T18:00:00Z	346	500	-76.75	62.5	98996.11	27.964736938476562	4.0
184	4.0	2013-09-14T18:00:00Z	830	464	-16.25	58.0	100088.01	59.06351089477539	7.0
184	4.0	2013-09-16T18:00:00Z	832	463	-16.0	57.875	100037.03	43.766395568847656	7.0
184	4.0	2013-09-17T00:00:00Z	832	444	-16.0	55.5	100310.8	35.97439956665039	7.0
184	4.0	2013-09-17T00:00:00Z	832	463	-16.0	57.875	99922.875	41.8417854309082	7.0
184	4.0	2013-09-17T00:00:00Z	832	469	-16.0	58.625	99919.516	40.30622100830078	7.0
184	4.0	2013-09-17T00:00:00Z	829	494	-16.375	61.75	99501.81	45.50603485107422	7.0
184	4.0	2013-09-17T00:00:00Z	828	521	-16.5	65.125	99940.34	31.278766632080078	7.0
186	1.0	2013-09-17T06:00:00Z	832	456	-16.0	57.0	99761.55	39.69938278198242	5.0
186	1.0	2013-09-17T06:00:00Z	832	462	-16.0	57.75	99835.76	36.97916030883789	5.0
186	1.0	2013-09-18T18:00:00Z	831	445	-16.125	55.625	100810.62	36.02861022949219	5.0
186	1.0	2013-09-18T18:00:00Z	832	456	-16.0	57.0	100893.41	38.13720703125	5.0
186	1.0	2013-09-18T18:00:00Z	830	464	-16.25	58.0	100851.05	38.651084899902344	5.0
189	4.0	2013-09-21T12:00:00Z	820	523	-17.5	65.375	98583.305	29.706396102905273	3.0
189	4.0	2013-09-21T18:00:00Z	826	520	-16.75	65.0	98925.49	47.87400436401367	3.0
189	4.0	2013-09-22T00:00:00Z	826	520	-16.75	65.0	99747.47	58.42521286010742	3.0
202	1.0	2013-09-27T00:00:00Z	154	117	-100.75	14.625	99751.85	24.775924682617188	9.0
202	1.0	2013-09-27T06:00:00Z	151	114	-101.125	14.25	99639.984	18.901456832885742	9.0
202	1.0	2013-09-27T12:00:00Z	151	111	-101.125	13.875	99253.83	21.24568748474121	9.0
202	1.0	2013-09-27T18:00:00Z	154	114	-100.75	14.25	99059.47	24.26305389404297	9.0
202	1.0	2013-09-28T00:00:00Z	152	118	-101.0	14.75	98618.305	25.545217514038086	9.0
202	1.0	2013-09-28T06:00:00Z	150	122	-101.25	15.25	98447.39	27.491907119750977	9.0
202	1.0	2013-09-28T12:00:00Z	150	124	-101.25	15.5	98107.67	31.912872314453125	9.0
202	1.0	2013-09-28T18:00:00Z	152	131	-101.0	16.375	98040.55	40.42106246948242	9.0
202	1.0	2013-09-29T00:00:00Z	147	145	-101.625	18.125	99619.51	33.43363952636719	9.0
203	1.0	2013-09-27T12:00:00Z	832	456	-16.0	57.0	100985.164	27.946340560913086	5.0
203	1.0	2013-09-27T12:00:00Z	830	464	-16.25	58.0	100986.94	30.165760040283203	5.0
203	1.0	2013-09-27T18:00:00Z	830	464	-16.25	58.0	100874.69	32.09425354003906	5.0
203	1.0	2013-10-04T06:00:00Z	830	464	-16.25	58.0	100151.12	30.560880661010742	5.0
203	1.0	2013-10-04T12:00:00Z	832	462	-16.0	57.75	100341.0	35.00365447998047	5.0
205	1.0	2013-09-28T00:00:00Z	702	551	-32.25	68.875	100724.18	18.137474060058594	11.0
205	1.0	2013-09-28T12:00:00Z	669	544	-36.375	68.0	100262.52	33.827720642089844	11.0
205	1.0	2013-09-28T12:00:00Z	688	545	-34.0	68.125	100460.41	23.89453887939453	11.0
205	1.0	2013-09-28T18:00:00Z	668	545	-36.5	68.125	100244.83	24.933488845825195	11.0
205	1.0	2013-09-28T18:00:00Z	688	545	-34.0	68.125	100446.95	27.708337783813477	11.0
205	1.0	2013-09-29T00:00:00Z	688	545	-34.0	68.125	100336.875	30.7454833984375	11.0
205	1.0	2013-09-29T06:00:00Z	689	545	-33.875	68.125	100374.9	32.8803825378418	11.0
205	1.0	2013-09-29T06:00:00Z	705	550	-31.875	68.75	100243.53	31.744043350219727	11.0
205	1.0	2013-09-29T12:00:00Z	704	550	-32.0	68.75	100310.766	28.644454956054688	11.0
205	1.0	2013-09-29T18:00:00Z	711	550	-31.125	68.75	100438.11	30.729265213012695	11.0
205	1.0	2013-09-29T18:00:00Z	720	550	-30.0	68.75	100370.53	38.20542526245117	11.0
207	1.0	2013-09-28T12:00:00Z	463	504	-62.125	63.0	99409.28	23.094676971435547	3.0
207	1.0	2013-09-28T18:00:00Z	517	505	-55.375	63.125	99269.84	20.475605010986328	3.0
207	1.0	2013-10-01T12:00:00Z	501	524	-57.375	65.5	100041.95	33.829986572265625	3.0
208	3.0	2013-09-28T18:00:00Z	832	384	-16.0	48.0	99805.28	27.726001739501953	3.0
208	3.0	2013-09-29T12:00:00Z	832	358	-16.0	44.75	99425.92	51.68975830078125	3.0
208	3.0	2013-09-29T18:00:00Z	832	358	-16.0	44.75	99212.04	50.02882766723633	3.0
209	4.0	2013-09-29T12:00:00Z	402	467	-69.75	58.375	98900.516	69.35903930664062	3.0
209	4.0	2013-10-03T00:00:00Z	426	476	-66.75	59.5	98264.086	15.075852394104004	3.0
209	4.0	2013-10-03T12:00:00Z	467	477	-61.625	59.625	98354.43	27.452960968017578	3.0
215	1.0	2013-09-30T18:00:00Z	451	534	-63.625	66.75	99829.46	14.355530738830566	3.0
215	1.0	2013-10-01T00:00:00Z	442	536	-64.75	67.0	100001.96	12.02992057800293	3.0
215	1.0	2013-10-01T12:00:00Z	501	524	-57.375	65.5	100041.95	33.829986572265625	3.0
217	-1.0	2013-10-01T18:00:00Z	743	410	-27.125	51.25	98038.97	14.086416244506836	5.0
217	-1.0	2013-10-02T12:00:00Z	752	414	-26.0	51.75	98401.625	13.810258865356445	5.0
217	-1.0	2013-10-02T18:00:00Z	753	421	-25.875	52.625	98698.914	14.455490112304688	5.0
217	-1.0	2013-10-03T00:00:00Z	750	430	-26.25	53.75	98894.516	14.61486530303955	5.0
217	-1.0	2013-10-03T06:00:00Z	745	438	-26.875	54.75	98943.1	14.474637031555176	5.0
218	0.0	2013-10-01T18:00:00Z	580	519	-47.5	64.875	100346.85	24.184728622436523	4.0
218	0.0	2013-10-02T00:00:00Z	637	514	-40.375	64.25	99708.62	9.607260704040527	4.0
218	0.0	2013-10-02T12:00:00Z	582	517	-47.25	64.625	99949.31	19.929582595825195	4.0
218	0.0	2013-10-02T12:00:00Z	596	517	-45.5	64.625	99948.81	15.489802360534668	4.0
220	0.0	2013-10-03T12:00:00Z	592	255	-46.0	31.875	98774.35	27.521148681640625	6.0
220	0.0	2013-10-03T18:00:00Z	604	257	-44.5	32.125	98641.02	26.205955505371094	6.0
220	0.0	2013-10-04T00:00:00Z	613	260	-43.375	32.5	98561.38	29.47381019592285	6.0
220	0.0	2013-10-04T06:00:00Z	621	265	-42.375	33.125	98454.445	24.77202033996582	6.0
220	0.0	2013-10-04T12:00:00Z	629	271	-41.375	33.875	98543.37	23.55693817138672	6.0
220	0.0	2013-10-04T18:00:00Z	634	278	-40.75	34.75	98505.19	24.549299240112305	6.0
223	0.0	2013-10-04T06:00:00Z	744	478	-27.0	59.75	99182.74	20.104867935180664	3.0
223	0.0	2013-10-04T06:00:00Z	737	480	-27.875	60.0	99184.43	15.388059616088867	3.0
223	0.0	2013-10-04T12:00:00Z	734	488	-28.25	61.0	99325.94	19.405000686645508	3.0
225	1.0	2013-10-06T00:00:00Z	691	320	-33.625	40.0	98308.09	29.21721649169922	3.0
225	1.0	2013-10-06T06:00:00Z	711	334	-31.125	41.75	98087.32	29.865888595581055	3.0
225	1.0	2013-10-06T12:00:00Z	740	348	-27.5	43.5	98338.26	33.80397415161133	3.0
227	2.0	2013-10-06T06:00:00Z	176	338	-98.0	42.25	100941.57	19.908924102783203	3.0
227	2.0	2013-10-06T06:00:00Z	197	362	-95.375	45.25	100745.99	46.70703125	3.0
227	2.0	2013-10-06T12:00:00Z	207	363	-94.125	45.375	100722.93	47.159427642822266	3.0
230	0.0	2013-10-06T18:00:00Z	188	329	-96.5	41.125	100986.445	13.845868110656738	3.0
230	0.0	2013-10-07T00:00:00Z	186	327	-96.75	40.875	100982.48	32.812644958496094	3.0
230	0.0	2013-10-07T00:00:00Z	194	328	-95.75	41.0	100962.4	19.31945037841797	3.0
240	0.0	2013-10-13T12:00:00Z	493	334	-58.375	41.75	96446.08	19.638158798217773	11.0
240	0.0	2013-10-13T18:00:00Z	499	333	-57.625	41.625	96649.36	24.273113250732422	11.0
240	0.0	2013-10-14T00:00:00Z	503	336	-57.125	42.0	96867.13	20.704246520996094	11.0
240	0.0	2013-10-14T12:00:00Z	520	335	-55.0	41.875	97347.69	22.483243942260742	11.0
240	0.0	2013-10-14T18:00:00Z	529	340	-53.875	42.5	97508.8	21.927692413330078	11.0
240	0.0	2013-10-15T00:00:00Z	541	347	-52.375	43.375	97730.86	23.01985740661621	11.0
240	0.0	2013-10-15T06:00:00Z	548	358	-51.5	44.75	97818.586	22.130849838256836	11.0
240	0.0	2013-10-15T12:00:00Z	544	370	-52.0	46.25	97954.734	20.661470413208008	11.0
240	0.0	2013-10-15T18:00:00Z	534	378	-53.25	47.25	98290.08	21.929519653320312	11.0
240	0.0	2013-10-16T00:00:00Z	520	378	-55.0	47.25	98628.03	15.973342895507812	11.0
240	0.0	2013-10-16T06:00:00Z	515	372	-55.625	46.5	98902.63	13.130117416381836	11.0
241	4.0	2013-10-13T18:00:00Z	122	292	-104.75	36.5	100980.016	54.97414016723633	3.0
241	4.0	2013-10-14T00:00:00Z	132	305	-103.5	38.125	100308.99	60.89158630371094	3.0
241	4.0	2013-10-14T18:00:00Z	122	319	-104.75	39.875	100776.31	58.53644561767578	3.0
243	0.0	2013-10-14T06:00:00Z	618	158	-42.75	19.75	100853.805	24.581064224243164	4.0
243	0.0	2013-10-14T12:00:00Z	615	164	-43.125	20.5	100997.945	22.559329986572266	4.0
243	0.0	2013-10-14T18:00:00Z	611	172	-43.625	21.5	100942.26	19.20302963256836	4.0
243	0.0	2013-10-15T12:00:00Z	611	190	-43.625	23.75	100787.26	21.95175552368164	4.0
254	0.0	2013-10-20T06:00:00Z	177	411	-97.875	51.375	100665.5	18.886356353759766	3.0
254	0.0	2013-10-20T12:00:00Z	189	395	-96.375	49.375	100797.33	14.884065628051758	3.0
254	0.0	2013-10-20T12:00:00Z	175	402	-98.125	50.25	100868.45	17.491901397705078	3.0
257	0.0	2013-10-21T06:00:00Z	446	414	-64.25	51.75	97009.62	23.67107391357422	3.0
257	0.0	2013-10-21T12:00:00Z	450	411	-63.75	51.375	97167.43	22.707305908203125	3.0
257	0.0	2013-10-21T18:00:00Z	473	412	-60.875	51.5	97428.53	20.671619415283203	3.0
258	0.0	2013-10-22T06:00:00Z	508	423	-56.5	52.875	97835.22	15.037479400634766	5.0
258	0.0	2013-10-22T12:00:00Z	512	426	-56.0	53.25	98086.305	14.777703285217285	5.0
258	0.0	2013-10-22T18:00:00Z	501	429	-57.375	53.625	98316.6	17.429746627807617	5.0
258	0.0	2013-10-22T18:00:00Z	514	432	-55.75	54.0	98318.02	17.499134063720703	5.0
258	0.0	2013-10-23T00:00:00Z	503	438	-57.125	54.75	98334.51	17.644676208496094	5.0
263	1.0	2013-10-24T00:00:00Z	810	508	-18.75	63.5	98372.97	19.68427085876465	14.0
263	1.0	2013-10-24T06:00:00Z	810	508	-18.75	63.5	98827.46	37.56465148925781	14.0
263	1.0	2013-10-25T00:00:00Z	829	513	-16.375	64.125	99580.8	26.378965377807617	14.0
263	1.0	2013-10-25T00:00:00Z	830	513	-16.25	64.125	99580.8	25.38198471069336	14.0
263	1.0	2013-10-25T00:00:00Z	828	520	-16.5	65.0	99662.81	15.628904342651367	14.0
263	1.0	2013-10-25T06:00:00Z	829	513	-16.375	64.125	99576.16	22.52622413635254	14.0
263	1.0	2013-10-25T06:00:00Z	830	513	-16.25	64.125	99576.16	21.63292121887207	14.0
263	1.0	2013-10-25T06:00:00Z	828	520	-16.5	65.0	99687.89	16.888301849365234	14.0
263	1.0	2013-10-25T06:00:00Z	828	521	-16.5	65.125	99687.89	16.888301849365234	14.0
263	1.0	2013-10-25T12:00:00Z	828	520	-16.5	65.0	99760.95	19.713504791259766	14.0
263	1.0	2013-10-25T18:00:00Z	822	503	-17.25	62.875	98917.445	40.60838317871094	14.0
263	1.0	2013-10-26T00:00:00Z	826	520	-16.75	65.0	99117.62	26.57074737548828	14.0
263	1.0	2013-10-26T18:00:00Z	828	489	-16.5	61.125	97152.5	18.066387176513672	14.0
263	1.0	2013-10-26T18:00:00Z	829	489	-16.375	61.125	97152.5	18.066387176513672	14.0
264	2.0	2013-10-24T06:00:00Z	682	405	-34.75	50.625	97783.56	44.630855560302734	13.0
264	2.0	2013-10-24T12:00:00Z	710	401	-31.25	50.125	97847.375	41.80873489379883	13.0
264	2.0	2013-10-24T12:00:00Z	718	415	-30.25	51.875	97797.39	27.287418365478516	13.0
264	2.0	2013-10-24T18:00:00Z	707	411	-31.625	51.375	97978.75	35.483333587646484	13.0
264	2.0	2013-10-25T00:00:00Z	745	411	-26.875	51.375	97510.86	34.117149353027344	13.0
264	2.0	2013-10-25T12:00:00Z	750	415	-26.25	51.875	97237.54	24.171405792236328	13.0
264	2.0	2013-10-25T18:00:00Z	767	429	-24.125	53.625	97479.29	29.510530471801758	13.0
264	2.0	2013-10-26T00:00:00Z	789	445	-21.375	55.625	97512.89	36.3525505065918	13.0
264	2.0	2013-10-26T06:00:00Z	805	452	-19.375	56.5	97143.945	26.060091018676758	13.0
264	2.0	2013-10-26T12:00:00Z	820	468	-17.5	58.5	96993.88	18.75736427307129	13.0
264	2.0	2013-10-26T18:00:00Z	813	482	-18.375	60.25	97148.695	18.404325485229492	13.0
264	2.0	2013-10-26T18:00:00Z	828	489	-16.5	61.125	97152.5	18.066387176513672	13.0
264	2.0	2013-10-26T18:00:00Z	829	489	-16.375	61.125	97152.5	18.066387176513672	13.0
269	1.0	2013-10-29T12:00:00Z	56	317	-113.0	39.625	100923.14	30.80991554260254	5.0
269	1.0	2013-10-29T12:00:00Z	52	338	-113.5	42.25	100715.58	20.14592933654785	5.0
269	1.0	2013-10-29T18:00:00Z	89	332	-108.875	41.5	100948.914	38.98978805541992	5.0
269	1.0	2013-10-29T18:00:00Z	70	337	-111.25	42.125	100959.74	10.958999633789062	5.0
269	1.0	2013-10-30T06:00:00Z	87	351	-109.125	43.875	100980.12	16.84074592590332	5.0
277	3.0	2013-10-31T12:00:00Z	42	411	-114.75	51.375	100391.48	54.325077056884766	3.0
277	3.0	2013-10-31T12:00:00Z	37	415	-115.375	51.875	100369.27	54.67154312133789	3.0
277	3.0	2013-10-31T12:00:00Z	29	421	-116.375	52.625	100335.13	55.774410247802734	3.0
286	2.0	2013-11-03T06:00:00Z	831	403	-16.125	50.375	100125.03	43.798763275146484	3.0
286	2.0	2013-11-03T06:00:00Z	832	403	-16.0	50.375	100125.03	43.798763275146484	3.0
286	2.0	2013-11-03T06:00:00Z	831	413	-16.125	51.625	100156.66	42.382781982421875	3.0
294	0.0	2013-11-09T06:00:00Z	657	444	-37.875	55.5	96095.336	32.18525695800781	3.0
294	0.0	2013-11-09T06:00:00Z	683	461	-34.625	57.625	96132.17	25.012014389038086	3.0
294	0.0	2013-11-09T06:00:00Z	703	465	-32.125	58.125	96124.336	25.96678352355957	3.0
295	0.0	2013-11-10T00:00:00Z	564	431	-49.5	53.875	98546.33	23.083581924438477	4.0
295	0.0	2013-11-10T06:00:00Z	588	427	-46.5	53.375	98550.875	21.8518009185791	4.0
295	0.0	2013-11-10T12:00:00Z	615	428	-43.125	53.5	98929.04	26.452163696289062	4.0
295	0.0	2013-11-10T18:00:00Z	645	435	-39.375	54.375	99199.46	30.76937484741211	4.0
300	2.0	2013-11-12T12:00:00Z	829	513	-16.375	64.125	99089.19	25.506053924560547	3.0
300	2.0	2013-11-12T12:00:00Z	830	513	-16.25	64.125	99089.19	25.506053924560547	3.0
300	2.0	2013-11-13T00:00:00Z	829	496	-16.375	62.0	100963.734	44.00453186035156	3.0
302	2.0	2013-11-13T18:00:00Z	562	503	-49.75	62.875	98459.88	49.58293151855469	3.0
302	2.0	2013-11-14T18:00:00Z	606	517	-44.25	64.625	98796.32	42.41107177734375	3.0
302	2.0	2013-11-15T00:00:00Z	652	525	-38.5	65.625	98803.55	41.70674514770508	3.0
304	3.0	2013-11-14T00:00:00Z	723	550	-29.625	68.75	100874.71	55.16958999633789	4.0
304	3.0	2013-11-14T12:00:00Z	695	526	-33.125	65.75	98451.22	45.073265075683594	4.0
304	3.0	2013-11-14T18:00:00Z	689	535	-33.875	66.875	98577.18	44.90577697753906	4.0
304	3.0	2013-11-15T00:00:00Z	652	525	-38.5	65.625	98803.55	41.70674514770508	4.0
308	3.0	2013-11-16T00:00:00Z	698	540	-32.75	67.5	98827.16	50.2199592590332	8.0
308	3.0	2013-11-16T06:00:00Z	671	537	-36.125	67.125	99719.8	45.176666259765625	8.0
308	3.0	2013-11-16T18:00:00Z	667	538	-36.625	67.25	100040.65	34.39664840698242	8.0
308	3.0	2013-11-17T00:00:00Z	669	537	-36.375	67.125	100197.35	31.94434928894043	8.0
308	3.0	2013-11-17T00:00:00Z	688	545	-34.0	68.125	100524.08	33.47964096069336	8.0
308	3.0	2013-11-17T06:00:00Z	647	525	-39.125	65.625	100814.6	29.411283493041992	8.0
308	3.0	2013-11-17T06:00:00Z	652	525	-38.5	65.625	100821.53	29.743186950683594	8.0
308	3.0	2013-11-17T06:00:00Z	669	537	-36.375	67.125	100571.46	29.543228149414062	8.0
310	2.0	2013-11-16T06:00:00Z	122	303	-104.75	37.875	99847.3	46.1668701171875	3.0
310	2.0	2013-11-16T12:00:00Z	121	304	-104.875	38.0	99660.4	43.03125	3.0
310	2.0	2013-11-17T12:00:00Z	120	297	-105.0	37.125	100257.195	49.06550979614258	3.0
315	1.0	2013-11-17T00:00:00Z	766	536	-24.25	67.0	99651.63	33.621315002441406	5.0
315	1.0	2013-11-17T00:00:00Z	688	545	-34.0	68.125	100524.08	33.47964096069336	5.0
315	1.0	2013-11-17T06:00:00Z	647	525	-39.125	65.625	100814.6	29.411283493041992	5.0
315	1.0	2013-11-17T06:00:00Z	652	525	-38.5	65.625	100821.53	29.743186950683594	5.0
315	1.0	2013-11-17T06:00:00Z	669	537	-36.375	67.125	100571.46	29.543228149414062	5.0
318	0.0	2013-11-18T18:00:00Z	314	417	-80.75	52.125	97256.22	20.564786911010742	3.0
318	0.0	2013-11-19T00:00:00Z	336	435	-78.0	54.375	98112.7	23.36127281188965	3.0
318	0.0	2013-11-19T06:00:00Z	363	451	-74.625	56.375	98723.59	30.773448944091797	3.0
335	1.0	2013-11-30T06:00:00Z	615	212	-43.125	26.5	100240.02	36.75503158569336	2.0
335	1.0	2013-11-30T12:00:00Z	630	220	-41.25	27.5	100268.49	30.472192764282227	2.0
