,datetime,lon_idx,lat_idx,lon,lat,slp,maxwind
0,2013-06-01 18:00:00,329,389,-78.875,48.625,99915.9296875,50.32740020751953
1,2013-06-02 00:00:00,822,525,-17.25,65.625,100957.5703125,13.347675323486328
2,2013-06-02 00:00:00,822,526,-17.25,65.75,100957.5703125,12.238373756408691
3,2013-06-03 12:00:00,84,399,-109.5,49.875,99850.9140625,36.03290939331055
4,2013-06-03 18:00:00,491,430,-58.625,53.75,99906.984375,65.47017669677734
5,2013-06-05 00:00:00,637,480,-40.375,60.0,100160.734375,52.6475944519043
6,2013-06-05 12:00:00,545,532,-51.875,66.5,100904.4140625,23.479429244995117
7,2013-06-05 18:00:00,209,395,-93.875,49.375,100572.9296875,31.24854850769043
8,2013-06-05 18:00:00,199,398,-95.125,49.75,100511.734375,17.59910774230957
9,2013-06-06 06:00:00,262,331,-87.25,41.375,100637.734375,34.62081527709961
10,2013-06-07 18:00:00,414,386,-68.25,48.25,100794.140625,69.49281311035156
11,2013-06-07 18:00:00,68,505,-111.5,63.125,99732.1171875,17.425453186035156
12,2013-06-07 18:00:00,77,507,-110.375,63.375,99724.515625,19.758583068847656
13,2013-06-08 00:00:00,87,512,-109.125,64.0,99944.734375,8.262786865234375
14,2013-06-08 06:00:00,96,513,-108.0,64.125,100329.640625,14.761889457702637
15,2013-06-08 12:00:00,114,524,-105.75,65.5,100578.1484375,19.313194274902344
16,2013-06-09 00:00:00,662,512,-37.25,64.0,100511.125,13.90611743927002
17,2013-06-09 00:00:00,150,545,-101.25,68.125,100867.9609375,25.631847381591797
18,2013-06-09 06:00:00,605,453,-44.375,56.625,99686.6875,15.903026580810547
19,2013-06-09 12:00:00,631,449,-41.125,56.125,99657.9921875,16.769636154174805
20,2013-06-09 18:00:00,645,449,-39.375,56.125,99687.1484375,11.50606632232666
21,2013-06-10 00:00:00,666,447,-36.75,55.875,99657.28125,12.20361042022705
22,2013-06-10 06:00:00,831,413,-16.125,51.625,100617.609375,36.017662048339844
23,2013-06-10 06:00:00,675,445,-35.625,55.625,99632.890625,12.920507431030273
24,2013-06-10 12:00:00,785,437,-21.875,54.625,100032.6640625,19.068965911865234
25,2013-06-10 18:00:00,715,442,-30.625,55.25,99701.7265625,14.091245651245117
26,2013-06-11 00:00:00,655,365,-38.125,45.625,100538.4453125,54.66136169433594
27,2013-06-11 00:00:00,660,366,-37.5,45.75,100538.578125,56.24710464477539
28,2013-06-11 00:00:00,185,411,-96.875,51.375,100688.84375,27.971879959106445
29,2013-06-11 00:00:00,729,446,-28.875,55.75,99686.9375,10.28834342956543
30,2013-06-11 06:00:00,38,309,-115.25,38.625,100805.328125,22.70046615600586
31,2013-06-11 06:00:00,737,450,-27.875,56.25,99622.4921875,9.488996505737305
32,2013-06-11 12:00:00,167,427,-99.125,53.375,100886.390625,26.630252838134766
33,2013-06-11 12:00:00,830,464,-16.25,58.0,100255.234375,33.13078308105469
34,2013-06-11 18:00:00,64,335,-112.0,41.875,100651.671875,21.641382217407227
35,2013-06-12 00:00:00,743,474,-27.125,59.25,99479.5,13.449772834777832
36,2013-06-12 06:00:00,832,396,-16.0,49.5,100083.421875,57.80770492553711
37,2013-06-12 18:00:00,452,469,-63.5,58.625,100911.9140625,52.03935623168945
38,2013-06-13 00:00:00,674,454,-35.75,56.75,100226.28125,36.9853515625
39,2013-06-13 06:00:00,688,454,-34.0,56.75,100297.8125,34.74998092651367
40,2013-06-13 18:00:00,288,334,-84.0,41.75,100335.8359375,43.38298797607422
41,2013-06-13 18:00:00,725,465,-29.375,58.125,100471.9921875,17.914894104003906
42,2013-06-13 18:00:00,379,482,-72.625,60.25,100958.03125,18.034025192260742
43,2013-06-13 18:00:00,363,489,-74.625,61.125,100958.015625,17.325965881347656
44,2013-06-14 00:00:00,108,362,-106.5,45.25,100084.1640625,44.96340560913086
45,2013-06-14 00:00:00,62,466,-112.25,58.25,100972.5546875,33.752105712890625
46,2013-06-14 00:00:00,734,466,-28.25,58.25,100518.5078125,13.11471176147461
47,2013-06-14 00:00:00,377,481,-72.875,60.125,100869.7109375,15.425865173339844
48,2013-06-14 06:00:00,100,254,-107.5,31.75,100705.2578125,17.667137145996094
49,2013-06-14 06:00:00,736,470,-28.0,58.75,100437.8046875,15.315861701965332
50,2013-06-14 12:00:00,725,472,-29.375,59.0,100401.953125,16.025714874267578
51,2013-06-14 18:00:00,566,376,-49.25,47.0,98043.78125,17.72960090637207
52,2013-06-14 18:00:00,87,427,-109.125,53.375,99837.671875,24.589141845703125
53,2013-06-14 18:00:00,726,469,-29.25,58.625,100659.0234375,17.938846588134766
54,2013-06-15 00:00:00,572,378,-48.5,47.25,97833.609375,19.881093978881836
55,2013-06-15 00:00:00,88,428,-109.0,53.5,99513.859375,37.929962158203125
56,2013-06-15 06:00:00,415,317,-68.125,39.625,98436.1953125,42.590999603271484
57,2013-06-15 06:00:00,588,381,-46.5,47.625,98110.8984375,27.92667007446289
58,2013-06-15 06:00:00,86,427,-109.25,53.375,99674.5078125,32.90833282470703
59,2013-06-15 12:00:00,607,387,-44.125,48.375,98405.3671875,33.2440185546875
60,2013-06-15 18:00:00,624,392,-42.0,49.0,98629.5546875,35.51899337768555
61,2013-06-15 18:00:00,219,396,-92.625,49.5,100325.3046875,36.92389678955078
62,2013-06-16 00:00:00,231,378,-91.125,47.25,100353.6484375,54.3331298828125
63,2013-06-16 06:00:00,449,370,-63.875,46.25,100061.6640625,27.186819076538086
64,2013-06-16 12:00:00,359,425,-75.125,53.125,100255.0390625,28.41220474243164
65,2013-06-16 18:00:00,350,428,-76.25,53.5,100227.1796875,25.535755157470703
66,2013-06-17 00:00:00,350,334,-76.25,41.75,100195.09375,72.71087646484375
67,2013-06-17 06:00:00,381,342,-72.375,42.75,100215.4765625,72.63867950439453
68,2013-06-17 06:00:00,637,473,-40.375,59.125,98756.4140625,35.62553787231445
69,2013-06-17 06:00:00,549,532,-51.375,66.5,100504.984375,13.030205726623535
70,2013-06-17 18:00:00,595,493,-45.625,61.625,99367.671875,21.738882064819336
71,2013-06-18 00:00:00,607,486,-44.125,60.75,99323.1640625,19.84259033203125
72,2013-06-18 00:00:00,829,489,-16.375,61.125,100189.96875,28.60026741027832
73,2013-06-18 18:00:00,827,528,-16.625,66.0,99240.4453125,17.330411911010742
74,2013-06-19 00:00:00,469,397,-61.375,49.625,98266.0078125,32.961238861083984
75,2013-06-19 00:00:00,829,535,-16.375,66.875,99502.625,15.422752380371094
76,2013-06-19 18:00:00,825,512,-16.875,64.0,99240.140625,9.84932804107666
77,2013-06-20 00:00:00,84,382,-109.5,47.75,99625.734375,23.474544525146484
78,2013-06-20 00:00:00,827,506,-16.625,63.25,99692.5,11.940356254577637
79,2013-06-20 00:00:00,828,521,-16.5,65.125,99589.2734375,16.605361938476562
80,2013-06-20 06:00:00,100,383,-107.5,47.875,100151.21875,33.8819465637207
81,2013-06-20 06:00:00,827,506,-16.625,63.25,99949.703125,13.535082817077637
82,2013-06-20 06:00:00,828,520,-16.5,65.0,99967.0234375,18.421188354492188
83,2013-06-20 06:00:00,828,521,-16.5,65.125,99967.0234375,18.421188354492188
84,2013-06-20 06:00:00,544,531,-52.0,66.375,100117.640625,18.094573974609375
85,2013-06-20 12:00:00,54,395,-113.25,49.375,100450.609375,43.964393615722656
86,2013-06-20 12:00:00,830,464,-16.25,58.0,100725.4140625,27.72140121459961
87,2013-06-20 12:00:00,828,520,-16.5,65.0,100239.1328125,19.36589813232422
88,2013-06-20 12:00:00,828,525,-16.5,65.625,100235.09375,18.943981170654297
89,2013-06-21 00:00:00,348,528,-76.5,66.0,99078.8671875,29.042890548706055
90,2013-06-21 06:00:00,380,529,-72.5,66.125,98579.4296875,16.628311157226562
91,2013-06-21 12:00:00,831,439,-16.125,54.875,99855.9140625,58.87208557128906
92,2013-06-21 18:00:00,831,439,-16.125,54.875,99634.2109375,41.63685607910156
93,2013-06-22 00:00:00,450,540,-63.75,67.5,98921.6796875,31.489694595336914
94,2013-06-22 00:00:00,375,541,-73.125,67.625,98484.5625,15.605213165283203
95,2013-06-22 06:00:00,832,445,-16.0,55.625,99828.6015625,21.600370407104492
96,2013-06-22 06:00:00,738,474,-27.75,59.25,99896.765625,14.161735534667969
97,2013-06-22 06:00:00,370,537,-73.75,67.125,98700.1015625,15.829299926757812
98,2013-06-22 06:00:00,451,539,-63.625,67.375,99229.9609375,29.64010238647461
99,2013-06-22 12:00:00,88,124,-109.0,15.5,99958.375,19.320175170898438
100,2013-06-22 12:00:00,744,473,-27.0,59.125,100180.265625,22.478757858276367
101,2013-06-22 18:00:00,82,127,-109.75,15.875,99953.71875,19.556852340698242
102,2013-06-23 06:00:00,760,486,-25.0,60.75,100858.15625,16.0428524017334
103,2013-06-23 12:00:00,72,131,-111.0,16.375,99274.765625,22.641321182250977
104,2013-06-23 12:00:00,450,477,-63.75,59.625,99916.359375,19.937829971313477
105,2013-06-23 18:00:00,69,133,-111.375,16.625,99277.96875,23.282209396362305
106,2013-06-23 18:00:00,453,467,-63.375,58.375,100145.390625,37.137939453125
107,2013-06-23 18:00:00,483,473,-59.625,59.125,100137.609375,24.733434677124023
108,2013-06-23 18:00:00,482,479,-59.75,59.875,100141.4140625,19.454849243164062
109,2013-06-24 00:00:00,453,471,-63.375,58.875,100396.9921875,21.717592239379883
110,2013-06-24 06:00:00,57,134,-112.875,16.75,98797.9765625,29.889324188232422
111,2013-06-24 06:00:00,466,462,-61.75,57.75,100575.984375,34.488033294677734
112,2013-06-24 12:00:00,51,135,-113.625,16.875,98496.8359375,30.851160049438477
113,2013-06-24 18:00:00,46,134,-114.25,16.75,98386.8984375,32.359397888183594
114,2013-06-24 18:00:00,397,479,-70.375,59.875,100915.1875,20.442169189453125
115,2013-06-25 00:00:00,40,133,-115.0,16.625,98299.3828125,33.13325119018555
116,2013-06-25 00:00:00,456,466,-63.0,58.25,100489.109375,21.842466354370117
117,2013-06-25 06:00:00,34,130,-115.75,16.25,98498.8671875,29.669193267822266
118,2013-06-25 12:00:00,30,127,-116.25,15.875,98436.8359375,29.226680755615234
119,2013-06-25 18:00:00,27,125,-116.625,15.625,98364.3203125,32.638954162597656
120,2013-06-26 00:00:00,24,129,-117.0,16.125,98346.0234375,37.10505676269531
121,2013-06-26 00:00:00,633,490,-40.875,61.25,100622.5625,24.743722915649414
122,2013-06-26 06:00:00,19,133,-117.625,16.625,98742.0703125,40.8183708190918
123,2013-06-26 06:00:00,369,333,-73.875,41.625,100932.046875,36.89101028442383
124,2013-06-26 12:00:00,124,111,-104.5,13.875,100064.671875,22.851037979125977
125,2013-06-26 12:00:00,710,539,-31.25,67.375,100866.3125,19.200546264648438
126,2013-06-26 18:00:00,114,116,-105.75,14.5,99882.6796875,20.00174903869629
127,2013-06-26 18:00:00,711,540,-31.125,67.5,100863.7421875,36.64239501953125
128,2013-06-27 00:00:00,105,125,-106.875,15.625,99596.640625,26.046371459960938
129,2013-06-27 00:00:00,713,551,-30.875,68.875,100748.578125,40.42261505126953
130,2013-06-27 06:00:00,96,131,-108.0,16.375,99376.0078125,23.476144790649414
131,2013-06-27 06:00:00,671,488,-36.125,61.0,97527.2265625,29.89615249633789
132,2013-06-27 06:00:00,646,491,-39.25,61.375,97668.578125,17.415454864501953
133,2013-06-27 18:00:00,79,147,-110.125,18.375,99107.359375,28.407577514648438
134,2013-06-27 18:00:00,725,512,-29.375,64.0,97888.1328125,18.249507904052734
135,2013-06-27 18:00:00,652,533,-38.5,66.625,99433.0859375,30.852542877197266
136,2013-06-28 00:00:00,70,151,-111.25,18.875,98854.4375,25.13067054748535
137,2013-06-28 06:00:00,64,154,-112.0,19.25,98916.171875,26.677940368652344
138,2013-06-28 06:00:00,493,506,-58.375,63.25,100178.8984375,12.728667259216309
139,2013-06-28 06:00:00,751,522,-26.125,65.25,99021.5,35.16368865966797
140,2013-06-28 06:00:00,430,523,-66.25,65.375,100622.1875,12.91121768951416
141,2013-06-28 12:00:00,55,154,-113.125,19.25,98906.2578125,25.946807861328125
142,2013-06-28 12:00:00,439,510,-65.125,63.75,100633.1171875,28.587875366210938
143,2013-06-28 12:00:00,552,515,-51.0,64.375,100320.53125,23.798866271972656
144,2013-06-28 18:00:00,51,151,-113.625,18.875,99074.9140625,22.35938262939453
145,2013-06-28 18:00:00,439,501,-65.125,62.625,100751.359375,31.3913516998291
146,2013-06-28 18:00:00,713,551,-30.875,68.875,100236.4765625,19.09821319580078
147,2013-06-29 00:00:00,48,147,-114.0,18.375,98944.2734375,23.035400390625
148,2013-06-29 00:00:00,806,523,-19.25,65.375,100403.9921875,38.32166290283203
149,2013-06-29 00:00:00,704,550,-32.0,68.75,100435.7890625,17.703901290893555
150,2013-06-29 00:00:00,723,550,-29.625,68.75,100419.125,14.725591659545898
151,2013-06-29 06:00:00,49,141,-113.875,17.625,98890.6015625,22.85284423828125
152,2013-06-29 12:00:00,50,137,-113.75,17.125,98474.8828125,25.69780731201172
153,2013-06-29 12:00:00,366,522,-74.25,65.25,99896.5,17.842573165893555
154,2013-06-29 18:00:00,50,131,-113.75,16.375,98448.46875,26.79954719543457
155,2013-06-30 00:00:00,50,128,-113.75,16.0,98154.3984375,31.561134338378906
156,2013-06-30 00:00:00,350,300,-76.25,37.5,100420.3984375,27.788673400878906
157,2013-06-30 06:00:00,52,124,-113.5,15.5,98052.5078125,30.995113372802734
158,2013-06-30 06:00:00,747,490,-26.625,61.25,98312.21875,16.276723861694336
159,2013-06-30 06:00:00,567,523,-49.125,65.375,100880.234375,16.103429794311523
160,2013-06-30 12:00:00,53,122,-113.375,15.25,97637.9375,29.837514877319336
161,2013-06-30 12:00:00,745,497,-26.875,62.125,98425.71875,11.46200942993164
162,2013-06-30 18:00:00,52,122,-113.5,15.25,97430.3125,37.61656188964844
163,2013-07-01 00:00:00,53,124,-113.375,15.5,97058.6875,39.234214782714844
164,2013-07-01 00:00:00,632,518,-41.0,64.75,100428.484375,13.265791893005371
165,2013-07-01 00:00:00,568,519,-49.0,64.875,100768.2109375,19.486255645751953
166,2013-07-01 06:00:00,53,128,-113.375,16.0,97123.109375,35.92778396606445
167,2013-07-01 06:00:00,638,517,-40.25,64.625,100345.234375,39.444637298583984
168,2013-07-01 06:00:00,600,526,-45.0,65.75,100760.4453125,11.471826553344727
169,2013-07-01 12:00:00,53,132,-113.375,16.5,97013.828125,37.72877883911133
170,2013-07-01 12:00:00,828,520,-16.5,65.0,99839.5703125,12.292162895202637
171,2013-07-01 12:00:00,828,521,-16.5,65.125,99839.5703125,13.972415924072266
172,2013-07-01 12:00:00,643,527,-39.625,65.875,100517.21875,24.146484375
173,2013-07-01 18:00:00,52,135,-113.5,16.875,97287.328125,42.062618255615234
174,2013-07-01 18:00:00,817,511,-17.875,63.875,99806.9453125,37.26618957519531
175,2013-07-01 18:00:00,829,513,-16.375,64.125,99743.984375,33.266632080078125
176,2013-07-01 18:00:00,830,513,-16.25,64.125,99743.984375,33.266632080078125
177,2013-07-01 18:00:00,828,520,-16.5,65.0,99869.8046875,12.206897735595703
178,2013-07-01 18:00:00,828,521,-16.5,65.125,99869.8046875,13.110225677490234
179,2013-07-01 18:00:00,629,532,-41.375,66.5,100642.6015625,11.973949432373047
180,2013-07-02 00:00:00,52,139,-113.5,17.375,96969.4296875,42.922752380371094
181,2013-07-02 00:00:00,832,456,-16.0,57.0,99666.078125,25.331918716430664
182,2013-07-02 00:00:00,829,482,-16.375,60.25,100268.859375,27.428075790405273
183,2013-07-02 00:00:00,819,511,-17.625,63.875,99857.4609375,34.251182556152344
184,2013-07-02 00:00:00,828,520,-16.5,65.0,99920.15625,14.521649360656738
185,2013-07-02 00:00:00,828,521,-16.5,65.125,99920.15625,13.233163833618164
186,2013-07-02 00:00:00,819,522,-17.625,65.25,100024.2734375,18.81421661376953
187,2013-07-02 00:00:00,579,528,-47.625,66.0,100375.3046875,11.093742370605469
188,2013-07-02 06:00:00,51,143,-113.625,17.875,97201.2109375,40.395164489746094
189,2013-07-02 12:00:00,51,144,-113.625,18.0,97134.609375,40.3531494140625
190,2013-07-02 18:00:00,51,147,-113.625,18.375,97391.2578125,40.08251190185547
191,2013-07-02 18:00:00,827,550,-16.625,68.75,98902.25,11.485408782958984
192,2013-07-03 00:00:00,52,147,-113.5,18.375,97296.1875,43.09850311279297
193,2013-07-03 00:00:00,824,551,-17.0,68.875,99174.8828125,11.723145484924316
194,2013-07-03 06:00:00,53,146,-113.375,18.25,97509.7890625,39.180240631103516
195,2013-07-03 06:00:00,12,523,-118.5,65.375,98995.171875,16.563142776489258
196,2013-07-03 06:00:00,12,524,-118.5,65.5,98995.171875,14.809502601623535
197,2013-07-03 12:00:00,53,145,-113.375,18.125,97614.703125,35.84575271606445
198,2013-07-03 12:00:00,12,523,-118.5,65.375,99293.8515625,20.382463455200195
199,2013-07-03 12:00:00,12,524,-118.5,65.5,99293.8515625,20.826641082763672
200,2013-07-03 18:00:00,52,141,-113.5,17.625,97727.09375,38.34465408325195
201,2013-07-04 00:00:00,51,138,-113.625,17.25,97543.9609375,38.968597412109375
202,2013-07-04 06:00:00,48,135,-114.0,16.875,97777.1484375,38.68217468261719
203,2013-07-04 06:00:00,488,498,-59.0,62.25,99057.28125,15.543310165405273
204,2013-07-04 12:00:00,44,131,-114.5,16.375,97644.46875,39.28501510620117
205,2013-07-04 12:00:00,530,478,-53.75,59.75,99365.8125,24.919748306274414
206,2013-07-04 12:00:00,825,496,-16.875,62.0,98519.3515625,16.35629653930664
207,2013-07-04 12:00:00,292,533,-83.5,66.625,99543.2734375,20.10274887084961
208,2013-07-04 18:00:00,41,127,-114.875,15.875,98060.5078125,39.71664810180664
209,2013-07-04 18:00:00,560,464,-50.0,58.0,99252.1640625,44.61301803588867
210,2013-07-04 18:00:00,444,472,-64.5,59.0,99791.4296875,61.77072525024414
211,2013-07-04 18:00:00,61,497,-112.375,62.125,100642.3515625,19.43027687072754
212,2013-07-05 00:00:00,37,124,-115.375,15.5,97987.2734375,37.9366455078125
213,2013-07-05 00:00:00,609,457,-43.875,57.125,99377.546875,34.224918365478516
214,2013-07-05 00:00:00,258,524,-87.75,65.5,99944.828125,20.028783798217773
215,2013-07-05 06:00:00,33,120,-115.875,15.0,97984.3671875,41.264774322509766
216,2013-07-05 06:00:00,655,457,-38.125,57.125,98922.8515625,28.31018829345703
217,2013-07-05 06:00:00,281,519,-84.875,64.875,100055.2109375,17.300315856933594
218,2013-07-05 12:00:00,30,118,-116.25,14.75,97751.40625,42.46923065185547
219,2013-07-05 12:00:00,678,456,-35.25,57.0,98852.75,21.659648895263672
220,2013-07-05 18:00:00,30,116,-116.25,14.5,98010.8203125,41.65772247314453
221,2013-07-05 18:00:00,712,465,-31.0,58.125,98828.125,24.557514190673828
222,2013-07-06 00:00:00,30,115,-116.25,14.375,98380.3984375,35.899925231933594
223,2013-07-06 00:00:00,743,475,-27.125,59.375,98596.9765625,31.702363967895508
224,2013-07-06 00:00:00,303,499,-82.125,62.375,100366.4453125,15.35258960723877
225,2013-07-06 06:00:00,30,114,-116.25,14.25,98495.96875,36.02053451538086
226,2013-07-06 06:00:00,162,409,-99.75,51.125,100546.90625,37.61149978637695
227,2013-07-06 06:00:00,318,494,-80.25,61.75,100386.0078125,13.382583618164062
228,2013-07-06 06:00:00,799,532,-20.125,66.5,98439.796875,16.56608772277832
229,2013-07-06 12:00:00,30,112,-116.25,14.0,98554.0390625,38.422096252441406
230,2013-07-06 12:00:00,827,528,-16.625,66.0,98410.8515625,14.249295234680176
231,2013-07-06 18:00:00,31,110,-116.125,13.75,98902.6484375,32.799461364746094
232,2013-07-06 18:00:00,827,545,-16.625,68.125,98833.1484375,11.591346740722656
233,2013-07-06 18:00:00,828,545,-16.5,68.125,98833.1484375,11.591346740722656
234,2013-07-07 00:00:00,32,108,-116.0,13.5,99001.296875,35.67448043823242
235,2013-07-07 12:00:00,38,102,-115.25,12.75,99275.1953125,28.902284622192383
236,2013-07-07 18:00:00,555,534,-50.625,66.75,100286.796875,14.784642219543457
237,2013-07-08 00:00:00,48,99,-114.0,12.375,99427.6328125,28.38629150390625
238,2013-07-08 00:00:00,497,474,-57.875,59.25,98522.2890625,20.439374923706055
239,2013-07-08 06:00:00,63,143,-112.125,17.875,99890.5078125,26.9678897857666
240,2013-07-08 06:00:00,496,475,-58.0,59.375,98674.234375,14.643777847290039
241,2013-07-08 12:00:00,54,146,-113.25,18.25,99776.640625,23.996156692504883
242,2013-07-08 12:00:00,501,475,-57.375,59.375,98902.359375,12.688356399536133
243,2013-07-08 18:00:00,45,148,-114.375,18.5,99905.1171875,24.644250869750977
244,2013-07-08 18:00:00,505,478,-56.875,59.75,99241.3671875,9.836115837097168
245,2013-07-09 00:00:00,34,150,-115.75,18.75,99912.125,32.17469787597656
246,2013-07-09 00:00:00,512,479,-56.0,59.875,99485.1484375,11.181758880615234
247,2013-07-09 06:00:00,515,479,-55.625,59.875,99716.4921875,12.025383949279785
248,2013-07-09 12:00:00,172,402,-98.5,50.25,100874.5234375,49.37705612182617
249,2013-07-09 12:00:00,525,479,-54.375,59.875,99934.0078125,13.977838516235352
250,2013-07-09 18:00:00,536,479,-53.0,59.875,100266.1484375,16.728857040405273
251,2013-07-10 00:00:00,550,479,-51.25,59.875,100525.6953125,16.97342300415039
252,2013-07-12 00:00:00,83,408,-109.625,51.0,100085.921875,68.00240325927734
253,2013-07-12 06:00:00,587,370,-46.625,46.25,100485.2265625,41.27940368652344
254,2013-07-12 06:00:00,132,465,-103.5,58.125,99236.5625,33.675270080566406
255,2013-07-12 18:00:00,441,380,-64.875,47.5,100492.8671875,57.72317886352539
256,2013-07-13 00:00:00,433,368,-65.875,46.0,100910.296875,54.83537292480469
257,2013-07-13 12:00:00,208,494,-94.0,61.75,99042.484375,21.559616088867188
258,2013-07-13 12:00:00,653,532,-38.375,66.5,100530.8203125,40.93687438964844
259,2013-07-14 12:00:00,288,518,-84.0,64.75,98920.9609375,29.88705062866211
260,2013-07-15 00:00:00,399,487,-70.125,60.875,99637.0625,21.632104873657227
261,2013-07-15 00:00:00,393,488,-70.875,61.0,99636.265625,16.63013458251953
262,2013-07-15 06:00:00,416,489,-68.0,61.125,99701.7890625,19.111623764038086
263,2013-07-15 12:00:00,150,117,-101.25,14.625,100615.515625,21.286476135253906
264,2013-07-15 12:00:00,509,477,-56.375,59.625,99682.640625,19.91546630859375
265,2013-07-15 18:00:00,235,551,-90.625,68.875,100453.015625,19.988872528076172
266,2013-07-16 00:00:00,235,551,-90.625,68.875,100498.7265625,22.3992862701416
267,2013-07-16 06:00:00,326,521,-79.25,65.125,99805.765625,14.385004043579102
268,2013-07-16 12:00:00,343,523,-77.125,65.375,100026.65625,17.527578353881836
269,2013-07-16 18:00:00,829,513,-16.375,64.125,99951.3984375,22.885488510131836
270,2013-07-16 18:00:00,830,513,-16.25,64.125,99951.3984375,21.525779724121094
271,2013-07-17 00:00:00,829,513,-16.375,64.125,100009.7265625,42.80281448364258
272,2013-07-17 00:00:00,830,513,-16.25,64.125,100009.7265625,42.80281448364258
273,2013-07-17 00:00:00,820,523,-17.5,65.375,100009.03125,25.95159912109375
274,2013-07-17 06:00:00,826,526,-16.75,65.75,100271.0078125,31.685434341430664
275,2013-07-17 18:00:00,341,464,-77.375,58.0,97598.0,17.44024658203125
276,2013-07-18 00:00:00,428,384,-66.5,48.0,100651.40625,61.30860137939453
277,2013-07-18 00:00:00,361,465,-74.875,58.125,97820.6015625,17.975194931030273
278,2013-07-18 06:00:00,374,462,-73.25,57.75,98255.9921875,15.030216217041016
279,2013-07-18 12:00:00,396,459,-70.5,57.375,98651.7421875,13.127634048461914
280,2013-07-19 06:00:00,511,474,-56.125,59.25,98608.8515625,12.642351150512695
281,2013-07-22 00:00:00,504,431,-57.0,53.875,98490.578125,28.093692779541016
282,2013-07-22 06:00:00,513,437,-55.875,54.625,98440.0390625,26.338232040405273
283,2013-07-22 12:00:00,512,434,-56.0,54.25,98564.0546875,23.252838134765625
284,2013-07-23 00:00:00,125,361,-104.375,45.125,100551.4921875,38.494205474853516
285,2013-07-23 00:00:00,831,403,-16.125,50.375,100922.484375,32.9878044128418
286,2013-07-23 00:00:00,832,403,-16.0,50.375,100922.484375,31.3720703125
287,2013-07-23 06:00:00,555,421,-50.625,52.625,99200.5703125,14.964399337768555
288,2013-07-23 06:00:00,831,421,-16.125,52.625,100645.0625,22.09099006652832
289,2013-07-23 12:00:00,575,419,-48.125,52.375,99345.1875,15.219913482666016
290,2013-07-23 12:00:00,831,421,-16.125,52.625,100558.46875,19.52712059020996
291,2013-07-23 12:00:00,832,456,-16.0,57.0,100703.421875,28.853702545166016
292,2013-07-23 18:00:00,831,421,-16.125,52.625,100595.90625,36.41582489013672
293,2013-07-23 18:00:00,831,431,-16.125,53.875,100593.796875,14.944392204284668
294,2013-07-24 00:00:00,309,367,-81.375,45.875,100887.140625,40.45555114746094
295,2013-07-24 00:00:00,320,370,-80.0,46.25,100878.625,41.989845275878906
296,2013-07-24 00:00:00,831,421,-16.125,52.625,100779.140625,56.00681686401367
297,2013-07-24 00:00:00,831,431,-16.125,53.875,100748.2890625,27.57366371154785
298,2013-07-24 06:00:00,829,446,-16.375,55.75,100716.921875,10.133485794067383
299,2013-07-24 06:00:00,832,456,-16.0,57.0,100709.09375,14.497587203979492
300,2013-07-24 12:00:00,829,446,-16.375,55.75,100808.0625,21.187326431274414
301,2013-07-24 12:00:00,832,456,-16.0,57.0,100850.3671875,20.8798828125
302,2013-07-25 18:00:00,675,429,-35.625,53.625,99478.8203125,18.51715850830078
303,2013-07-26 00:00:00,671,427,-36.125,53.375,99596.9296875,16.28723907470703
304,2013-07-26 06:00:00,55,127,-113.125,15.875,99963.421875,23.43853759765625
305,2013-07-26 06:00:00,668,425,-36.5,53.125,99617.7265625,16.854000091552734
306,2013-07-26 12:00:00,47,129,-114.125,16.125,99651.75,25.61883544921875
307,2013-07-26 12:00:00,666,427,-36.75,53.375,99736.5234375,14.505592346191406
308,2013-07-26 18:00:00,37,128,-115.375,16.0,99514.7265625,27.321863174438477
309,2013-07-26 18:00:00,655,429,-38.125,53.625,99924.0859375,18.630109786987305
310,2013-07-27 00:00:00,30,123,-116.25,15.375,99139.375,28.123743057250977
311,2013-07-27 00:00:00,650,423,-38.75,52.875,100003.859375,15.464484214782715
312,2013-07-27 06:00:00,24,117,-117.0,14.625,99310.3671875,37.88877868652344
313,2013-07-27 06:00:00,370,340,-73.75,42.5,100914.7890625,38.403717041015625
314,2013-07-27 06:00:00,651,417,-38.625,52.125,99953.2421875,14.665140151977539
315,2013-07-27 12:00:00,18,113,-117.75,14.125,99788.7578125,35.257415771484375
316,2013-07-27 12:00:00,660,406,-37.5,50.75,99992.625,13.215719223022461
317,2013-07-28 12:00:00,333,417,-78.375,52.125,100271.65625,60.645389556884766
318,2013-07-29 00:00:00,343,16,-77.125,2.0,100870.7109375,28.97210693359375
319,2013-07-31 12:00:00,813,401,-18.375,50.125,99987.609375,32.240299224853516
320,2013-07-31 18:00:00,68,155,-111.5,19.375,100227.46875,33.544952392578125
321,2013-08-01 12:00:00,52,162,-113.5,20.25,99893.59375,28.868017196655273
322,2013-08-02 18:00:00,396,373,-70.5,46.625,100006.6484375,41.96978759765625
323,2013-08-03 00:00:00,434,375,-65.75,46.875,99976.75,60.777584075927734
324,2013-08-03 00:00:00,832,462,-16.0,57.75,99742.3359375,19.258230209350586
325,2013-08-06 00:00:00,35,115,-115.625,14.375,99980.5234375,27.086938858032227
326,2013-08-06 00:00:00,823,475,-17.125,59.375,100541.6171875,15.249707221984863
327,2013-08-06 00:00:00,830,475,-16.25,59.375,100536.96875,13.178116798400879
328,2013-08-06 06:00:00,28,110,-116.5,13.75,99652.078125,25.31000328063965
329,2013-08-06 06:00:00,830,466,-16.25,58.25,100660.7890625,16.66146469116211
330,2013-08-06 12:00:00,21,103,-117.375,12.875,99333.515625,30.986743927001953
331,2013-08-06 12:00:00,832,462,-16.0,57.75,100836.578125,25.1196346282959
332,2013-08-06 18:00:00,17,101,-117.875,12.625,99642.2890625,32.6999397277832
333,2013-08-08 00:00:00,737,535,-27.875,66.875,100424.0390625,15.90733528137207
334,2013-08-09 12:00:00,354,540,-75.75,67.5,100618.2109375,17.673093795776367
335,2013-08-09 18:00:00,357,533,-75.375,66.625,100881.3359375,16.028141021728516
336,2013-08-10 00:00:00,255,446,-88.125,55.75,100587.5546875,12.090034484863281
337,2013-08-10 00:00:00,277,451,-85.375,56.375,100661.4453125,20.448898315429688
338,2013-08-10 06:00:00,293,454,-83.375,56.75,100488.9140625,21.181812286376953
339,2013-08-11 18:00:00,394,494,-70.75,61.75,98889.40625,27.12298011779785
340,2013-08-12 00:00:00,375,494,-73.125,61.75,99393.8359375,25.792814254760742
341,2013-08-13 12:00:00,722,508,-29.75,63.5,100042.84375,34.20166015625
342,2013-08-14 06:00:00,453,375,-63.375,46.875,100878.234375,59.031978607177734
343,2013-08-14 06:00:00,691,522,-33.625,65.25,99163.3046875,29.767553329467773
344,2013-08-14 12:00:00,477,388,-60.375,48.5,100803.1953125,56.35907745361328
345,2013-08-14 12:00:00,672,518,-36.0,64.75,99187.9453125,28.743562698364258
346,2013-08-15 00:00:00,539,486,-52.625,60.75,99234.7734375,19.738313674926758
347,2013-08-15 12:00:00,559,481,-50.125,60.125,99447.6015625,14.445487976074219
348,2013-08-15 18:00:00,578,479,-47.75,59.875,99613.03125,14.667747497558594
349,2013-08-16 00:00:00,429,413,-66.375,51.625,100754.09375,21.559783935546875
350,2013-08-16 00:00:00,592,472,-46.0,59.0,99729.6640625,20.104490280151367
351,2013-08-16 12:00:00,409,550,-68.875,68.75,99379.6953125,30.860149383544922
352,2013-08-17 18:00:00,648,526,-39.0,65.75,98997.671875,21.434314727783203
353,2013-08-17 18:00:00,653,532,-38.375,66.5,99009.25,14.754490852355957
354,2013-08-18 00:00:00,680,520,-35.0,65.0,98887.703125,24.971309661865234
355,2013-08-18 00:00:00,645,526,-39.375,65.75,99020.296875,28.639925003051758
356,2013-08-18 12:00:00,662,531,-37.25,66.375,99237.8046875,12.594359397888184
357,2013-08-20 00:00:00,48,122,-114.0,15.25,99878.59375,25.794923782348633
358,2013-08-20 00:00:00,38,428,-115.25,53.5,100602.40625,67.6341323852539
359,2013-08-20 00:00:00,638,517,-40.25,64.625,99672.0625,12.7954683303833
360,2013-08-20 00:00:00,824,550,-17.0,68.75,98577.9921875,15.40215015411377
361,2013-08-20 06:00:00,41,126,-114.875,15.75,99802.953125,26.284013748168945
362,2013-08-20 12:00:00,35,130,-115.625,16.25,99402.5546875,28.11672019958496
363,2013-08-20 12:00:00,776,519,-23.0,64.875,100690.8671875,29.582059860229492
364,2013-08-20 12:00:00,786,519,-21.75,64.875,100694.984375,30.80928611755371
365,2013-08-20 18:00:00,29,134,-116.375,16.75,99185.2734375,27.441097259521484
366,2013-08-21 00:00:00,27,137,-116.625,17.125,98802.765625,30.23256492614746
367,2013-08-21 06:00:00,26,142,-116.75,17.75,98668.3828125,36.50442123413086
368,2013-08-21 12:00:00,21,147,-117.375,18.375,98636.8203125,38.04834747314453
369,2013-08-21 18:00:00,16,152,-118.0,19.0,99347.9296875,43.26270294189453
370,2013-08-22 12:00:00,831,403,-16.125,50.375,100987.046875,32.10162353515625
371,2013-08-22 12:00:00,832,403,-16.0,50.375,100987.046875,32.10162353515625
372,2013-08-22 12:00:00,831,439,-16.125,54.875,100886.828125,29.791488647460938
373,2013-08-22 18:00:00,502,469,-57.25,58.625,99418.6640625,52.43967819213867
374,2013-08-23 06:00:00,812,487,-18.5,60.875,98704.0859375,22.288776397705078
375,2013-08-23 12:00:00,630,476,-41.25,59.5,99193.796875,23.321252822875977
376,2013-08-23 18:00:00,578,474,-47.75,59.25,100225.484375,53.046546936035156
377,2013-08-24 06:00:00,728,483,-29.0,60.375,99815.15625,56.15446472167969
378,2013-08-24 12:00:00,609,487,-43.875,60.875,100363.671875,23.64703369140625
379,2013-08-25 06:00:00,61,156,-112.375,19.5,99678.5,27.65098762512207
380,2013-08-25 06:00:00,157,430,-100.375,53.75,100183.5859375,49.34142303466797
381,2013-08-25 12:00:00,53,161,-113.375,20.125,99420.90625,27.8704776763916
382,2013-08-25 12:00:00,214,450,-93.25,56.25,100308.703125,52.08681869506836
383,2013-08-25 12:00:00,641,525,-39.875,65.625,99764.3125,27.085689544677734
384,2013-08-25 12:00:00,465,536,-61.875,67.0,99916.15625,35.982215881347656
385,2013-08-25 12:00:00,446,539,-64.25,67.375,99934.546875,26.18543815612793
386,2013-08-25 18:00:00,828,520,-16.5,65.0,99622.359375,33.076011657714844
387,2013-08-25 18:00:00,828,521,-16.5,65.125,99622.359375,32.4946403503418
388,2013-08-25 18:00:00,652,532,-38.5,66.5,99386.1796875,34.936668395996094
389,2013-08-26 00:00:00,49,170,-113.875,21.25,99558.8125,22.52671241760254
390,2013-08-26 00:00:00,265,415,-86.875,51.875,100133.046875,34.82533645629883
391,2013-08-26 06:00:00,46,174,-114.25,21.75,99540.125,23.545150756835938
392,2013-08-26 06:00:00,711,539,-31.125,67.375,99325.1015625,28.527772903442383
393,2013-08-26 12:00:00,44,176,-114.5,22.0,99586.53125,22.62710189819336
394,2013-08-26 12:00:00,447,477,-64.125,59.625,100387.515625,43.268768310546875
395,2013-08-26 12:00:00,677,529,-35.375,66.125,99394.625,47.58155059814453
396,2013-08-26 12:00:00,712,530,-31.0,66.25,99357.515625,35.351497650146484
397,2013-08-26 12:00:00,728,530,-29.0,66.25,99332.140625,37.86259078979492
398,2013-08-26 12:00:00,682,535,-34.75,66.875,99378.1171875,31.811416625976562
399,2013-08-26 18:00:00,764,539,-24.5,67.375,99141.9296875,17.449382781982422
400,2013-08-27 00:00:00,784,530,-22.0,66.25,99594.921875,28.628311157226562
401,2013-08-27 00:00:00,412,532,-68.5,66.5,100144.796875,16.402170181274414
402,2013-08-27 00:00:00,765,537,-24.375,67.125,99395.3125,24.502208709716797
403,2013-08-27 06:00:00,455,524,-63.125,65.5,99904.4921875,22.38819694519043
404,2013-08-27 12:00:00,242,450,-89.75,56.25,100830.359375,42.76243591308594
405,2013-08-27 12:00:00,829,513,-16.375,64.125,100367.328125,60.76564407348633
406,2013-08-27 12:00:00,830,513,-16.25,64.125,100367.328125,60.23859405517578
407,2013-08-28 06:00:00,532,517,-53.5,64.625,99524.484375,19.365100860595703
408,2013-08-28 06:00:00,497,540,-57.875,67.5,100005.5234375,27.341821670532227
409,2013-08-28 12:00:00,557,517,-50.375,64.625,99775.40625,13.112668991088867
410,2013-08-28 18:00:00,628,515,-41.5,64.375,98642.375,29.512462615966797
411,2013-08-29 06:00:00,305,327,-81.875,40.875,100896.265625,31.679462432861328
412,2013-08-29 06:00:00,596,492,-45.5,61.5,99968.0625,33.35874938964844
413,2013-08-29 06:00:00,344,551,-77.0,68.875,100107.046875,24.893451690673828
414,2013-08-30 00:00:00,42,143,-114.75,17.875,98795.34375,28.701749801635742
415,2013-08-30 06:00:00,39,144,-115.125,18.0,98704.7265625,29.632848739624023
416,2013-08-30 12:00:00,38,147,-115.25,18.375,98503.8671875,33.74232864379883
417,2013-08-30 12:00:00,776,508,-23.0,63.5,99109.46875,17.17466926574707
418,2013-08-30 12:00:00,693,540,-33.375,67.5,99750.5703125,22.68695640563965
419,2013-08-30 18:00:00,37,152,-115.375,19.0,98635.9140625,36.840938568115234
420,2013-08-30 18:00:00,705,544,-31.875,68.0,99470.0,19.58530044555664
421,2013-08-31 00:00:00,33,156,-115.875,19.5,98390.8359375,35.98340606689453
422,2013-08-31 00:00:00,829,513,-16.375,64.125,99011.7578125,26.29193115234375
423,2013-08-31 00:00:00,830,513,-16.25,64.125,99011.7578125,24.64228630065918
424,2013-08-31 06:00:00,32,161,-116.0,20.125,98260.6171875,36.81269073486328
425,2013-08-31 12:00:00,28,166,-116.5,20.75,98205.171875,36.15963363647461
426,2013-08-31 12:00:00,825,539,-16.875,67.375,98635.1484375,22.14891815185547
427,2013-08-31 18:00:00,24,169,-117.0,21.125,98408.84375,41.131160736083984
428,2013-08-31 18:00:00,829,526,-16.375,65.75,99636.265625,51.43564987182617
429,2013-08-31 18:00:00,828,543,-16.5,67.875,99381.875,20.95170783996582
430,2013-09-01 00:00:00,22,173,-117.25,21.625,98556.40625,40.87348556518555
431,2013-09-01 00:00:00,526,250,-54.25,31.25,100685.0,23.543643951416016
432,2013-09-01 00:00:00,215,402,-93.125,50.25,100218.203125,30.61644744873047
433,2013-09-01 00:00:00,829,513,-16.375,64.125,99696.390625,60.51830291748047
434,2013-09-01 00:00:00,830,513,-16.25,64.125,99696.390625,60.51830291748047
435,2013-09-01 00:00:00,825,543,-16.875,67.875,99673.8984375,23.578031539916992
436,2013-09-01 06:00:00,20,176,-117.5,22.0,99165.96875,29.302932739257812
437,2013-09-01 06:00:00,531,258,-53.625,32.25,100490.5,31.37228012084961
438,2013-09-01 06:00:00,438,290,-65.25,36.25,100461.5703125,39.21166229248047
439,2013-09-01 06:00:00,827,503,-16.625,62.875,99863.5234375,52.78561782836914
440,2013-09-01 06:00:00,829,513,-16.375,64.125,99790.0703125,53.75250244140625
441,2013-09-01 06:00:00,830,513,-16.25,64.125,99790.0703125,53.75250244140625
442,2013-09-01 06:00:00,829,544,-16.375,68.0,99969.4140625,33.36368179321289
443,2013-09-01 06:00:00,827,550,-16.625,68.75,99966.828125,25.825666427612305
444,2013-09-01 12:00:00,17,179,-117.875,22.375,99563.890625,29.239517211914062
445,2013-09-01 12:00:00,536,265,-53.0,33.125,100423.90625,26.91592025756836
446,2013-09-01 12:00:00,442,291,-64.75,36.375,100487.046875,37.30427551269531
447,2013-09-01 12:00:00,827,503,-16.625,62.875,99980.046875,51.2274284362793
448,2013-09-01 12:00:00,826,521,-16.75,65.125,100087.578125,40.13340377807617
449,2013-09-01 18:00:00,541,274,-52.375,34.25,100316.984375,26.985946655273438
450,2013-09-01 18:00:00,289,361,-83.875,45.125,100276.2265625,35.19109344482422
451,2013-09-02 00:00:00,549,284,-51.375,35.5,100360.9375,27.04210662841797
452,2013-09-02 00:00:00,298,369,-82.75,46.125,100256.5390625,30.69295883178711
453,2013-09-02 06:00:00,560,296,-50.0,37.0,100406.3828125,28.513164520263672
454,2013-09-02 12:00:00,593,491,-45.875,61.375,100668.375,28.511995315551758
455,2013-09-02 18:00:00,826,536,-16.75,67.0,98663.5234375,28.321287155151367
456,2013-09-03 00:00:00,825,543,-16.875,67.875,98601.3828125,18.674137115478516
457,2013-09-03 06:00:00,357,318,-75.375,39.75,100618.296875,35.96030807495117
458,2013-09-04 00:00:00,793,537,-20.875,67.125,99970.140625,12.384160041809082
459,2013-09-04 12:00:00,830,464,-16.25,58.0,100833.203125,30.55181312561035
460,2013-09-04 12:00:00,829,473,-16.375,59.125,100876.2578125,28.350460052490234
461,2013-09-04 12:00:00,829,474,-16.375,59.25,100876.2578125,29.015247344970703
462,2013-09-04 18:00:00,830,485,-16.25,60.625,100677.625,15.178996086120605
463,2013-09-05 12:00:00,37,160,-115.375,20.0,99840.765625,28.053817749023438
464,2013-09-05 18:00:00,33,160,-115.875,20.0,99867.2265625,28.439237594604492
465,2013-09-06 00:00:00,28,160,-116.5,20.0,99720.7734375,30.171993255615234
466,2013-09-06 06:00:00,23,160,-117.125,20.0,99910.3515625,29.13217544555664
467,2013-09-06 12:00:00,259,148,-87.625,18.5,100653.4453125,24.183853149414062
468,2013-09-06 18:00:00,472,513,-61.0,64.125,98011.703125,14.846700668334961
469,2013-09-07 00:00:00,238,148,-90.25,18.5,100723.6953125,15.592327117919922
470,2013-09-07 06:00:00,615,476,-43.125,59.5,97663.109375,22.6180477142334
471,2013-09-07 06:00:00,463,512,-62.125,64.0,97813.625,10.526227951049805
472,2013-09-07 12:00:00,457,505,-62.875,63.125,97997.828125,20.060405731201172
473,2013-09-07 18:00:00,657,510,-37.875,63.75,97982.53125,17.386371612548828
474,2013-09-08 00:00:00,498,509,-57.75,63.625,98700.7265625,22.938989639282227
475,2013-09-08 00:00:00,654,518,-38.25,64.75,98589.84375,21.349451065063477
476,2013-09-08 06:00:00,56,114,-113.0,14.25,98903.4296875,25.077228546142578
477,2013-09-08 06:00:00,496,513,-58.0,64.125,98987.9296875,22.54952049255371
478,2013-09-08 12:00:00,54,112,-113.25,14.0,98184.9296875,30.779020309448242
479,2013-09-08 18:00:00,54,112,-113.25,14.0,97917.3125,37.04588317871094
480,2013-09-08 18:00:00,447,356,-64.125,44.5,99929.9921875,57.36112594604492
481,2013-09-08 18:00:00,481,545,-59.875,68.125,99607.0390625,17.160491943359375
482,2013-09-09 00:00:00,55,115,-113.125,14.375,97393.75,40.52312469482422
483,2013-09-09 06:00:00,53,117,-113.375,14.625,96916.2890625,42.494205474853516
484,2013-09-09 12:00:00,52,118,-113.5,14.75,96448.25,47.780147552490234
485,2013-09-09 12:00:00,201,149,-94.875,18.625,100254.9609375,24.093791961669922
486,2013-09-09 12:00:00,418,239,-67.75,29.875,100273.8125,20.139755249023438
487,2013-09-09 18:00:00,53,122,-113.375,15.25,96861.9375,47.07716369628906
488,2013-09-09 18:00:00,428,246,-66.5,30.75,100212.96875,28.794082641601562
489,2013-09-10 00:00:00,53,126,-113.375,15.75,97206.9453125,39.41532897949219
490,2013-09-10 06:00:00,53,129,-113.375,16.125,97318.375,40.1359748840332
491,2013-09-10 12:00:00,734,128,-28.25,16.0,100347.5703125,19.5294246673584
492,2013-09-10 12:00:00,54,134,-113.25,16.75,97188.4609375,42.489349365234375
493,2013-09-10 12:00:00,449,260,-63.875,32.5,100194.21875,22.012039184570312
494,2013-09-10 12:00:00,520,517,-55.0,64.625,97555.15625,17.653995513916016
495,2013-09-10 18:00:00,728,133,-29.0,16.625,100178.015625,18.210834503173828
496,2013-09-10 18:00:00,52,139,-113.5,17.375,97341.0546875,42.42509078979492
497,2013-09-10 18:00:00,451,262,-63.625,32.75,100225.8515625,20.876142501831055
498,2013-09-11 00:00:00,50,143,-113.75,17.875,97046.765625,45.7950325012207
499,2013-09-11 00:00:00,453,263,-63.375,32.875,100126.859375,21.861196517944336
500,2013-09-11 06:00:00,47,145,-114.125,18.125,97316.984375,47.18018341064453
501,2013-09-11 06:00:00,451,266,-63.625,33.25,99812.484375,22.361989974975586
502,2013-09-11 12:00:00,43,149,-114.625,18.625,97345.6875,43.483123779296875
503,2013-09-11 12:00:00,448,270,-64.0,33.75,99557.703125,28.673723220825195
504,2013-09-11 18:00:00,39,150,-115.125,18.75,98207.4375,41.99697494506836
505,2013-09-11 18:00:00,441,273,-64.875,34.125,99306.046875,31.486127853393555
506,2013-09-12 00:00:00,35,153,-115.625,19.125,98693.296875,40.18986129760742
507,2013-09-12 00:00:00,435,278,-65.625,34.75,98963.40625,33.171043395996094
508,2013-09-12 06:00:00,430,284,-66.25,35.5,98516.9140625,35.0523681640625
509,2013-09-12 12:00:00,427,291,-66.625,36.375,98014.640625,38.072147369384766
510,2013-09-12 12:00:00,776,528,-23.0,66.0,97975.2890625,22.362600326538086
511,2013-09-12 12:00:00,656,531,-38.0,66.375,98706.9609375,22.78399658203125
512,2013-09-12 18:00:00,429,300,-66.375,37.5,97783.984375,41.860816955566406
513,2013-09-12 18:00:00,827,550,-16.625,68.75,97318.2109375,19.405603408813477
514,2013-09-13 00:00:00,435,312,-65.625,39.0,98023.7890625,36.716331481933594
515,2013-09-13 00:00:00,513,417,-55.875,52.125,100479.953125,71.1505126953125
516,2013-09-13 06:00:00,451,327,-63.625,40.875,98235.7109375,37.19160842895508
517,2013-09-13 06:00:00,829,513,-16.375,64.125,99917.0234375,28.173009872436523
518,2013-09-13 06:00:00,830,513,-16.25,64.125,99917.0234375,28.173009872436523
519,2013-09-13 12:00:00,677,202,-35.375,25.25,99923.6484375,16.81403350830078
520,2013-09-13 12:00:00,473,343,-60.875,42.875,98792.46875,36.5222282409668
521,2013-09-13 18:00:00,503,358,-57.125,44.75,99528.796875,38.99649429321289
522,2013-09-14 00:00:00,665,214,-36.875,26.75,99999.078125,21.497356414794922
523,2013-09-14 00:00:00,246,498,-89.25,62.25,98459.7578125,22.10909080505371
524,2013-09-14 06:00:00,658,215,-37.75,26.875,99842.1328125,17.802200317382812
525,2013-09-14 12:00:00,650,217,-38.75,27.125,99739.5859375,19.092586517333984
526,2013-09-14 12:00:00,297,495,-82.875,61.875,98518.2734375,18.14774513244629
527,2013-09-14 18:00:00,639,219,-40.125,27.375,99625.015625,24.94127655029297
528,2013-09-14 18:00:00,830,464,-16.25,58.0,100088.0078125,59.06351089477539
529,2013-09-14 18:00:00,330,497,-78.75,62.125,98925.984375,26.54529571533203
530,2013-09-14 18:00:00,346,500,-76.75,62.5,98996.109375,27.964736938476562
531,2013-09-15 00:00:00,631,220,-41.125,27.5,99524.7890625,26.277151107788086
532,2013-09-15 06:00:00,623,220,-42.125,27.5,99119.8828125,26.864967346191406
533,2013-09-15 12:00:00,615,222,-43.125,27.75,98640.1015625,34.43023681640625
534,2013-09-15 12:00:00,183,234,-97.125,29.25,100487.28125,20.61662483215332
535,2013-09-15 18:00:00,607,225,-44.125,28.125,98231.28125,37.68290710449219
536,2013-09-16 00:00:00,601,228,-44.875,28.5,98072.34375,39.37096405029297
537,2013-09-16 06:00:00,595,230,-45.625,28.75,97679.859375,35.60142517089844
538,2013-09-16 06:00:00,827,501,-16.625,62.625,98644.8671875,37.47581481933594
539,2013-09-16 06:00:00,828,521,-16.5,65.125,99096.3203125,32.14373779296875
540,2013-09-16 06:00:00,826,526,-16.75,65.75,99224.1640625,30.032333374023438
541,2013-09-16 12:00:00,590,235,-46.25,29.375,97333.0546875,42.18217086791992
542,2013-09-16 18:00:00,584,241,-47.0,30.125,96992.359375,46.87883377075195
543,2013-09-16 18:00:00,832,463,-16.0,57.875,100037.03125,43.766395568847656
544,2013-09-16 18:00:00,828,521,-16.5,65.125,99604.28125,31.46276092529297
545,2013-09-16 18:00:00,830,536,-16.25,67.0,99568.2265625,17.715242385864258
546,2013-09-17 00:00:00,579,246,-47.625,30.75,96770.9140625,40.993343353271484
547,2013-09-17 00:00:00,832,444,-16.0,55.5,100310.796875,35.97439956665039
548,2013-09-17 00:00:00,832,463,-16.0,57.875,99922.875,41.8417854309082
549,2013-09-17 00:00:00,832,469,-16.0,58.625,99919.515625,40.30622100830078
550,2013-09-17 00:00:00,829,494,-16.375,61.75,99501.8125,45.50603485107422
551,2013-09-17 00:00:00,828,521,-16.5,65.125,99940.34375,31.278766632080078
552,2013-09-17 06:00:00,575,255,-48.125,31.875,96817.234375,42.27838897705078
553,2013-09-17 06:00:00,832,456,-16.0,57.0,99761.546875,39.69938278198242
554,2013-09-17 06:00:00,832,462,-16.0,57.75,99835.7578125,36.97916030883789
555,2013-09-17 12:00:00,568,264,-49.0,33.0,97011.3984375,35.029354095458984
556,2013-09-17 18:00:00,562,275,-49.75,34.375,97100.015625,35.343074798583984
557,2013-09-18 00:00:00,558,284,-50.25,35.5,97115.0703125,30.978843688964844
558,2013-09-18 06:00:00,553,295,-50.875,36.875,97171.015625,32.677589416503906
559,2013-09-18 06:00:00,419,537,-67.625,67.125,99399.375,16.21515655517578
560,2013-09-18 12:00:00,549,306,-51.375,38.25,97320.625,28.489517211914062
561,2013-09-18 18:00:00,549,318,-51.375,39.75,97419.703125,33.55183029174805
562,2013-09-18 18:00:00,831,445,-16.125,55.625,100810.6171875,36.02861022949219
563,2013-09-18 18:00:00,832,456,-16.0,57.0,100893.40625,38.13720703125
564,2013-09-18 18:00:00,830,464,-16.25,58.0,100851.046875,38.651084899902344
565,2013-09-19 00:00:00,550,333,-51.25,41.625,97390.9453125,35.2054557800293
566,2013-09-19 00:00:00,590,487,-46.25,60.875,100378.2109375,64.629638671875
567,2013-09-19 00:00:00,618,490,-42.75,61.25,99914.25,67.0567855834961
568,2013-09-19 06:00:00,557,348,-50.375,43.5,97597.296875,35.00364303588867
569,2013-09-19 06:00:00,644,512,-39.5,64.0,99487.0234375,20.740169525146484
570,2013-09-19 12:00:00,568,360,-49.0,45.0,98032.7421875,40.25707244873047
571,2013-09-20 06:00:00,662,402,-37.25,50.25,98846.09375,47.8646354675293
572,2013-09-21 00:00:00,819,508,-17.625,63.5,98158.109375,42.645606994628906
573,2013-09-21 12:00:00,820,523,-17.5,65.375,98583.3046875,29.706396102905273
574,2013-09-21 18:00:00,826,520,-16.75,65.0,98925.4921875,47.87400436401367
575,2013-09-22 00:00:00,826,520,-16.75,65.0,99747.46875,58.42521286010742
576,2013-09-23 00:00:00,70,302,-111.25,37.75,100273.140625,38.764862060546875
577,2013-09-23 06:00:00,702,499,-32.25,62.375,100744.9609375,37.56465530395508
578,2013-09-23 18:00:00,728,504,-29.0,63.0,100698.484375,25.588613510131836
579,2013-09-24 00:00:00,321,538,-79.875,67.25,100380.6953125,67.88025665283203
580,2013-09-24 06:00:00,258,529,-87.75,66.125,100394.7734375,68.38999938964844
581,2013-09-24 18:00:00,796,407,-20.5,50.875,99785.34375,20.53799057006836
582,2013-09-24 18:00:00,11,459,-118.625,57.375,100458.6796875,17.16020393371582
583,2013-09-24 18:00:00,19,461,-117.625,57.625,100454.8671875,15.721964836120605
584,2013-09-25 06:00:00,765,408,-24.375,51.0,99878.2265625,30.03480339050293
585,2013-09-25 06:00:00,162,485,-99.75,60.625,98296.9296875,21.266626358032227
586,2013-09-25 12:00:00,747,401,-26.625,50.125,99963.03125,24.444002151489258
587,2013-09-26 06:00:00,104,357,-107.0,44.625,100107.7734375,65.60623168945312
588,2013-09-26 06:00:00,832,359,-16.0,44.875,99871.7890625,46.9647102355957
589,2013-09-26 06:00:00,196,497,-95.5,62.125,98878.9609375,12.46695613861084
590,2013-09-26 12:00:00,162,111,-99.75,13.875,100173.953125,18.43668556213379
591,2013-09-26 12:00:00,832,359,-16.0,44.875,99849.328125,50.991058349609375
592,2013-09-27 00:00:00,154,117,-100.75,14.625,99751.8515625,24.775924682617188
593,2013-09-27 06:00:00,151,114,-101.125,14.25,99639.984375,18.901456832885742
594,2013-09-27 12:00:00,151,111,-101.125,13.875,99253.828125,21.24568748474121
595,2013-09-27 12:00:00,832,456,-16.0,57.0,100985.1640625,27.946340560913086
596,2013-09-27 12:00:00,830,464,-16.25,58.0,100986.9375,30.165760040283203
597,2013-09-27 18:00:00,154,114,-100.75,14.25,99059.46875,24.26305389404297
598,2013-09-27 18:00:00,830,464,-16.25,58.0,100874.6875,32.09425354003906
599,2013-09-28 00:00:00,152,118,-101.0,14.75,98618.3046875,25.545217514038086
600,2013-09-28 00:00:00,305,514,-81.875,64.25,98772.1875,25.75194549560547
601,2013-09-28 00:00:00,702,551,-32.25,68.875,100724.1796875,18.137474060058594
602,2013-09-28 06:00:00,150,122,-101.25,15.25,98447.390625,27.491907119750977
603,2013-09-28 06:00:00,134,500,-103.25,62.5,100374.9296875,9.644579887390137
604,2013-09-28 12:00:00,150,124,-101.25,15.5,98107.671875,31.912872314453125
605,2013-09-28 12:00:00,463,504,-62.125,63.0,99409.28125,23.094676971435547
606,2013-09-28 12:00:00,669,544,-36.375,68.0,100262.5234375,33.827720642089844
607,2013-09-28 12:00:00,688,545,-34.0,68.125,100460.40625,23.89453887939453
608,2013-09-28 18:00:00,152,131,-101.0,16.375,98040.546875,40.42106246948242
609,2013-09-28 18:00:00,832,384,-16.0,48.0,99805.28125,27.726001739501953
610,2013-09-28 18:00:00,517,505,-55.375,63.125,99269.84375,20.475605010986328
611,2013-09-28 18:00:00,668,545,-36.5,68.125,100244.828125,24.933488845825195
612,2013-09-28 18:00:00,688,545,-34.0,68.125,100446.953125,27.708337783813477
613,2013-09-29 00:00:00,147,145,-101.625,18.125,99619.5078125,33.43363952636719
614,2013-09-29 00:00:00,688,545,-34.0,68.125,100336.875,30.7454833984375
615,2013-09-29 06:00:00,689,545,-33.875,68.125,100374.8984375,32.8803825378418
616,2013-09-29 06:00:00,705,550,-31.875,68.75,100243.53125,31.744043350219727
617,2013-09-29 12:00:00,832,358,-16.0,44.75,99425.921875,51.68975830078125
618,2013-09-29 12:00:00,402,467,-69.75,58.375,98900.515625,69.35903930664062
619,2013-09-29 12:00:00,704,550,-32.0,68.75,100310.765625,28.644454956054688
620,2013-09-29 18:00:00,832,358,-16.0,44.75,99212.0390625,50.02882766723633
621,2013-09-29 18:00:00,711,550,-31.125,68.75,100438.109375,30.729265213012695
622,2013-09-29 18:00:00,720,550,-30.0,68.75,100370.53125,38.20542526245117
623,2013-09-30 00:00:00,210,512,-93.75,64.0,100030.21875,27.5168514251709
624,2013-09-30 06:00:00,551,460,-51.125,57.5,98806.125,30.627819061279297
625,2013-09-30 12:00:00,620,441,-42.5,55.125,98650.2890625,43.56437301635742
626,2013-09-30 18:00:00,53,415,-113.375,51.875,98641.625,24.099971771240234
627,2013-09-30 18:00:00,134,462,-103.25,57.75,98272.2734375,17.824731826782227
628,2013-09-30 18:00:00,451,534,-63.625,66.75,99829.4609375,14.355530738830566
629,2013-10-01 00:00:00,141,462,-102.375,57.75,98632.390625,17.026823043823242
630,2013-10-01 00:00:00,442,536,-64.75,67.0,100001.9609375,12.02992057800293
631,2013-10-01 06:00:00,39,411,-115.125,51.375,100143.8671875,35.132991790771484
632,2013-10-01 12:00:00,491,289,-58.625,36.125,99845.171875,19.60669708251953
633,2013-10-01 12:00:00,501,524,-57.375,65.5,100041.953125,33.829986572265625
634,2013-10-01 18:00:00,743,410,-27.125,51.25,98038.96875,14.086416244506836
635,2013-10-01 18:00:00,580,519,-47.5,64.875,100346.8515625,24.184728622436523
636,2013-10-02 00:00:00,278,462,-85.25,57.75,98455.609375,23.66306495666504
637,2013-10-02 00:00:00,637,514,-40.375,64.25,99708.6171875,9.607260704040527
638,2013-10-02 06:00:00,283,461,-84.625,57.625,98511.5234375,20.29251480102539
639,2013-10-02 12:00:00,752,414,-26.0,51.75,98401.625,13.810258865356445
640,2013-10-02 12:00:00,582,517,-47.25,64.625,99949.3125,19.929582595825195
641,2013-10-02 12:00:00,596,517,-45.5,64.625,99948.8125,15.489802360534668
642,2013-10-02 18:00:00,753,421,-25.875,52.625,98698.9140625,14.455490112304688
643,2013-10-03 00:00:00,750,430,-26.25,53.75,98894.515625,14.61486530303955
644,2013-10-03 00:00:00,426,476,-66.75,59.5,98264.0859375,15.075852394104004
645,2013-10-03 06:00:00,745,438,-26.875,54.75,98943.1015625,14.474637031555176
646,2013-10-03 12:00:00,592,255,-46.0,31.875,98774.3515625,27.521148681640625
647,2013-10-03 12:00:00,467,477,-61.625,59.625,98354.4296875,27.452960968017578
648,2013-10-03 18:00:00,604,257,-44.5,32.125,98641.0234375,26.205955505371094
649,2013-10-03 18:00:00,668,457,-36.5,57.125,99211.6640625,28.642820358276367
650,2013-10-04 00:00:00,613,260,-43.375,32.5,98561.3828125,29.47381019592285
651,2013-10-04 00:00:00,791,326,-21.125,40.75,99768.984375,26.035940170288086
652,2013-10-04 06:00:00,621,265,-42.375,33.125,98454.4453125,24.77202033996582
653,2013-10-04 06:00:00,830,464,-16.25,58.0,100151.1171875,30.560880661010742
654,2013-10-04 06:00:00,744,478,-27.0,59.75,99182.7421875,20.104867935180664
655,2013-10-04 06:00:00,737,480,-27.875,60.0,99184.4296875,15.388059616088867
656,2013-10-04 12:00:00,629,271,-41.375,33.875,98543.3671875,23.55693817138672
657,2013-10-04 12:00:00,540,431,-52.5,53.875,98740.953125,22.867717742919922
658,2013-10-04 12:00:00,832,462,-16.0,57.75,100341.0,35.00365447998047
659,2013-10-04 12:00:00,734,488,-28.25,61.0,99325.9375,19.405000686645508
660,2013-10-04 18:00:00,634,278,-40.75,34.75,98505.1875,24.549299240112305
661,2013-10-05 06:00:00,650,294,-38.75,36.75,98520.0625,28.6502685546875
662,2013-10-06 00:00:00,691,320,-33.625,40.0,98308.09375,29.21721649169922
663,2013-10-06 00:00:00,825,498,-16.875,62.25,99381.3046875,24.682504653930664
664,2013-10-06 06:00:00,711,334,-31.125,41.75,98087.3203125,29.865888595581055
665,2013-10-06 06:00:00,176,338,-98.0,42.25,100941.5703125,19.908924102783203
666,2013-10-06 06:00:00,197,362,-95.375,45.25,100745.9921875,46.70703125
667,2013-10-06 06:00:00,643,381,-39.625,47.625,100560.40625,53.179359436035156
668,2013-10-06 06:00:00,830,464,-16.25,58.0,100232.4375,51.87019348144531
669,2013-10-06 12:00:00,740,348,-27.5,43.5,98338.2578125,33.80397415161133
670,2013-10-06 12:00:00,207,363,-94.125,45.375,100722.9296875,47.159427642822266
671,2013-10-06 18:00:00,188,329,-96.5,41.125,100986.4453125,13.845868110656738
672,2013-10-06 18:00:00,770,372,-23.75,46.5,98282.796875,32.444786071777344
673,2013-10-07 00:00:00,186,327,-96.75,40.875,100982.4765625,32.812644958496094
674,2013-10-07 00:00:00,194,328,-95.75,41.0,100962.3984375,19.31945037841797
675,2013-10-07 00:00:00,796,405,-20.5,50.625,98316.9375,34.254432678222656
676,2013-10-07 00:00:00,723,550,-29.625,68.75,100944.1796875,38.54020690917969
677,2013-10-07 00:00:00,707,551,-31.625,68.875,100994.6328125,35.842063903808594
678,2013-10-07 12:00:00,225,309,-91.875,38.625,100925.25,35.18971633911133
679,2013-10-09 18:00:00,673,546,-35.875,68.25,100472.9453125,61.522674560546875
680,2013-10-10 06:00:00,82,275,-109.75,34.375,100725.6015625,65.09410095214844
681,2013-10-11 00:00:00,78,311,-110.25,38.875,100984.234375,51.1033821105957
682,2013-10-11 00:00:00,619,512,-42.625,64.0,100554.2265625,49.99106216430664
683,2013-10-12 06:00:00,491,316,-58.625,39.5,98504.9140625,29.569692611694336
684,2013-10-13 12:00:00,493,334,-58.375,41.75,96446.078125,19.638158798217773
685,2013-10-13 18:00:00,122,292,-104.75,36.5,100980.015625,54.97414016723633
686,2013-10-13 18:00:00,499,333,-57.625,41.625,96649.359375,24.273113250732422
687,2013-10-14 00:00:00,84,262,-109.5,32.75,100562.3125,54.542808532714844
688,2013-10-14 00:00:00,132,305,-103.5,38.125,100308.9921875,60.89158630371094
689,2013-10-14 00:00:00,503,336,-57.125,42.0,96867.1328125,20.704246520996094
690,2013-10-14 06:00:00,618,158,-42.75,19.75,100853.8046875,24.581064224243164
691,2013-10-14 12:00:00,615,164,-43.125,20.5,100997.9453125,22.559329986572266
692,2013-10-14 12:00:00,520,335,-55.0,41.875,97347.6875,22.483243942260742
693,2013-10-14 12:00:00,831,388,-16.125,48.5,99878.90625,38.15332794189453
694,2013-10-14 18:00:00,611,172,-43.625,21.5,100942.2578125,19.20302963256836
695,2013-10-14 18:00:00,122,319,-104.75,39.875,100776.3125,58.53644561767578
696,2013-10-14 18:00:00,529,340,-53.875,42.5,97508.796875,21.927692413330078
697,2013-10-15 00:00:00,541,347,-52.375,43.375,97730.859375,23.01985740661621
698,2013-10-15 06:00:00,548,358,-51.5,44.75,97818.5859375,22.130849838256836
699,2013-10-15 06:00:00,305,533,-81.875,66.625,100189.6796875,9.07413101196289
700,2013-10-15 12:00:00,611,190,-43.625,23.75,100787.2578125,21.95175552368164
701,2013-10-15 12:00:00,234,365,-90.75,45.625,100004.4375,62.775516510009766
702,2013-10-15 12:00:00,544,370,-52.0,46.25,97954.734375,20.661470413208008
703,2013-10-15 18:00:00,534,378,-53.25,47.25,98290.078125,21.929519653320312
704,2013-10-16 00:00:00,520,378,-55.0,47.25,98628.03125,15.973342895507812
705,2013-10-16 06:00:00,515,372,-55.625,46.5,98902.6328125,13.130117416381836
706,2013-10-16 18:00:00,213,483,-93.375,60.375,99594.1640625,18.505250930786133
707,2013-10-17 18:00:00,277,364,-85.375,45.5,100674.203125,40.046302795410156
708,2013-10-18 06:00:00,246,498,-89.25,62.25,99675.9296875,29.891237258911133
709,2013-10-19 06:00:00,432,385,-66.0,48.125,100456.1015625,41.25469970703125
710,2013-10-19 12:00:00,645,357,-39.375,44.625,97892.484375,20.197315216064453
711,2013-10-20 00:00:00,666,338,-36.75,42.25,98111.78125,28.4365177154541
712,2013-10-20 06:00:00,689,329,-33.875,41.125,98206.9296875,28.82260513305664
713,2013-10-20 06:00:00,382,341,-72.25,42.625,98831.8203125,76.25006103515625
714,2013-10-20 06:00:00,177,411,-97.875,51.375,100665.5,18.886356353759766
715,2013-10-20 12:00:00,189,395,-96.375,49.375,100797.328125,14.884065628051758
716,2013-10-20 12:00:00,175,402,-98.125,50.25,100868.453125,17.491901397705078
717,2013-10-20 18:00:00,394,384,-70.75,48.0,97796.1953125,42.36590576171875
718,2013-10-21 00:00:00,154,130,-100.75,16.25,99944.78125,20.81756019592285
719,2013-10-21 06:00:00,446,414,-64.25,51.75,97009.6171875,23.67107391357422
720,2013-10-21 12:00:00,450,411,-63.75,51.375,97167.4296875,22.707305908203125
721,2013-10-21 18:00:00,473,412,-60.875,51.5,97428.53125,20.671619415283203
722,2013-10-22 06:00:00,508,423,-56.5,52.875,97835.21875,15.037479400634766
723,2013-10-22 12:00:00,512,426,-56.0,53.25,98086.3046875,14.777703285217285
724,2013-10-22 18:00:00,501,429,-57.375,53.625,98316.6015625,17.429746627807617
725,2013-10-22 18:00:00,514,432,-55.75,54.0,98318.0234375,17.499134063720703
726,2013-10-22 18:00:00,810,503,-18.75,62.875,98271.84375,15.09266185760498
727,2013-10-22 18:00:00,667,538,-36.625,67.25,100579.875,23.989856719970703
728,2013-10-23 00:00:00,503,438,-57.125,54.75,98334.5078125,17.644676208496094
729,2013-10-23 00:00:00,830,462,-16.25,57.75,98380.65625,24.297876358032227
730,2013-10-24 00:00:00,831,333,-16.125,41.625,99503.359375,42.583251953125
731,2013-10-24 00:00:00,810,508,-18.75,63.5,98372.96875,19.68427085876465
732,2013-10-24 06:00:00,682,405,-34.75,50.625,97783.5625,44.630855560302734
733,2013-10-24 06:00:00,810,508,-18.75,63.5,98827.4609375,37.56465148925781
734,2013-10-24 12:00:00,710,401,-31.25,50.125,97847.375,41.80873489379883
735,2013-10-24 12:00:00,718,415,-30.25,51.875,97797.390625,27.287418365478516
736,2013-10-24 18:00:00,707,411,-31.625,51.375,97978.75,35.483333587646484
737,2013-10-25 00:00:00,745,411,-26.875,51.375,97510.859375,34.117149353027344
738,2013-10-25 00:00:00,829,513,-16.375,64.125,99580.796875,26.378965377807617
739,2013-10-25 00:00:00,830,513,-16.25,64.125,99580.796875,25.38198471069336
740,2013-10-25 00:00:00,828,520,-16.5,65.0,99662.8125,15.628904342651367
741,2013-10-25 06:00:00,829,513,-16.375,64.125,99576.15625,22.52622413635254
742,2013-10-25 06:00:00,830,513,-16.25,64.125,99576.15625,21.63292121887207
743,2013-10-25 06:00:00,828,520,-16.5,65.0,99687.890625,16.888301849365234
744,2013-10-25 06:00:00,828,521,-16.5,65.125,99687.890625,16.888301849365234
745,2013-10-25 12:00:00,750,415,-26.25,51.875,97237.5390625,24.171405792236328
746,2013-10-25 12:00:00,828,520,-16.5,65.0,99760.953125,19.713504791259766
747,2013-10-25 18:00:00,767,429,-24.125,53.625,97479.2890625,29.510530471801758
748,2013-10-25 18:00:00,822,503,-17.25,62.875,98917.4453125,40.60838317871094
749,2013-10-26 00:00:00,789,445,-21.375,55.625,97512.890625,36.3525505065918
750,2013-10-26 00:00:00,826,520,-16.75,65.0,99117.6171875,26.57074737548828
751,2013-10-26 06:00:00,805,452,-19.375,56.5,97143.9453125,26.060091018676758
752,2013-10-26 12:00:00,820,468,-17.5,58.5,96993.8828125,18.75736427307129
753,2013-10-26 18:00:00,813,482,-18.375,60.25,97148.6953125,18.404325485229492
754,2013-10-26 18:00:00,828,489,-16.5,61.125,97152.5,18.066387176513672
755,2013-10-26 18:00:00,829,489,-16.375,61.125,97152.5,18.066387176513672
756,2013-10-28 18:00:00,19,296,-117.625,37.0,99957.734375,46.43950653076172
757,2013-10-28 18:00:00,50,324,-113.75,40.5,99437.671875,38.37312316894531
758,2013-10-28 18:00:00,548,460,-51.5,57.5,98232.453125,23.68016242980957
759,2013-10-29 06:00:00,832,462,-16.0,57.75,100323.7734375,48.32729721069336
760,2013-10-29 12:00:00,56,317,-113.0,39.625,100923.140625,30.80991554260254
761,2013-10-29 12:00:00,52,338,-113.5,42.25,100715.578125,20.14592933654785
762,2013-10-29 18:00:00,89,332,-108.875,41.5,100948.9140625,38.98978805541992
763,2013-10-29 18:00:00,70,337,-111.25,42.125,100959.7421875,10.958999633789062
764,2013-10-30 00:00:00,55,368,-113.125,46.0,100989.6796875,43.260189056396484
765,2013-10-30 06:00:00,87,351,-109.125,43.875,100980.1171875,16.84074592590332
766,2013-10-30 12:00:00,121,304,-104.875,38.0,100775.734375,62.58701705932617
767,2013-10-31 00:00:00,190,322,-96.25,40.25,100612.7890625,49.23096466064453
768,2013-10-31 00:00:00,583,487,-47.125,60.875,99231.578125,29.475622177124023
769,2013-10-31 00:00:00,760,503,-25.0,62.875,96858.0859375,22.033695220947266
770,2013-10-31 06:00:00,157,316,-100.375,39.5,100697.6484375,66.7876205444336
771,2013-10-31 06:00:00,408,473,-69.0,59.125,100552.5390625,32.32554244995117
772,2013-10-31 06:00:00,221,477,-92.375,59.625,99081.953125,29.205137252807617
773,2013-10-31 12:00:00,42,411,-114.75,51.375,100391.4765625,54.325077056884766
774,2013-10-31 12:00:00,37,415,-115.375,51.875,100369.2734375,54.67154312133789
775,2013-10-31 12:00:00,29,421,-116.375,52.625,100335.1328125,55.774410247802734
776,2013-10-31 12:00:00,244,466,-89.5,58.25,99133.859375,46.91856002807617
777,2013-10-31 18:00:00,240,309,-90.0,38.625,100137.359375,64.08104705810547
778,2013-11-01 06:00:00,605,424,-44.375,53.0,99527.0390625,50.38785171508789
779,2013-11-01 18:00:00,753,419,-25.875,52.375,99252.9765625,40.7274055480957
780,2013-11-01 18:00:00,767,481,-24.125,60.125,97438.9140625,19.92418670654297
781,2013-11-02 00:00:00,831,413,-16.125,51.625,98728.5703125,55.41345977783203
782,2013-11-02 00:00:00,831,421,-16.125,52.625,98796.3046875,47.67228317260742
783,2013-11-02 00:00:00,770,482,-23.75,60.25,97642.7734375,16.006969451904297
784,2013-11-02 12:00:00,558,552,-50.25,69.0,100560.46875,22.50564956665039
785,2013-11-03 00:00:00,373,353,-73.375,44.125,100226.390625,64.17454528808594
786,2013-11-03 06:00:00,88,319,-109.0,39.875,100938.2890625,43.95267868041992
787,2013-11-03 06:00:00,831,403,-16.125,50.375,100125.03125,43.798763275146484
788,2013-11-03 06:00:00,832,403,-16.0,50.375,100125.03125,43.798763275146484
789,2013-11-03 06:00:00,831,413,-16.125,51.625,100156.65625,42.382781982421875
790,2013-11-04 00:00:00,102,403,-107.25,50.375,99949.109375,19.193735122680664
791,2013-11-06 00:00:00,199,303,-95.125,37.875,100906.0625,78.064697265625
792,2013-11-08 00:00:00,495,397,-58.125,49.625,98030.359375,64.2999267578125
793,2013-11-08 00:00:00,564,479,-49.5,59.875,99725.296875,25.840221405029297
794,2013-11-08 12:00:00,576,419,-48.0,52.375,97002.5,62.82975769042969
795,2013-11-08 18:00:00,527,469,-54.125,58.625,98949.34375,19.03082275390625
796,2013-11-09 06:00:00,569,325,-48.875,40.625,100194.875,70.55389404296875
797,2013-11-09 06:00:00,657,444,-37.875,55.5,96095.3359375,32.18525695800781
798,2013-11-09 06:00:00,683,461,-34.625,57.625,96132.171875,25.012014389038086
799,2013-11-09 06:00:00,703,465,-32.125,58.125,96124.3359375,25.96678352355957
800,2013-11-10 00:00:00,564,431,-49.5,53.875,98546.328125,23.083581924438477
801,2013-11-10 06:00:00,588,427,-46.5,53.375,98550.875,21.8518009185791
802,2013-11-10 12:00:00,615,428,-43.125,53.5,98929.0390625,26.452163696289062
803,2013-11-10 18:00:00,645,435,-39.375,54.375,99199.4609375,30.76937484741211
804,2013-11-11 00:00:00,690,544,-33.75,68.0,99284.2109375,24.460725784301758
805,2013-11-11 12:00:00,610,487,-43.75,60.875,99468.65625,25.555988311767578
806,2013-11-11 12:00:00,825,529,-16.875,66.125,97054.5,24.018356323242188
807,2013-11-12 00:00:00,828,520,-16.5,65.0,97484.578125,23.356721878051758
808,2013-11-12 00:00:00,828,521,-16.5,65.125,97484.578125,23.468711853027344
809,2013-11-12 12:00:00,829,513,-16.375,64.125,99089.1875,25.506053924560547
810,2013-11-12 12:00:00,830,513,-16.25,64.125,99089.1875,25.506053924560547
811,2013-11-12 18:00:00,669,538,-36.375,67.25,100532.8984375,37.93077087402344
812,2013-11-13 00:00:00,829,496,-16.375,62.0,100963.734375,44.00453186035156
813,2013-11-13 18:00:00,562,503,-49.75,62.875,98459.8828125,49.58293151855469
814,2013-11-14 00:00:00,829,513,-16.375,64.125,99735.140625,38.69873046875
815,2013-11-14 00:00:00,830,513,-16.25,64.125,99735.140625,34.59876251220703
816,2013-11-14 00:00:00,723,550,-29.625,68.75,100874.7109375,55.16958999633789
817,2013-11-14 06:00:00,494,511,-58.25,63.875,97532.5,38.018070220947266
818,2013-11-14 12:00:00,695,526,-33.125,65.75,98451.21875,45.073265075683594
819,2013-11-14 18:00:00,606,517,-44.25,64.625,98796.3203125,42.41107177734375
820,2013-11-14 18:00:00,689,535,-33.875,66.875,98577.1796875,44.90577697753906
821,2013-11-15 00:00:00,652,525,-38.5,65.625,98803.546875,41.70674514770508
822,2013-11-15 06:00:00,754,543,-25.75,67.875,97877.671875,47.56793975830078
823,2013-11-15 06:00:00,761,544,-24.875,68.0,97871.796875,47.64506149291992
824,2013-11-15 18:00:00,10,528,-118.75,66.0,99817.4453125,38.633750915527344
825,2013-11-16 00:00:00,698,540,-32.75,67.5,98827.15625,50.2199592590332
826,2013-11-16 06:00:00,109,153,-106.375,19.125,100115.15625,36.68436050415039
827,2013-11-16 06:00:00,122,303,-104.75,37.875,99847.296875,46.1668701171875
828,2013-11-16 06:00:00,136,342,-103.0,42.75,99669.3984375,37.011085510253906
829,2013-11-16 06:00:00,829,513,-16.375,64.125,99065.4296875,46.132694244384766
830,2013-11-16 06:00:00,671,537,-36.125,67.125,99719.796875,45.176666259765625
831,2013-11-16 12:00:00,121,304,-104.875,38.0,99660.3984375,43.03125
832,2013-11-16 12:00:00,624,367,-42.0,45.875,100997.5390625,40.35847854614258
833,2013-11-16 12:00:00,13,389,-118.375,48.625,99023.4609375,34.99806594848633
834,2013-11-16 12:00:00,8,403,-119.0,50.375,99089.2578125,33.80784225463867
835,2013-11-16 18:00:00,667,538,-36.625,67.25,100040.6484375,34.39664840698242
836,2013-11-17 00:00:00,766,536,-24.25,67.0,99651.6328125,33.621315002441406
837,2013-11-17 00:00:00,669,537,-36.375,67.125,100197.3515625,31.94434928894043
838,2013-11-17 00:00:00,688,545,-34.0,68.125,100524.078125,33.47964096069336
839,2013-11-17 06:00:00,647,525,-39.125,65.625,100814.6015625,29.411283493041992
840,2013-11-17 06:00:00,652,525,-38.5,65.625,100821.53125,29.743186950683594
841,2013-11-17 06:00:00,669,537,-36.375,67.125,100571.4609375,29.543228149414062
842,2013-11-17 12:00:00,120,297,-105.0,37.125,100257.1953125,49.06550979614258
843,2013-11-18 00:00:00,533,177,-53.375,22.125,100410.1796875,35.64327621459961
844,2013-11-18 00:00:00,12,426,-118.5,53.25,100639.1484375,71.00382995605469
845,2013-11-18 18:00:00,314,417,-80.75,52.125,97256.21875,20.564786911010742
846,2013-11-19 00:00:00,336,435,-78.0,54.375,98112.703125,23.36127281188965
847,2013-11-19 06:00:00,363,451,-74.625,56.375,98723.59375,30.773448944091797
848,2013-11-19 12:00:00,828,520,-16.5,65.0,98967.4453125,64.21163940429688
849,2013-11-19 12:00:00,828,521,-16.5,65.125,98967.4453125,63.424163818359375
850,2013-11-20 00:00:00,431,495,-66.125,61.875,100237.6484375,66.53597259521484
851,2013-11-20 00:00:00,617,522,-42.875,65.25,100548.6796875,52.9880485534668
852,2013-11-22 00:00:00,447,516,-64.125,64.5,100032.828125,43.01069641113281
853,2013-11-22 12:00:00,66,266,-111.75,33.25,100981.3515625,57.26810073852539
854,2013-11-23 06:00:00,600,409,-45.0,51.125,99540.0390625,24.169586181640625
855,2013-11-23 18:00:00,571,445,-48.625,55.625,99383.7421875,19.012319564819336
856,2013-11-24 18:00:00,446,339,-64.25,42.375,99898.984375,66.64191436767578
857,2013-11-25 12:00:00,545,531,-51.875,66.375,100032.484375,34.648685455322266
858,2013-11-26 00:00:00,826,537,-16.75,67.125,99550.875,85.44497680664062
859,2013-11-26 12:00:00,527,539,-54.125,67.375,98747.9453125,24.888479232788086
860,2013-11-27 06:00:00,694,519,-33.25,64.875,99072.0078125,36.8641471862793
861,2013-11-27 12:00:00,783,531,-22.125,66.375,100035.2265625,45.36344528198242
862,2013-11-29 00:00:00,19,461,-117.625,57.625,100341.1796875,22.241100311279297
863,2013-11-29 00:00:00,829,513,-16.375,64.125,100501.6875,61.98151397705078
864,2013-11-29 00:00:00,830,513,-16.25,64.125,100501.6875,58.3671760559082
865,2013-11-29 18:00:00,545,531,-51.875,66.375,97326.4453125,50.29582977294922
866,2013-11-30 06:00:00,615,212,-43.125,26.5,100240.0234375,36.75503158569336
867,2013-11-30 12:00:00,630,220,-41.25,27.5,100268.4921875,30.472192764282227
