%!PS-Adobe-3.0 EPSF-3.0
%%Title: ../out/09279566vor20130706T120000Z.eps
%%Creator: matplotlib version 3.2.1, http://matplotlib.org/
%%CreationDate: Mon Nov 16 10:38:39 2020
%%Orientation: portrait
%%BoundingBox: -126.0 108.0 738.0 684.0
%%EndComments
%%BeginProlog
/mpldict 8 dict def
mpldict begin
/m { moveto } bind def
/l { lineto } bind def
/r { rlineto } bind def
/c { curveto } bind def
/cl { closepath } bind def
/box {
m
1 index 0 r
0 exch r
neg 0 r
cl
} bind def
/clipbox {
box
clip
newpath
} bind def
%!PS-Adobe-3.0 Resource-Font
%%Title: DejaVu Sans
%%Copyright: Copyright (c) 2003 by Bitstream, Inc. All Rights Reserved. Copyright (c) 2006 by Tavmjong Bah. All Rights Reserved. DejaVu changes are in public domain 
%%Creator: Converted from TrueType to type 3 by PPR
25 dict begin
/_d{bind def}bind def
/_m{moveto}_d
/_l{lineto}_d
/_cl{closepath eofill}_d
/_c{curveto}_d
/_sc{7 -1 roll{setcachedevice}{pop pop pop pop pop pop}ifelse}_d
/_e{exec}_d
/FontName /DejaVuSans def
/PaintType 0 def
/FontMatrix[.001 0 0 .001 0 0]def
/FontBBox[-1021 -463 1793 1232]def
/FontType 3 def
/Encoding [ /space /period /zero /one /two /three /four /five /seven /bracketleft /bracketright /a /c /d /e /g /h /i /k /m /o /r /s /t /u /v /y /minus ] def
/FontInfo 10 dict dup begin
/FamilyName (DejaVu Sans) def
/FullName (DejaVu Sans) def
/Notice (Copyright (c) 2003 by Bitstream, Inc. All Rights Reserved. Copyright (c) 2006 by Tavmjong Bah. All Rights Reserved. DejaVu changes are in public domain ) def
/Weight (Book) def
/Version (Version 2.35) def
/ItalicAngle 0.0 def
/isFixedPitch false def
/UnderlinePosition -130 def
/UnderlineThickness 90 def
end readonly def
/CharStrings 29 dict dup begin
/.notdef 0 def
/space{318 0 0 0 0 0 _sc
}_d
/period{318 0 107 0 210 124 _sc
107 124 _m
210 124 _l
210 0 _l
107 0 _l
107 124 _l
_cl}_d
/zero{636 0 66 -13 570 742 _sc
318 664 _m
267 664 229 639 203 589 _c
177 539 165 464 165 364 _c
165 264 177 189 203 139 _c
229 89 267 64 318 64 _c
369 64 407 89 433 139 _c
458 189 471 264 471 364 _c
471 464 458 539 433 589 _c
407 639 369 664 318 664 _c
318 742 _m
399 742 461 709 505 645 _c
548 580 570 486 570 364 _c
570 241 548 147 505 83 _c
461 19 399 -13 318 -13 _c
236 -13 173 19 130 83 _c
87 147 66 241 66 364 _c
66 486 87 580 130 645 _c
173 709 236 742 318 742 _c
_cl}_d
/one{636 0 110 0 544 729 _sc
124 83 _m
285 83 _l
285 639 _l
110 604 _l
110 694 _l
284 729 _l
383 729 _l
383 83 _l
544 83 _l
544 0 _l
124 0 _l
124 83 _l
_cl}_d
/two{{636 0 73 0 536 742 _sc
192 83 _m
536 83 _l
536 0 _l
73 0 _l
73 83 _l
110 121 161 173 226 239 _c
290 304 331 346 348 365 _c
380 400 402 430 414 455 _c
426 479 433 504 433 528 _c
433 566 419 598 392 622 _c
365 646 330 659 286 659 _c
255 659 222 653 188 643 _c
154 632 117 616 78 594 _c
78 694 _l
118 710 155 722 189 730 _c
223 738 255 742 284 742 _c
}_e{359 742 419 723 464 685 _c
509 647 532 597 532 534 _c
532 504 526 475 515 449 _c
504 422 484 390 454 354 _c
446 344 420 317 376 272 _c
332 227 271 164 192 83 _c
_cl}_e}_d
/three{{636 0 76 -13 556 742 _sc
406 393 _m
453 383 490 362 516 330 _c
542 298 556 258 556 212 _c
556 140 531 84 482 45 _c
432 6 362 -13 271 -13 _c
240 -13 208 -10 176 -4 _c
144 1 110 10 76 22 _c
76 117 _l
103 101 133 89 166 81 _c
198 73 232 69 268 69 _c
330 69 377 81 409 105 _c
441 129 458 165 458 212 _c
458 254 443 288 413 312 _c
383 336 341 349 287 349 _c
}_e{202 349 _l
202 430 _l
291 430 _l
339 430 376 439 402 459 _c
428 478 441 506 441 543 _c
441 580 427 609 401 629 _c
374 649 336 659 287 659 _c
260 659 231 656 200 650 _c
169 644 135 635 98 623 _c
98 711 _l
135 721 170 729 203 734 _c
235 739 266 742 296 742 _c
370 742 429 725 473 691 _c
517 657 539 611 539 553 _c
539 513 527 479 504 451 _c
481 423 448 403 406 393 _c
_cl}_e}_d
/four{636 0 49 0 580 729 _sc
378 643 _m
129 254 _l
378 254 _l
378 643 _l
352 729 _m
476 729 _l
476 254 _l
580 254 _l
580 172 _l
476 172 _l
476 0 _l
378 0 _l
378 172 _l
49 172 _l
49 267 _l
352 729 _l
_cl}_d
/five{{636 0 77 -13 549 729 _sc
108 729 _m
495 729 _l
495 646 _l
198 646 _l
198 467 _l
212 472 227 476 241 478 _c
255 480 270 482 284 482 _c
365 482 429 459 477 415 _c
525 370 549 310 549 234 _c
549 155 524 94 475 51 _c
426 8 357 -13 269 -13 _c
238 -13 207 -10 175 -6 _c
143 -1 111 6 77 17 _c
77 116 _l
106 100 136 88 168 80 _c
199 72 232 69 267 69 _c
}_e{323 69 368 83 401 113 _c
433 143 450 183 450 234 _c
450 284 433 324 401 354 _c
368 384 323 399 267 399 _c
241 399 214 396 188 390 _c
162 384 135 375 108 363 _c
108 729 _l
_cl}_e}_d
/seven{636 0 82 0 551 729 _sc
82 729 _m
551 729 _l
551 687 _l
286 0 _l
183 0 _l
432 646 _l
82 646 _l
82 729 _l
_cl}_d
/bracketleft{390 0 86 -131 293 760 _sc
86 760 _m
293 760 _l
293 690 _l
176 690 _l
176 -61 _l
293 -61 _l
293 -131 _l
86 -131 _l
86 760 _l
_cl}_d
/bracketright{390 0 97 -131 304 760 _sc
304 760 _m
304 -131 _l
97 -131 _l
97 -61 _l
214 -61 _l
214 690 _l
97 690 _l
97 760 _l
304 760 _l
_cl}_d
/a{{613 0 60 -13 522 560 _sc
343 275 _m
270 275 220 266 192 250 _c
164 233 150 205 150 165 _c
150 133 160 107 181 89 _c
202 70 231 61 267 61 _c
317 61 357 78 387 114 _c
417 149 432 196 432 255 _c
432 275 _l
343 275 _l
522 312 _m
522 0 _l
432 0 _l
432 83 _l
411 49 385 25 355 10 _c
325 -5 287 -13 243 -13 _c
187 -13 142 2 109 33 _c
76 64 60 106 60 159 _c
}_e{60 220 80 266 122 298 _c
163 329 224 345 306 345 _c
432 345 _l
432 354 _l
432 395 418 427 391 450 _c
364 472 326 484 277 484 _c
245 484 215 480 185 472 _c
155 464 127 453 100 439 _c
100 522 _l
132 534 164 544 195 550 _c
226 556 256 560 286 560 _c
365 560 424 539 463 498 _c
502 457 522 395 522 312 _c
_cl}_e}_d
/c{{550 0 55 -13 488 560 _sc
488 526 _m
488 442 _l
462 456 437 466 411 473 _c
385 480 360 484 334 484 _c
276 484 230 465 198 428 _c
166 391 150 339 150 273 _c
150 206 166 154 198 117 _c
230 80 276 62 334 62 _c
360 62 385 65 411 72 _c
437 79 462 90 488 104 _c
488 21 _l
462 9 436 0 410 -5 _c
383 -10 354 -13 324 -13 _c
242 -13 176 12 128 64 _c
}_e{79 115 55 185 55 273 _c
55 362 79 432 128 483 _c
177 534 244 560 330 560 _c
358 560 385 557 411 551 _c
437 545 463 537 488 526 _c
_cl}_e}_d
/d{{635 0 55 -13 544 760 _sc
454 464 _m
454 760 _l
544 760 _l
544 0 _l
454 0 _l
454 82 _l
435 49 411 25 382 10 _c
353 -5 319 -13 279 -13 _c
213 -13 159 13 117 65 _c
75 117 55 187 55 273 _c
55 359 75 428 117 481 _c
159 533 213 560 279 560 _c
319 560 353 552 382 536 _c
411 520 435 496 454 464 _c
148 273 _m
148 207 161 155 188 117 _c
215 79 253 61 301 61 _c
}_e{348 61 385 79 413 117 _c
440 155 454 207 454 273 _c
454 339 440 390 413 428 _c
385 466 348 485 301 485 _c
253 485 215 466 188 428 _c
161 390 148 339 148 273 _c
_cl}_e}_d
/e{{615 0 55 -13 562 560 _sc
562 296 _m
562 252 _l
149 252 _l
153 190 171 142 205 110 _c
238 78 284 62 344 62 _c
378 62 412 66 444 74 _c
476 82 509 95 541 113 _c
541 28 _l
509 14 476 3 442 -3 _c
408 -9 373 -13 339 -13 _c
251 -13 182 12 131 62 _c
80 112 55 181 55 268 _c
55 357 79 428 127 481 _c
175 533 241 560 323 560 _c
397 560 455 536 498 489 _c
}_e{540 441 562 377 562 296 _c
472 322 _m
471 371 457 410 431 440 _c
404 469 368 484 324 484 _c
274 484 234 469 204 441 _c
174 413 156 373 152 322 _c
472 322 _l
_cl}_e}_d
/g{{635 0 55 -207 544 560 _sc
454 280 _m
454 344 440 395 414 431 _c
387 467 349 485 301 485 _c
253 485 215 467 188 431 _c
161 395 148 344 148 280 _c
148 215 161 165 188 129 _c
215 93 253 75 301 75 _c
349 75 387 93 414 129 _c
440 165 454 215 454 280 _c
544 68 _m
544 -24 523 -93 482 -139 _c
440 -184 377 -207 292 -207 _c
260 -207 231 -204 203 -200 _c
175 -195 147 -188 121 -178 _c
}_e{121 -91 _l
147 -105 173 -115 199 -122 _c
225 -129 251 -133 278 -133 _c
336 -133 380 -117 410 -87 _c
439 -56 454 -10 454 52 _c
454 96 _l
435 64 411 40 382 24 _c
353 8 319 0 279 0 _c
211 0 157 25 116 76 _c
75 127 55 195 55 280 _c
55 364 75 432 116 483 _c
157 534 211 560 279 560 _c
319 560 353 552 382 536 _c
411 520 435 496 454 464 _c
454 547 _l
544 547 _l
}_e{544 68 _l
_cl}_e}_d
/h{634 0 91 0 549 760 _sc
549 330 _m
549 0 _l
459 0 _l
459 327 _l
459 379 448 417 428 443 _c
408 469 378 482 338 482 _c
289 482 251 466 223 435 _c
195 404 181 362 181 309 _c
181 0 _l
91 0 _l
91 760 _l
181 760 _l
181 462 _l
202 494 227 519 257 535 _c
286 551 320 560 358 560 _c
420 560 468 540 500 501 _c
532 462 549 405 549 330 _c
_cl}_d
/i{278 0 94 0 184 760 _sc
94 547 _m
184 547 _l
184 0 _l
94 0 _l
94 547 _l
94 760 _m
184 760 _l
184 646 _l
94 646 _l
94 760 _l
_cl}_d
/k{579 0 91 0 576 760 _sc
91 760 _m
181 760 _l
181 311 _l
449 547 _l
564 547 _l
274 291 _l
576 0 _l
459 0 _l
181 267 _l
181 0 _l
91 0 _l
91 760 _l
_cl}_d
/m{{974 0 91 0 889 560 _sc
520 442 _m
542 482 569 511 600 531 _c
631 550 668 560 711 560 _c
767 560 811 540 842 500 _c
873 460 889 403 889 330 _c
889 0 _l
799 0 _l
799 327 _l
799 379 789 418 771 444 _c
752 469 724 482 686 482 _c
639 482 602 466 575 435 _c
548 404 535 362 535 309 _c
535 0 _l
445 0 _l
445 327 _l
445 379 435 418 417 444 _c
398 469 369 482 331 482 _c
}_e{285 482 248 466 221 435 _c
194 404 181 362 181 309 _c
181 0 _l
91 0 _l
91 547 _l
181 547 _l
181 462 _l
201 495 226 520 255 536 _c
283 552 317 560 357 560 _c
397 560 430 550 458 530 _c
486 510 506 480 520 442 _c
_cl}_e}_d
/o{612 0 55 -13 557 560 _sc
306 484 _m
258 484 220 465 192 427 _c
164 389 150 338 150 273 _c
150 207 163 156 191 118 _c
219 80 257 62 306 62 _c
354 62 392 80 420 118 _c
448 156 462 207 462 273 _c
462 337 448 389 420 427 _c
392 465 354 484 306 484 _c
306 560 _m
384 560 445 534 490 484 _c
534 433 557 363 557 273 _c
557 183 534 113 490 63 _c
445 12 384 -13 306 -13 _c
227 -13 165 12 121 63 _c
77 113 55 183 55 273 _c
55 363 77 433 121 484 _c
165 534 227 560 306 560 _c
_cl}_d
/r{411 0 91 0 411 560 _sc
411 463 _m
401 469 390 473 378 476 _c
366 478 353 480 339 480 _c
288 480 249 463 222 430 _c
194 397 181 350 181 288 _c
181 0 _l
91 0 _l
91 547 _l
181 547 _l
181 462 _l
199 495 224 520 254 536 _c
284 552 321 560 365 560 _c
371 560 378 559 386 559 _c
393 558 401 557 411 555 _c
411 463 _l
_cl}_d
/s{{521 0 54 -13 472 560 _sc
443 531 _m
443 446 _l
417 458 391 468 364 475 _c
336 481 308 485 279 485 _c
234 485 200 478 178 464 _c
156 450 145 430 145 403 _c
145 382 153 366 169 354 _c
185 342 217 330 265 320 _c
296 313 _l
360 299 405 279 432 255 _c
458 230 472 195 472 151 _c
472 100 452 60 412 31 _c
372 1 316 -13 246 -13 _c
216 -13 186 -10 154 -5 _c
}_e{122 0 89 8 54 20 _c
54 113 _l
87 95 120 82 152 74 _c
184 65 216 61 248 61 _c
290 61 323 68 346 82 _c
368 96 380 117 380 144 _c
380 168 371 187 355 200 _c
339 213 303 226 247 238 _c
216 245 _l
160 257 119 275 95 299 _c
70 323 58 356 58 399 _c
58 450 76 490 112 518 _c
148 546 200 560 268 560 _c
301 560 332 557 362 552 _c
391 547 418 540 443 531 _c
}_e{_cl}_e}_d
/t{392 0 27 0 368 702 _sc
183 702 _m
183 547 _l
368 547 _l
368 477 _l
183 477 _l
183 180 _l
183 135 189 106 201 94 _c
213 81 238 75 276 75 _c
368 75 _l
368 0 _l
276 0 _l
206 0 158 13 132 39 _c
106 65 93 112 93 180 _c
93 477 _l
27 477 _l
27 547 _l
93 547 _l
93 702 _l
183 702 _l
_cl}_d
/u{634 0 85 -13 543 560 _sc
85 216 _m
85 547 _l
175 547 _l
175 219 _l
175 167 185 129 205 103 _c
225 77 255 64 296 64 _c
344 64 383 79 411 110 _c
439 141 453 183 453 237 _c
453 547 _l
543 547 _l
543 0 _l
453 0 _l
453 84 _l
431 50 405 26 377 10 _c
348 -5 315 -13 277 -13 _c
214 -13 166 6 134 45 _c
101 83 85 140 85 216 _c
311 560 _m
311 560 _l
_cl}_d
/v{592 0 30 0 562 547 _sc
30 547 _m
125 547 _l
296 88 _l
467 547 _l
562 547 _l
357 0 _l
235 0 _l
30 547 _l
_cl}_d
/y{592 0 30 -207 562 547 _sc
322 -50 _m
296 -114 271 -157 247 -177 _c
223 -197 191 -207 151 -207 _c
79 -207 _l
79 -132 _l
132 -132 _l
156 -132 175 -126 189 -114 _c
203 -102 218 -75 235 -31 _c
251 9 _l
30 547 _l
125 547 _l
296 119 _l
467 547 _l
562 547 _l
322 -50 _l
_cl}_d
/minus{838 0 106 272 732 355 _sc
106 355 _m
732 355 _l
732 272 _l
106 272 _l
106 355 _l
_cl}_d
end readonly def

/BuildGlyph
 {exch begin
 CharStrings exch
 2 copy known not{pop /.notdef}if
 true 3 1 roll get exec
 end}_d

/BuildChar {
 1 index /Encoding get exch get
 1 index /BuildGlyph get exec
}_d

FontName currentdict end definefont pop
end
%%EndProlog
mpldict begin
-126 108 translate
864 576 0 0 clipbox
gsave
0 0 m
864 0 l
864 576 l
0 576 l
cl
1.000 setgray
fill
grestore
gsave
108 63.36 m
643.68 63.36 l
643.68 506.88 l
108 506.88 l
cl
1.000 setgray
fill
grestore
gsave
535.7 443.5 108 63.36 clipbox
156.2112 423.805083 m
161.568 426.000603 l
166.9248 427.081364 l
172.2816 426.101328 l
177.6384 423.500621 l
182.9952 420.816811 l
185.307796 420.054256 l
182.9952 419.953762 l
177.6384 419.66969 l
172.2816 419.471784 l
166.9248 419.471441 l
161.568 419.646256 l
156.2112 419.847215 l
152.484003 420.054256 l
cl
0.925 0.925 1.000 setrgbcolor
fill
grestore
gsave
535.7 443.5 108 63.36 clipbox
263.3472 421.235193 m
268.704 423.443257 l
274.0608 425.796661 l
279.4176 427.706534 l
284.7744 429.31121 l
290.1312 430.639757 l
295.488 431.563144 l
300.8448 432.295252 l
306.2016 432.674927 l
311.5584 432.812391 l
316.9152 432.853594 l
322.272 432.618305 l
327.6288 432.090206 l
332.9856 431.318608 l
338.3424 430.328455 l
343.6992 428.332939 l
349.056 425.38249 l
354.4128 421.263491 l
355.517669 420.054256 l
359.7696 416.32698 l
365.1264 413.845887 l
370.4832 412.362378 l
375.84 411.161571 l
381.1968 410.066702 l
386.5536 409.210964 l
391.9104 408.487791 l
397.2672 407.785268 l
402.624 407.18642 l
407.9808 406.639301 l
413.3376 406.244016 l
418.6944 405.849539 l
424.0512 405.590825 l
429.408 405.516547 l
434.7648 405.661229 l
440.1216 405.917646 l
445.4784 406.321118 l
450.8352 406.658933 l
456.192 406.826277 l
461.5488 406.982431 l
466.9056 407.054628 l
472.2624 406.870121 l
477.6192 406.191196 l
482.976 405.383183 l
488.3328 404.444783 l
493.6896 403.667215 l
499.0464 403.217645 l
504.4032 403.766988 l
509.76 404.943755 l
515.1168 406.407978 l
520.4736 408.197775 l
525.8304 410.183684 l
531.1872 412.226839 l
536.544 414.700049 l
541.9008 417.705421 l
545.479971 420.054256 l
547.2576 424.964353 l
552.6144 433.607758 l
557.9712 438.000507 l
563.328 440.538511 l
568.6848 442.044065 l
574.0416 442.982733 l
579.3984 443.476611 l
584.7552 443.664327 l
590.112 443.664864 l
595.4688 443.550609 l
600.8256 443.26879 l
606.1824 442.769375 l
611.5392 442.084823 l
616.896 441.040902 l
622.2528 439.455175 l
627.6096 437.109624 l
632.9664 433.401045 l
638.3232 427.206282 l
638.3232 420.054256 l
638.3232 393.180569 l
638.3232 370.057527 l
638.3232 349.581639 l
638.3232 331.12446 l
638.3232 314.282982 l
638.3232 298.778565 l
638.3232 284.408087 l
638.3232 271.017606 l
638.3232 258.486878 l
638.3232 246.719703 l
638.3232 235.637574 l
638.3232 225.175417 l
638.3232 215.278531 l
638.3232 205.900402 l
638.3232 197.001085 l
638.3232 188.545964 l
638.3232 180.504835 l
638.3232 172.851187 l
638.3232 165.561581 l
638.3232 158.615209 l
638.3232 151.993533 l
638.3232 145.679961 l
638.3232 139.659607 l
638.3232 133.919092 l
638.3232 128.44635 l
638.3232 123.23052 l
638.3232 118.261794 l
638.3232 113.531351 l
638.3232 109.031242 l
638.3232 104.754366 l
638.3232 100.694377 l
638.3232 96.845672 l
638.3232 93.203362 l
638.3232 89.76326 l
638.3232 86.521876 l
638.3232 83.476445 l
638.3232 80.624978 l
638.3232 77.966313 l
638.3232 75.500245 l
638.3232 73.227689 l
638.3232 71.150945 l
638.3232 69.274124 l
638.3232 67.603846 l
638.3232 66.150526 l
638.3232 64.931 l
638.3232 63.975286 l
638.3232 63.36 l
632.9664 63.36 l
627.6096 63.36 l
622.2528 63.36 l
616.896 63.36 l
611.5392 63.36 l
606.1824 63.36 l
600.8256 63.36 l
595.4688 63.36 l
590.112 63.36 l
584.7552 63.36 l
579.3984 63.36 l
574.0416 63.36 l
568.6848 63.36 l
563.328 63.36 l
557.9712 63.36 l
552.6144 63.36 l
547.2576 63.36 l
541.9008 63.36 l
536.544 63.36 l
531.1872 63.36 l
525.8304 63.36 l
520.4736 63.36 l
515.1168 63.36 l
509.76 63.36 l
504.4032 63.36 l
499.0464 63.36 l
493.6896 63.36 l
488.3328 63.36 l
482.976 63.36 l
477.6192 63.36 l
472.2624 63.36 l
471.641713 63.36 l
466.9056 63.561855 l
461.5488 63.792419 l
457.759802 63.975286 l
456.192 64.256988 l
452.257954 64.931 l
452.03427 66.150526 l
451.323241 67.603846 l
453.209652 69.274124 l
450.8352 69.558844 l
445.4784 69.991803 l
440.1216 70.226122 l
434.7648 70.244807 l
429.408 70.13912 l
424.0512 70.001529 l
418.6944 69.939291 l
413.3376 69.980716 l
407.9808 70.369252 l
402.624 71.056599 l
402.044306 71.150945 l
397.2672 72.137797 l
391.9104 72.864461 l
389.595719 73.227689 l
391.9104 73.658987 l
397.2672 74.214923 l
402.624 74.634218 l
407.05635 75.500245 l
407.9808 75.871268 l
410.461529 77.966313 l
410.514022 80.624978 l
413.3376 82.404328 l
415.185538 83.476445 l
418.6944 85.482261 l
420.962192 86.521876 l
424.0512 87.607091 l
429.408 89.229067 l
431.809022 89.76326 l
434.7648 90.859865 l
440.1216 92.166401 l
445.4784 93.043253 l
446.399291 93.203362 l
450.8352 95.756264 l
452.303141 96.845672 l
452.814091 100.694377 l
450.8352 101.423088 l
445.4784 102.91168 l
440.1216 103.885188 l
434.7648 104.646563 l
432.349852 104.754366 l
429.408 104.840217 l
424.0512 104.781869 l
418.6944 104.769742 l
418.365934 104.754366 l
413.3376 104.363177 l
407.9808 103.703493 l
402.624 102.908786 l
397.2672 102.147276 l
392.375164 100.694377 l
391.9104 100.611026 l
386.5536 99.122299 l
381.521405 96.845672 l
381.1968 96.769428 l
375.84 95.304795 l
370.4832 93.739198 l
368.961658 93.203362 l
365.1264 92.149904 l
359.7696 90.598017 l
357.150968 89.76326 l
354.4128 89.15189 l
349.056 88.308716 l
343.6992 87.577108 l
338.3424 86.99241 l
332.9856 86.857189 l
327.6288 88.957057 l
327.010065 89.76326 l
325.583983 93.203362 l
324.355171 96.845672 l
323.094321 100.694377 l
327.6288 103.257268 l
329.734151 104.754366 l
332.9856 106.037197 l
338.3424 108.201683 l
340.608694 109.031242 l
343.6992 109.940455 l
349.056 111.115576 l
354.4128 112.098315 l
359.7696 113.164093 l
361.571434 113.531351 l
365.1264 115.826016 l
368.313954 118.261794 l
365.1264 119.615349 l
359.7696 120.756619 l
354.4128 121.385118 l
349.056 121.670178 l
343.6992 121.925893 l
338.3424 122.660335 l
336.630986 123.23052 l
334.455291 128.44635 l
338.3424 132.332208 l
339.510848 133.919092 l
343.6992 136.542189 l
348.121347 139.659607 l
349.056 140.361037 l
354.4128 143.564481 l
358.468833 145.679961 l
359.7696 147.576394 l
362.505431 151.993533 l
361.731247 158.615209 l
359.7696 160.396602 l
354.4128 164.406913 l
352.985966 165.561581 l
354.183346 172.851187 l
354.088384 180.504835 l
349.056 185.944678 l
346.151085 188.545964 l
343.6992 192.488929 l
340.737237 197.001085 l
338.3424 198.436769 l
332.9856 203.450916 l
331.358387 205.900402 l
327.6288 210.015154 l
323.91048 215.278531 l
322.272 217.220412 l
316.9152 225.121011 l
316.884887 225.175417 l
311.694594 235.637574 l
311.5584 236.154344 l
308.913585 246.719703 l
306.2016 252.134459 l
302.709619 258.486878 l
306.2016 268.276973 l
307.549647 271.017606 l
306.2016 271.820014 l
300.8448 274.481189 l
295.488 276.354542 l
290.1312 277.645094 l
284.7744 278.723282 l
279.4176 279.986318 l
274.0608 281.969376 l
271.36155 284.408087 l
268.704 287.868191 l
264.65041 298.778565 l
267.58247 314.282982 l
268.704 315.51787 l
274.0608 319.466269 l
279.4176 322.238431 l
284.7744 324.706921 l
290.1312 327.239671 l
295.488 330.673486 l
296.042413 331.12446 l
300.8448 338.77121 l
306.2016 341.863584 l
311.5584 343.481064 l
316.9152 344.756527 l
322.272 346.145212 l
327.6288 347.712783 l
332.350478 349.581639 l
327.6288 353.813162 l
322.272 357.438409 l
316.9152 358.949881 l
311.5584 359.05103 l
306.2016 358.375808 l
300.8448 357.451946 l
295.488 356.217079 l
290.1312 355.416312 l
284.7744 355.545575 l
279.4176 358.036651 l
274.0608 361.633339 l
268.704 365.143315 l
263.3472 367.623635 l
257.9904 369.231635 l
255.308773 370.057527 l
252.6336 373.326494 l
247.2768 387.532913 l
246.16279 393.180569 l
247.2768 404.199862 l
252.6336 415.855036 l
257.9904 419.09649 l
260.473867 420.054256 l
cl
302.299859 393.180569 m
306.2016 388.577367 l
311.5584 384.218033 l
316.9152 381.673302 l
322.272 381.729098 l
327.6288 383.676977 l
332.9856 386.432595 l
338.3424 389.918279 l
342.419162 393.180569 l
338.3424 401.836036 l
332.9856 404.956053 l
327.6288 405.400228 l
322.272 405.364201 l
316.9152 404.942542 l
311.5584 402.528419 l
306.2016 398.384219 l
cl
431.800953 258.486878 m
429.408 256.69563 l
424.0512 253.428514 l
418.6944 250.61447 l
413.3376 247.897877 l
411.365636 246.719703 l
407.9808 244.301079 l
402.624 239.784722 l
397.912503 235.637574 l
397.2672 235.046611 l
391.9104 229.992026 l
387.080773 225.175417 l
386.5536 224.079147 l
381.1968 215.593753 l
380.944462 215.278531 l
376.969771 205.900402 l
377.02632 197.001085 l
381.1968 195.366162 l
386.5536 193.430499 l
391.9104 191.850227 l
397.2672 190.847841 l
402.624 188.556343 l
402.636667 188.545964 l
407.9808 187.363943 l
413.3376 185.890008 l
418.6944 184.362816 l
424.0512 182.900917 l
429.408 181.537875 l
434.7648 180.565941 l
435.14512 180.504835 l
440.1216 179.760163 l
445.4784 179.445941 l
450.8352 179.753172 l
453.435527 180.504835 l
456.192 181.947273 l
461.030738 188.545964 l
456.192 191.626243 l
450.8352 193.419571 l
445.4784 194.476501 l
440.1216 195.241953 l
434.7648 195.707517 l
429.408 196.242462 l
424.072958 197.001085 l
424.0512 197.011051 l
418.6944 203.78278 l
418.157502 205.900402 l
418.6944 206.226687 l
424.0512 210.584172 l
428.395816 215.278531 l
429.408 216.420625 l
434.7648 223.561509 l
435.674752 225.175417 l
440.1216 234.829632 l
440.645539 235.637574 l
445.4784 238.769862 l
450.8352 243.043375 l
454.229499 246.719703 l
456.192 248.447209 l
461.5488 252.620486 l
466.9056 256.365546 l
469.182751 258.486878 l
466.9056 262.424424 l
461.5488 264.717713 l
456.192 265.142428 l
450.8352 264.686691 l
445.4784 263.713248 l
440.1216 262.261912 l
434.7648 260.156248 l
cl
456.897555 145.679961 m
461.5488 145.569648 l
462.139484 145.679961 l
461.5488 145.722502 l
cl
0.925 0.925 1.000 setrgbcolor
fill
grestore
gsave
535.7 443.5 108 63.36 clipbox
113.3568 506.88 m
118.7136 506.88 l
124.0704 506.88 l
129.4272 506.88 l
134.784 506.88 l
140.1408 506.88 l
145.4976 506.88 l
150.8544 506.88 l
156.2112 506.88 l
161.568 506.88 l
166.9248 506.88 l
172.2816 506.88 l
177.6384 506.88 l
182.9952 506.88 l
188.352 506.88 l
193.7088 506.88 l
199.0656 506.88 l
204.4224 506.88 l
209.7792 506.88 l
215.136 506.88 l
220.4928 506.88 l
225.8496 506.88 l
231.2064 506.88 l
236.5632 506.88 l
241.92 506.88 l
247.2768 506.88 l
252.6336 506.88 l
257.9904 506.88 l
263.3472 506.88 l
268.704 506.88 l
274.0608 506.88 l
279.4176 506.88 l
284.7744 506.88 l
290.1312 506.88 l
295.488 506.88 l
300.8448 506.88 l
306.2016 506.88 l
311.5584 506.88 l
316.9152 506.88 l
322.272 506.88 l
327.6288 506.88 l
332.9856 506.88 l
338.3424 506.88 l
343.6992 506.88 l
349.056 506.88 l
354.4128 506.88 l
359.7696 506.88 l
365.1264 506.88 l
370.4832 506.88 l
375.84 506.88 l
381.1968 506.88 l
386.5536 506.88 l
391.9104 506.88 l
397.2672 506.88 l
402.624 506.88 l
407.9808 506.88 l
413.3376 506.88 l
418.6944 506.88 l
424.0512 506.88 l
429.408 506.88 l
434.7648 506.88 l
440.1216 506.88 l
445.4784 506.88 l
450.8352 506.88 l
456.192 506.88 l
461.5488 506.88 l
466.9056 506.88 l
472.2624 506.88 l
477.6192 506.88 l
482.976 506.88 l
488.3328 506.88 l
493.6896 506.88 l
499.0464 506.88 l
504.4032 506.88 l
509.76 506.88 l
515.1168 506.88 l
520.4736 506.88 l
525.8304 506.88 l
531.1872 506.88 l
536.544 506.88 l
541.9008 506.88 l
547.2576 506.88 l
552.6144 506.88 l
557.9712 506.88 l
563.328 506.88 l
568.6848 506.88 l
574.0416 506.88 l
579.3984 506.88 l
584.7552 506.88 l
590.112 506.88 l
595.4688 506.88 l
600.8256 506.88 l
606.1824 506.88 l
611.5392 506.88 l
616.896 506.88 l
622.2528 506.88 l
627.6096 506.88 l
632.9664 506.88 l
638.3232 506.88 l
638.3232 453.100328 l
638.3232 427.206282 l
632.9664 433.401045 l
627.6096 437.109624 l
622.2528 439.455175 l
616.896 441.040902 l
611.5392 442.084823 l
606.1824 442.769375 l
600.8256 443.26879 l
595.4688 443.550609 l
590.112 443.664864 l
584.7552 443.664327 l
579.3984 443.476611 l
574.0416 442.982733 l
568.6848 442.044065 l
563.328 440.538511 l
557.9712 438.000507 l
552.6144 433.607758 l
547.2576 424.964353 l
545.479971 420.054256 l
541.9008 417.705421 l
536.544 414.700049 l
531.1872 412.226839 l
525.8304 410.183684 l
520.4736 408.197775 l
515.1168 406.407978 l
509.76 404.943755 l
504.4032 403.766988 l
499.0464 403.217645 l
493.6896 403.667215 l
488.3328 404.444783 l
482.976 405.383183 l
477.6192 406.191196 l
472.2624 406.870121 l
466.9056 407.054628 l
461.5488 406.982431 l
456.192 406.826277 l
450.8352 406.658933 l
445.4784 406.321118 l
440.1216 405.917646 l
434.7648 405.661229 l
429.408 405.516547 l
424.0512 405.590825 l
418.6944 405.849539 l
413.3376 406.244016 l
407.9808 406.639301 l
402.624 407.18642 l
397.2672 407.785268 l
391.9104 408.487791 l
386.5536 409.210964 l
381.1968 410.066702 l
375.84 411.161571 l
370.4832 412.362378 l
365.1264 413.845887 l
359.7696 416.32698 l
355.517669 420.054256 l
354.4128 421.263491 l
349.056 425.38249 l
343.6992 428.332939 l
338.3424 430.328455 l
332.9856 431.318608 l
327.6288 432.090206 l
322.272 432.618305 l
316.9152 432.853594 l
311.5584 432.812391 l
306.2016 432.674927 l
300.8448 432.295252 l
295.488 431.563144 l
290.1312 430.639757 l
284.7744 429.31121 l
279.4176 427.706534 l
274.0608 425.796661 l
268.704 423.443257 l
263.3472 421.235193 l
260.473867 420.054256 l
257.9904 419.09649 l
252.6336 415.855036 l
247.2768 404.199862 l
246.16279 393.180569 l
247.2768 387.532913 l
252.6336 373.326494 l
255.308773 370.057527 l
257.9904 369.231635 l
263.3472 367.623635 l
268.704 365.143315 l
274.0608 361.633339 l
279.4176 358.036651 l
284.7744 355.545575 l
290.1312 355.416312 l
295.488 356.217079 l
300.8448 357.451946 l
306.2016 358.375808 l
311.5584 359.05103 l
316.9152 358.949881 l
322.272 357.438409 l
327.6288 353.813162 l
332.350478 349.581639 l
327.6288 347.712783 l
322.272 346.145212 l
316.9152 344.756527 l
311.5584 343.481064 l
306.2016 341.863584 l
300.8448 338.77121 l
296.042413 331.12446 l
295.488 330.673486 l
290.1312 327.239671 l
284.7744 324.706921 l
279.4176 322.238431 l
274.0608 319.466269 l
268.704 315.51787 l
267.58247 314.282982 l
264.65041 298.778565 l
268.704 287.868191 l
271.36155 284.408087 l
274.0608 281.969376 l
279.4176 279.986318 l
284.7744 278.723282 l
290.1312 277.645094 l
295.488 276.354542 l
300.8448 274.481189 l
306.2016 271.820014 l
307.549647 271.017606 l
306.2016 268.276973 l
302.709619 258.486878 l
306.2016 252.134459 l
308.913585 246.719703 l
311.5584 236.154344 l
311.694594 235.637574 l
316.884887 225.175417 l
316.9152 225.121011 l
322.272 217.220412 l
323.91048 215.278531 l
327.6288 210.015154 l
331.358387 205.900402 l
332.9856 203.450916 l
338.3424 198.436769 l
340.737237 197.001085 l
343.6992 192.488929 l
346.151085 188.545964 l
349.056 185.944678 l
354.088384 180.504835 l
354.183346 172.851187 l
352.985966 165.561581 l
354.4128 164.406913 l
359.7696 160.396602 l
361.731247 158.615209 l
362.505431 151.993533 l
359.7696 147.576394 l
358.468833 145.679961 l
354.4128 143.564481 l
349.056 140.361037 l
348.121347 139.659607 l
343.6992 136.542189 l
339.510848 133.919092 l
338.3424 132.332208 l
334.455291 128.44635 l
336.630986 123.23052 l
338.3424 122.660335 l
343.6992 121.925893 l
349.056 121.670178 l
354.4128 121.385118 l
359.7696 120.756619 l
365.1264 119.615349 l
368.313954 118.261794 l
365.1264 115.826016 l
361.571434 113.531351 l
359.7696 113.164093 l
354.4128 112.098315 l
349.056 111.115576 l
343.6992 109.940455 l
340.608694 109.031242 l
338.3424 108.201683 l
332.9856 106.037197 l
329.734151 104.754366 l
327.6288 103.257268 l
323.094321 100.694377 l
324.355171 96.845672 l
325.583983 93.203362 l
327.010065 89.76326 l
327.6288 88.957057 l
332.9856 86.857189 l
338.3424 86.99241 l
343.6992 87.577108 l
349.056 88.308716 l
354.4128 89.15189 l
357.150968 89.76326 l
359.7696 90.598017 l
365.1264 92.149904 l
368.961658 93.203362 l
370.4832 93.739198 l
375.84 95.304795 l
381.1968 96.769428 l
381.521405 96.845672 l
386.5536 99.122299 l
391.9104 100.611026 l
392.375164 100.694377 l
397.2672 102.147276 l
402.624 102.908786 l
407.9808 103.703493 l
413.3376 104.363177 l
418.365934 104.754366 l
418.6944 104.769742 l
424.0512 104.781869 l
429.408 104.840217 l
432.349852 104.754366 l
434.7648 104.646563 l
440.1216 103.885188 l
445.4784 102.91168 l
450.8352 101.423088 l
452.814091 100.694377 l
452.303141 96.845672 l
450.8352 95.756264 l
446.399291 93.203362 l
445.4784 93.043253 l
440.1216 92.166401 l
434.7648 90.859865 l
431.809022 89.76326 l
429.408 89.229067 l
424.0512 87.607091 l
420.962192 86.521876 l
418.6944 85.482261 l
415.185538 83.476445 l
413.3376 82.404328 l
410.514022 80.624978 l
410.461529 77.966313 l
407.9808 75.871268 l
407.05635 75.500245 l
402.624 74.634218 l
397.2672 74.214923 l
391.9104 73.658987 l
389.595719 73.227689 l
391.9104 72.864461 l
397.2672 72.137797 l
402.044306 71.150945 l
402.624 71.056599 l
407.9808 70.369252 l
413.3376 69.980716 l
418.6944 69.939291 l
424.0512 70.001529 l
429.408 70.13912 l
434.7648 70.244807 l
440.1216 70.226122 l
445.4784 69.991803 l
450.8352 69.558844 l
453.209652 69.274124 l
451.323241 67.603846 l
452.03427 66.150526 l
452.257954 64.931 l
456.192 64.256988 l
457.759802 63.975286 l
461.5488 63.792419 l
466.9056 63.561855 l
471.641713 63.36 l
466.9056 63.36 l
461.5488 63.36 l
456.192 63.36 l
450.8352 63.36 l
445.4784 63.36 l
440.1216 63.36 l
434.7648 63.36 l
429.408 63.36 l
424.0512 63.36 l
418.6944 63.36 l
413.3376 63.36 l
407.9808 63.36 l
402.624 63.36 l
397.2672 63.36 l
391.9104 63.36 l
386.5536 63.36 l
381.1968 63.36 l
375.84 63.36 l
370.4832 63.36 l
365.1264 63.36 l
359.7696 63.36 l
354.4128 63.36 l
349.056 63.36 l
343.6992 63.36 l
338.3424 63.36 l
332.9856 63.36 l
327.6288 63.36 l
322.272 63.36 l
316.9152 63.36 l
311.5584 63.36 l
306.2016 63.36 l
300.8448 63.36 l
295.488 63.36 l
290.1312 63.36 l
284.7744 63.36 l
279.4176 63.36 l
274.0608 63.36 l
268.704 63.36 l
263.3472 63.36 l
257.9904 63.36 l
252.6336 63.36 l
247.2768 63.36 l
241.92 63.36 l
236.5632 63.36 l
231.2064 63.36 l
225.8496 63.36 l
220.4928 63.36 l
215.136 63.36 l
209.7792 63.36 l
204.4224 63.36 l
199.0656 63.36 l
193.7088 63.36 l
188.352 63.36 l
182.9952 63.36 l
177.6384 63.36 l
172.2816 63.36 l
171.833312 63.36 l
172.2816 63.428259 l
176.454862 63.975286 l
177.6384 64.680634 l
178.141208 64.931 l
179.188523 66.150526 l
180.553094 67.603846 l
182.748818 69.274124 l
182.9952 69.416901 l
186.73327 71.150945 l
188.352 71.889352 l
191.650129 73.227689 l
193.321749 75.500245 l
192.797187 77.966313 l
191.7404 80.624978 l
190.868806 83.476445 l
189.909711 86.521876 l
189.044226 89.76326 l
188.555434 93.203362 l
188.508801 96.845672 l
188.646388 100.694377 l
188.455108 104.754366 l
188.352 107.733645 l
188.312715 109.031242 l
188.103665 113.531351 l
187.783168 118.261794 l
187.36137 123.23052 l
186.794064 128.44635 l
185.779532 133.919092 l
184.350494 139.659607 l
182.9952 143.71226 l
182.627147 145.679961 l
181.692924 151.993533 l
181.593067 158.615209 l
182.082409 165.561581 l
182.247469 172.851187 l
182.719221 180.504835 l
182.9952 182.988758 l
185.099983 188.545964 l
187.658705 197.001085 l
188.352 199.402826 l
193.7088 205.78992 l
193.978046 205.900402 l
199.0656 213.006001 l
199.388292 215.278531 l
199.0656 215.847043 l
194.827785 225.175417 l
196.208154 235.637574 l
199.0656 245.477646 l
199.384569 246.719703 l
200.150785 258.486878 l
199.471217 271.017606 l
199.0656 271.440568 l
193.7088 277.135075 l
188.352 282.959667 l
187.617532 284.408087 l
182.9952 293.962131 l
181.524812 298.778565 l
177.81946 314.282982 l
177.6384 314.652507 l
172.2816 327.635138 l
171.001913 331.12446 l
166.9248 341.582014 l
164.249932 349.581639 l
161.568 365.946838 l
160.97014 370.057527 l
156.2112 391.476312 l
155.255282 393.180569 l
150.8544 395.291256 l
145.4976 397.530228 l
140.1408 399.69875 l
134.784 402.421348 l
129.4272 404.780556 l
124.0704 406.840124 l
118.7136 408.208147 l
113.3568 409.217468 l
108 410.069286 l
108 420.054256 l
108 453.100328 l
108 506.88 l
cl
152.484003 420.054256 m
156.2112 419.847215 l
161.568 419.646256 l
166.9248 419.471441 l
172.2816 419.471784 l
177.6384 419.66969 l
182.9952 419.953762 l
185.307796 420.054256 l
182.9952 420.816811 l
177.6384 423.500621 l
172.2816 426.101328 l
166.9248 427.081364 l
161.568 426.000603 l
156.2112 423.805083 l
cl
1.000 0.925 0.925 setrgbcolor
fill
grestore
gsave
535.7 443.5 108 63.36 clipbox
306.2016 398.384219 m
311.5584 402.528419 l
316.9152 404.942542 l
322.272 405.364201 l
327.6288 405.400228 l
332.9856 404.956053 l
338.3424 401.836036 l
342.419162 393.180569 l
338.3424 389.918279 l
332.9856 386.432595 l
327.6288 383.676977 l
322.272 381.729098 l
316.9152 381.673302 l
311.5584 384.218033 l
306.2016 388.577367 l
302.299859 393.180569 l
cl
1.000 0.925 0.925 setrgbcolor
fill
grestore
gsave
535.7 443.5 108 63.36 clipbox
434.7648 260.156248 m
440.1216 262.261912 l
445.4784 263.713248 l
450.8352 264.686691 l
456.192 265.142428 l
461.5488 264.717713 l
466.9056 262.424424 l
469.182751 258.486878 l
466.9056 256.365546 l
461.5488 252.620486 l
456.192 248.447209 l
454.229499 246.719703 l
450.8352 243.043375 l
445.4784 238.769862 l
440.645539 235.637574 l
440.1216 234.829632 l
435.674752 225.175417 l
434.7648 223.561509 l
429.408 216.420625 l
428.395816 215.278531 l
424.0512 210.584172 l
418.6944 206.226687 l
418.157502 205.900402 l
418.6944 203.78278 l
424.0512 197.011051 l
424.072958 197.001085 l
429.408 196.242462 l
434.7648 195.707517 l
440.1216 195.241953 l
445.4784 194.476501 l
450.8352 193.419571 l
456.192 191.626243 l
461.030738 188.545964 l
456.192 181.947273 l
453.435527 180.504835 l
450.8352 179.753172 l
445.4784 179.445941 l
440.1216 179.760163 l
435.14512 180.504835 l
434.7648 180.565941 l
429.408 181.537875 l
424.0512 182.900917 l
418.6944 184.362816 l
413.3376 185.890008 l
407.9808 187.363943 l
402.636667 188.545964 l
402.624 188.556343 l
397.2672 190.847841 l
391.9104 191.850227 l
386.5536 193.430499 l
381.1968 195.366162 l
377.02632 197.001085 l
376.969771 205.900402 l
380.944462 215.278531 l
381.1968 215.593753 l
386.5536 224.079147 l
387.080773 225.175417 l
391.9104 229.992026 l
397.2672 235.046611 l
397.912503 235.637574 l
402.624 239.784722 l
407.9808 244.301079 l
411.365636 246.719703 l
413.3376 247.897877 l
418.6944 250.61447 l
424.0512 253.428514 l
429.408 256.69563 l
431.800953 258.486878 l
cl
1.000 0.925 0.925 setrgbcolor
fill
grestore
gsave
535.7 443.5 108 63.36 clipbox
461.5488 145.722502 m
462.139484 145.679961 l
461.5488 145.569648 l
456.897555 145.679961 l
cl
1.000 0.925 0.925 setrgbcolor
fill
grestore
gsave
535.7 443.5 108 63.36 clipbox
113.3568 409.217468 m
118.7136 408.208147 l
124.0704 406.840124 l
129.4272 404.780556 l
134.784 402.421348 l
140.1408 399.69875 l
145.4976 397.530228 l
150.8544 395.291256 l
155.255282 393.180569 l
156.2112 391.476312 l
160.97014 370.057527 l
161.568 365.946838 l
164.249932 349.581639 l
166.9248 341.582014 l
171.001913 331.12446 l
172.2816 327.635138 l
177.6384 314.652507 l
177.81946 314.282982 l
181.524812 298.778565 l
182.9952 293.962131 l
187.617532 284.408087 l
188.352 282.959667 l
193.7088 277.135075 l
199.0656 271.440568 l
199.471217 271.017606 l
200.150785 258.486878 l
199.384569 246.719703 l
199.0656 245.477646 l
196.208154 235.637574 l
194.827785 225.175417 l
199.0656 215.847043 l
199.388292 215.278531 l
199.0656 213.006001 l
193.978046 205.900402 l
193.7088 205.78992 l
188.352 199.402826 l
187.658705 197.001085 l
185.099983 188.545964 l
182.9952 182.988758 l
182.719221 180.504835 l
182.247469 172.851187 l
182.082409 165.561581 l
181.593067 158.615209 l
181.692924 151.993533 l
182.627147 145.679961 l
182.9952 143.71226 l
184.350494 139.659607 l
185.779532 133.919092 l
186.794064 128.44635 l
187.36137 123.23052 l
187.783168 118.261794 l
188.103665 113.531351 l
188.312715 109.031242 l
188.352 107.733645 l
188.455108 104.754366 l
188.646388 100.694377 l
188.508801 96.845672 l
188.555434 93.203362 l
189.044226 89.76326 l
189.909711 86.521876 l
190.868806 83.476445 l
191.7404 80.624978 l
192.797187 77.966313 l
193.321749 75.500245 l
191.650129 73.227689 l
188.352 71.889352 l
186.73327 71.150945 l
182.9952 69.416901 l
182.748818 69.274124 l
180.553094 67.603846 l
179.188523 66.150526 l
178.141208 64.931 l
177.6384 64.680634 l
176.454862 63.975286 l
172.2816 63.428259 l
171.833312 63.36 l
166.9248 63.36 l
161.568 63.36 l
156.2112 63.36 l
155.969057 63.36 l
156.2112 63.400101 l
160.132978 63.975286 l
161.568 64.907151 l
161.609198 64.931 l
162.85448 66.150526 l
164.12651 67.603846 l
165.618901 69.274124 l
166.9248 70.93059 l
167.190875 71.150945 l
169.064763 73.227689 l
170.168424 75.500245 l
170.685734 77.966313 l
170.87198 80.624978 l
170.813183 83.476445 l
170.682581 86.521876 l
170.524864 89.76326 l
170.493535 93.203362 l
170.448385 96.845672 l
170.326031 100.694377 l
170.175078 104.754366 l
170.034922 109.031242 l
169.84273 113.531351 l
169.584384 118.261794 l
169.292671 123.23052 l
169.024329 128.44635 l
168.644547 133.919092 l
168.244505 139.659607 l
167.777988 145.679961 l
167.291957 151.993533 l
166.959972 158.615209 l
166.9248 163.358471 l
166.913007 165.561581 l
166.84056 172.851187 l
166.776556 180.504835 l
166.789345 188.545964 l
166.908974 197.001085 l
166.9248 197.621162 l
167.219661 205.900402 l
167.600375 215.278531 l
168.218752 225.175417 l
168.923734 235.637574 l
167.55772 246.719703 l
166.9248 250.329487 l
165.605745 258.486878 l
162.792375 271.017606 l
161.568 277.558959 l
159.950073 284.408087 l
156.2112 298.063155 l
156.022848 298.778565 l
151.635008 314.282982 l
150.8544 320.433396 l
149.895331 331.12446 l
145.628441 349.581639 l
145.4976 350.588019 l
142.860586 370.057527 l
140.1408 374.449252 l
134.784 381.577487 l
129.4272 387.130791 l
124.0704 392.207199 l
122.792919 393.180569 l
118.7136 395.259895 l
113.3568 397.318164 l
108 399.043743 l
108 410.069286 l
cl
1.000 0.784 0.784 setrgbcolor
fill
grestore
gsave
535.7 443.5 108 63.36 clipbox
113.3568 397.318164 m
118.7136 395.259895 l
122.792919 393.180569 l
124.0704 392.207199 l
129.4272 387.130791 l
134.784 381.577487 l
140.1408 374.449252 l
142.860586 370.057527 l
145.4976 350.588019 l
145.628441 349.581639 l
149.895331 331.12446 l
150.8544 320.433396 l
151.635008 314.282982 l
156.022848 298.778565 l
156.2112 298.063155 l
159.950073 284.408087 l
161.568 277.558959 l
162.792375 271.017606 l
165.605745 258.486878 l
166.9248 250.329487 l
167.55772 246.719703 l
168.923734 235.637574 l
168.218752 225.175417 l
167.600375 215.278531 l
167.219661 205.900402 l
166.9248 197.621162 l
166.908974 197.001085 l
166.789345 188.545964 l
166.776556 180.504835 l
166.84056 172.851187 l
166.913007 165.561581 l
166.9248 163.358471 l
166.959972 158.615209 l
167.291957 151.993533 l
167.777988 145.679961 l
168.244505 139.659607 l
168.644547 133.919092 l
169.024329 128.44635 l
169.292671 123.23052 l
169.584384 118.261794 l
169.84273 113.531351 l
170.034922 109.031242 l
170.175078 104.754366 l
170.326031 100.694377 l
170.448385 96.845672 l
170.493535 93.203362 l
170.524864 89.76326 l
170.682581 86.521876 l
170.813183 83.476445 l
170.87198 80.624978 l
170.685734 77.966313 l
170.168424 75.500245 l
169.064763 73.227689 l
167.190875 71.150945 l
166.9248 70.93059 l
165.618901 69.274124 l
164.12651 67.603846 l
162.85448 66.150526 l
161.609198 64.931 l
161.568 64.907151 l
160.132978 63.975286 l
156.2112 63.400101 l
155.969057 63.36 l
150.8544 63.36 l
148.187954 63.36 l
150.8544 63.778676 l
152.150128 63.975286 l
153.800257 64.931 l
154.981724 66.150526 l
156.11152 67.603846 l
156.2112 67.736532 l
157.713154 69.274124 l
159.160544 71.150945 l
160.206994 73.227689 l
160.814565 75.500245 l
161.172592 77.966313 l
161.419469 80.624978 l
161.498426 83.476445 l
161.517737 86.521876 l
161.543976 89.76326 l
161.568 90.987805 l
161.61899 93.203362 l
161.63165 96.845672 l
161.581636 100.694377 l
161.568 101.270806 l
161.497859 104.754366 l
161.407853 109.031242 l
161.288258 113.531351 l
161.156554 118.261794 l
161.021683 123.23052 l
160.861215 128.44635 l
160.66929 133.919092 l
160.453991 139.659607 l
160.205912 145.679961 l
159.894981 151.993533 l
159.589907 158.615209 l
159.374616 165.561581 l
159.152613 172.851187 l
158.948907 180.504835 l
158.694562 188.545964 l
158.480835 197.001085 l
158.228165 205.900402 l
157.871144 215.278531 l
157.520562 225.175417 l
156.391253 235.637574 l
156.2112 236.450232 l
153.66714 246.719703 l
150.8544 256.654854 l
150.225295 258.486878 l
145.4976 270.411383 l
145.187976 271.017606 l
140.1408 280.255624 l
137.336775 284.408087 l
134.784 298.254429 l
134.687549 298.778565 l
131.142146 314.282982 l
132.199705 331.12446 l
129.4272 345.199329 l
128.572648 349.581639 l
126.562958 370.057527 l
124.0704 372.851925 l
118.7136 376.995802 l
113.3568 380.743891 l
108 384.392329 l
108 393.180569 l
108 399.043743 l
cl
1.000 0.643 0.643 setrgbcolor
fill
grestore
gsave
535.7 443.5 108 63.36 clipbox
113.3568 380.743891 m
118.7136 376.995802 l
124.0704 372.851925 l
126.562958 370.057527 l
128.572648 349.581639 l
129.4272 345.199329 l
132.199705 331.12446 l
131.142146 314.282982 l
134.687549 298.778565 l
134.784 298.254429 l
137.336775 284.408087 l
140.1408 280.255624 l
145.187976 271.017606 l
145.4976 270.411383 l
150.225295 258.486878 l
150.8544 256.654854 l
153.66714 246.719703 l
156.2112 236.450232 l
156.391253 235.637574 l
157.520562 225.175417 l
157.871144 215.278531 l
158.228165 205.900402 l
158.480835 197.001085 l
158.694562 188.545964 l
158.948907 180.504835 l
159.152613 172.851187 l
159.374616 165.561581 l
159.589907 158.615209 l
159.894981 151.993533 l
160.205912 145.679961 l
160.453991 139.659607 l
160.66929 133.919092 l
160.861215 128.44635 l
161.021683 123.23052 l
161.156554 118.261794 l
161.288258 113.531351 l
161.407853 109.031242 l
161.497859 104.754366 l
161.568 101.270806 l
161.581636 100.694377 l
161.63165 96.845672 l
161.61899 93.203362 l
161.568 90.987805 l
161.543976 89.76326 l
161.517737 86.521876 l
161.498426 83.476445 l
161.419469 80.624978 l
161.172592 77.966313 l
160.814565 75.500245 l
160.206994 73.227689 l
159.160544 71.150945 l
157.713154 69.274124 l
156.2112 67.736532 l
156.11152 67.603846 l
154.981724 66.150526 l
153.800257 64.931 l
152.150128 63.975286 l
150.8544 63.778676 l
148.187954 63.36 l
145.4976 63.36 l
141.948923 63.36 l
145.4976 63.820339 l
146.554662 63.975286 l
148.264221 64.931 l
149.513065 66.150526 l
150.64375 67.603846 l
150.8544 67.911347 l
151.980554 69.274124 l
153.163268 71.150945 l
153.995517 73.227689 l
154.468395 75.500245 l
154.741169 77.966313 l
154.947707 80.624978 l
155.046979 83.476445 l
155.101504 86.521876 l
155.166384 89.76326 l
155.229157 93.203362 l
155.251847 96.845672 l
155.240018 100.694377 l
155.18179 104.754366 l
155.108702 109.031242 l
155.02675 113.531351 l
154.938531 118.261794 l
154.84968 123.23052 l
154.696588 128.44635 l
154.542407 133.919092 l
154.348417 139.659607 l
154.116529 145.679961 l
153.796151 151.993533 l
153.428083 158.615209 l
153.058472 165.561581 l
152.690027 172.851187 l
152.317506 180.504835 l
151.796515 188.545964 l
151.231587 197.001085 l
150.8544 201.346454 l
150.429563 205.900402 l
149.265117 215.278531 l
147.706201 225.175417 l
145.4976 231.955192 l
143.736645 235.637574 l
140.1408 243.750112 l
137.470143 246.719703 l
134.784 249.669341 l
129.4272 252.419677 l
124.0704 254.089843 l
118.7136 252.511224 l
113.3568 248.796539 l
111.36707 246.719703 l
108 245.26199 l
108 246.719703 l
108 258.486878 l
108 271.017606 l
108 284.408087 l
108 298.778565 l
108 314.282982 l
108 331.12446 l
108 349.581639 l
108 370.057527 l
108 384.392329 l
cl
1.000 0.494 0.494 setrgbcolor
fill
grestore
gsave
535.7 443.5 108 63.36 clipbox
113.3568 248.796539 m
118.7136 252.511224 l
124.0704 254.089843 l
129.4272 252.419677 l
134.784 249.669341 l
137.470143 246.719703 l
140.1408 243.750112 l
143.736645 235.637574 l
145.4976 231.955192 l
147.706201 225.175417 l
149.265117 215.278531 l
150.429563 205.900402 l
150.8544 201.346454 l
151.231587 197.001085 l
151.796515 188.545964 l
152.317506 180.504835 l
152.690027 172.851187 l
153.058472 165.561581 l
153.428083 158.615209 l
153.796151 151.993533 l
154.116529 145.679961 l
154.348417 139.659607 l
154.542407 133.919092 l
154.696588 128.44635 l
154.84968 123.23052 l
154.938531 118.261794 l
155.02675 113.531351 l
155.108702 109.031242 l
155.18179 104.754366 l
155.240018 100.694377 l
155.251847 96.845672 l
155.229157 93.203362 l
155.166384 89.76326 l
155.101504 86.521876 l
155.046979 83.476445 l
154.947707 80.624978 l
154.741169 77.966313 l
154.468395 75.500245 l
153.995517 73.227689 l
153.163268 71.150945 l
151.980554 69.274124 l
150.8544 67.911347 l
150.64375 67.603846 l
149.513065 66.150526 l
148.264221 64.931 l
146.554662 63.975286 l
145.4976 63.820339 l
141.948923 63.36 l
140.1408 63.36 l
136.576736 63.36 l
140.1408 63.793576 l
141.57484 63.975286 l
143.509955 64.931 l
144.936119 66.150526 l
145.4976 66.801658 l
146.208357 67.603846 l
147.39509 69.274124 l
148.362358 71.150945 l
149.029799 73.227689 l
149.401676 75.500245 l
149.595908 77.966313 l
149.736402 80.624978 l
149.820624 83.476445 l
149.878558 86.521876 l
149.944149 89.76326 l
149.974886 93.203362 l
149.979626 96.845672 l
149.952803 100.694377 l
149.896341 104.754366 l
149.826996 109.031242 l
149.759513 113.531351 l
149.689485 118.261794 l
149.608542 123.23052 l
149.438736 128.44635 l
149.282672 133.919092 l
149.063615 139.659607 l
148.787945 145.679961 l
148.40045 151.993533 l
147.927466 158.615209 l
147.374156 165.561581 l
146.821213 172.851187 l
146.218941 180.504835 l
145.4976 187.287428 l
145.346953 188.545964 l
144.26073 197.001085 l
142.664343 205.900402 l
140.279218 215.278531 l
140.1408 215.751652 l
135.530358 225.175417 l
134.784 226.060652 l
129.4272 229.759034 l
124.0704 231.917165 l
118.7136 231.714057 l
113.3568 230.892652 l
108 229.962209 l
108 235.637574 l
108 245.26199 l
111.36707 246.719703 l
cl
1.000 0.353 0.353 setrgbcolor
fill
grestore
gsave
535.7 443.5 108 63.36 clipbox
113.3568 230.892652 m
118.7136 231.714057 l
124.0704 231.917165 l
129.4272 229.759034 l
134.784 226.060652 l
135.530358 225.175417 l
140.1408 215.751652 l
140.279218 215.278531 l
142.664343 205.900402 l
144.26073 197.001085 l
145.346953 188.545964 l
145.4976 187.287428 l
146.218941 180.504835 l
146.821213 172.851187 l
147.374156 165.561581 l
147.927466 158.615209 l
148.40045 151.993533 l
148.787945 145.679961 l
149.063615 139.659607 l
149.282672 133.919092 l
149.438736 128.44635 l
149.608542 123.23052 l
149.689485 118.261794 l
149.759513 113.531351 l
149.826996 109.031242 l
149.896341 104.754366 l
149.952803 100.694377 l
149.979626 96.845672 l
149.974886 93.203362 l
149.944149 89.76326 l
149.878558 86.521876 l
149.820624 83.476445 l
149.736402 80.624978 l
149.595908 77.966313 l
149.401676 75.500245 l
149.029799 73.227689 l
148.362358 71.150945 l
147.39509 69.274124 l
146.208357 67.603846 l
145.4976 66.801658 l
144.936119 66.150526 l
143.509955 64.931 l
141.57484 63.975286 l
140.1408 63.793576 l
136.576736 63.36 l
134.784 63.36 l
131.622074 63.36 l
134.784 63.695488 l
137.105574 63.975286 l
139.085435 64.931 l
140.1408 65.786496 l
140.619405 66.150526 l
141.981123 67.603846 l
143.125955 69.274124 l
143.999174 71.150945 l
144.574228 73.227689 l
144.877986 75.500245 l
145.004518 77.966313 l
145.076125 80.624978 l
145.134469 83.476445 l
145.190238 86.521876 l
145.247145 89.76326 l
145.232636 93.203362 l
145.195003 96.845672 l
145.115358 100.694377 l
145.036525 104.754366 l
144.95282 109.031242 l
144.879836 113.531351 l
144.812185 118.261794 l
144.715909 123.23052 l
144.510617 128.44635 l
144.320609 133.919092 l
144.033047 139.659607 l
143.657439 145.679961 l
143.13759 151.993533 l
142.492208 158.615209 l
141.688516 165.561581 l
140.883248 172.851187 l
140.1408 178.873985 l
139.895537 180.504835 l
138.254123 188.545964 l
136.051545 197.001085 l
134.784 200.805067 l
132.34379 205.900402 l
129.4272 210.504489 l
124.821814 215.278531 l
124.0704 215.943672 l
118.7136 216.833861 l
113.3568 216.836444 l
108 216.70395 l
108 225.175417 l
108 229.962209 l
cl
1.000 0.212 0.212 setrgbcolor
fill
grestore
gsave
535.7 443.5 108 63.36 clipbox
113.3568 216.836444 m
118.7136 216.833861 l
124.0704 215.943672 l
124.821814 215.278531 l
129.4272 210.504489 l
132.34379 205.900402 l
134.784 200.805067 l
136.051545 197.001085 l
138.254123 188.545964 l
139.895537 180.504835 l
140.1408 178.873985 l
140.883248 172.851187 l
141.688516 165.561581 l
142.492208 158.615209 l
143.13759 151.993533 l
143.657439 145.679961 l
144.033047 139.659607 l
144.320609 133.919092 l
144.510617 128.44635 l
144.715909 123.23052 l
144.812185 118.261794 l
144.879836 113.531351 l
144.95282 109.031242 l
145.036525 104.754366 l
145.115358 100.694377 l
145.195003 96.845672 l
145.232636 93.203362 l
145.247145 89.76326 l
145.190238 86.521876 l
145.134469 83.476445 l
145.076125 80.624978 l
145.004518 77.966313 l
144.877986 75.500245 l
144.574228 73.227689 l
143.999174 71.150945 l
143.125955 69.274124 l
141.981123 67.603846 l
140.619405 66.150526 l
140.1408 65.786496 l
139.085435 64.931 l
137.105574 63.975286 l
134.784 63.695488 l
131.622074 63.36 l
129.4272 63.36 l
126.512294 63.36 l
129.4272 63.606572 l
132.864565 63.975286 l
134.784 64.817319 l
135.035033 64.931 l
136.670037 66.150526 l
137.972405 67.603846 l
139.008825 69.274124 l
139.756502 71.150945 l
140.1408 72.854064 l
140.230368 73.227689 l
140.470846 75.500245 l
140.531341 77.966313 l
140.526536 80.624978 l
140.540487 83.476445 l
140.573667 86.521876 l
140.593991 89.76326 l
140.514038 93.203362 l
140.417749 96.845672 l
140.277165 100.694377 l
140.166331 104.754366 l
140.1408 105.699868 l
140.044851 109.031242 l
139.939852 113.531351 l
139.852909 118.261794 l
139.717185 123.23052 l
139.452497 128.44635 l
139.194402 133.919092 l
138.792011 139.659607 l
138.248558 145.679961 l
137.515693 151.993533 l
136.608686 158.615209 l
135.455897 165.561581 l
134.784 169.746239 l
134.188865 172.851187 l
132.247178 180.504835 l
129.4272 188.435014 l
129.374695 188.545964 l
124.0704 196.991042 l
124.048296 197.001085 l
118.7136 199.444909 l
113.3568 200.791642 l
108 201.865241 l
108 205.900402 l
108 215.278531 l
108 216.70395 l
cl
1.000 0.071 0.071 setrgbcolor
fill
grestore
0.800 setlinewidth
1 setlinejoin
0 setlinecap
[] 0 setdash
0.000 setgray
gsave
/o {
gsave
newpath
translate
0.8 setlinewidth
1 setlinejoin
0 setlinecap
0 0 m
0 -3.5 l

gsave
0.000 setgray
fill
grestore
stroke
grestore
} bind def
108 63.36 o
grestore
/DejaVuSans findfont
10.000 scalefont
setfont
gsave
104.820312 48.766250 translate
0.000000 rotate
0.000000 0 m /zero glyphshow
grestore
gsave
/o {
gsave
newpath
translate
0.8 setlinewidth
1 setlinejoin
0 setlinecap
0 0 m
0 -3.5 l

gsave
0.000 setgray
fill
grestore
stroke
grestore
} bind def
161.568 63.36 o
grestore
gsave
155.208625 48.766250 translate
0.000000 rotate
0.000000 0 m /five glyphshow
6.362305 0 m /zero glyphshow
grestore
gsave
/o {
gsave
newpath
translate
0.8 setlinewidth
1 setlinejoin
0 setlinecap
0 0 m
0 -3.5 l

gsave
0.000 setgray
fill
grestore
stroke
grestore
} bind def
215.136 63.36 o
grestore
gsave
205.596938 48.766250 translate
0.000000 rotate
0.000000 0 m /one glyphshow
6.362305 0 m /zero glyphshow
12.724609 0 m /zero glyphshow
grestore
gsave
/o {
gsave
newpath
translate
0.8 setlinewidth
1 setlinejoin
0 setlinecap
0 0 m
0 -3.5 l

gsave
0.000 setgray
fill
grestore
stroke
grestore
} bind def
268.704 63.36 o
grestore
gsave
259.164938 48.766250 translate
0.000000 rotate
0.000000 0 m /one glyphshow
6.362305 0 m /five glyphshow
12.724609 0 m /zero glyphshow
grestore
gsave
/o {
gsave
newpath
translate
0.8 setlinewidth
1 setlinejoin
0 setlinecap
0 0 m
0 -3.5 l

gsave
0.000 setgray
fill
grestore
stroke
grestore
} bind def
322.272 63.36 o
grestore
gsave
312.732938 48.766250 translate
0.000000 rotate
0.000000 0 m /two glyphshow
6.362305 0 m /zero glyphshow
12.724609 0 m /zero glyphshow
grestore
gsave
/o {
gsave
newpath
translate
0.8 setlinewidth
1 setlinejoin
0 setlinecap
0 0 m
0 -3.5 l

gsave
0.000 setgray
fill
grestore
stroke
grestore
} bind def
375.84 63.36 o
grestore
gsave
366.300938 48.766250 translate
0.000000 rotate
0.000000 0 m /two glyphshow
6.362305 0 m /five glyphshow
12.724609 0 m /zero glyphshow
grestore
gsave
/o {
gsave
newpath
translate
0.8 setlinewidth
1 setlinejoin
0 setlinecap
0 0 m
0 -3.5 l

gsave
0.000 setgray
fill
grestore
stroke
grestore
} bind def
429.408 63.36 o
grestore
gsave
419.868938 48.766250 translate
0.000000 rotate
0.000000 0 m /three glyphshow
6.362305 0 m /zero glyphshow
12.724609 0 m /zero glyphshow
grestore
gsave
/o {
gsave
newpath
translate
0.8 setlinewidth
1 setlinejoin
0 setlinecap
0 0 m
0 -3.5 l

gsave
0.000 setgray
fill
grestore
stroke
grestore
} bind def
482.976 63.36 o
grestore
gsave
473.436938 48.766250 translate
0.000000 rotate
0.000000 0 m /three glyphshow
6.362305 0 m /five glyphshow
12.724609 0 m /zero glyphshow
grestore
gsave
/o {
gsave
newpath
translate
0.8 setlinewidth
1 setlinejoin
0 setlinecap
0 0 m
0 -3.5 l

gsave
0.000 setgray
fill
grestore
stroke
grestore
} bind def
536.544 63.36 o
grestore
gsave
527.004938 48.766250 translate
0.000000 rotate
0.000000 0 m /four glyphshow
6.362305 0 m /zero glyphshow
12.724609 0 m /zero glyphshow
grestore
gsave
/o {
gsave
newpath
translate
0.8 setlinewidth
1 setlinejoin
0 setlinecap
0 0 m
0 -3.5 l

gsave
0.000 setgray
fill
grestore
stroke
grestore
} bind def
590.112 63.36 o
grestore
gsave
580.572938 48.766250 translate
0.000000 rotate
0.000000 0 m /four glyphshow
6.362305 0 m /five glyphshow
12.724609 0 m /zero glyphshow
grestore
gsave
/o {
gsave
newpath
translate
0.8 setlinewidth
1 setlinejoin
0 setlinecap
0 0 m
0 -3.5 l

gsave
0.000 setgray
fill
grestore
stroke
grestore
} bind def
643.68 63.36 o
grestore
gsave
634.140938 48.766250 translate
0.000000 rotate
0.000000 0 m /five glyphshow
6.362305 0 m /zero glyphshow
12.724609 0 m /zero glyphshow
grestore
gsave
347.105625 35.094375 translate
0.000000 rotate
0.000000 0 m /r glyphshow
4.111328 0 m /a glyphshow
10.239258 0 m /d glyphshow
16.586914 0 m /i glyphshow
19.365234 0 m /u glyphshow
25.703125 0 m /s glyphshow
30.913086 0 m /space glyphshow
34.091797 0 m /bracketleft glyphshow
37.993164 0 m /k glyphshow
43.784180 0 m /m glyphshow
53.525391 0 m /bracketright glyphshow
grestore
gsave
/o {
gsave
newpath
translate
0.8 setlinewidth
1 setlinejoin
0 setlinecap
0 0 m
-3.5 0 l

gsave
0.000 setgray
fill
grestore
stroke
grestore
} bind def
108 115.219 o
grestore
gsave
75.562500 111.421732 translate
0.000000 rotate
0.000000 0 m /two glyphshow
6.362305 0 m /five glyphshow
12.724609 0 m /zero glyphshow
19.086914 0 m /zero glyphshow
grestore
gsave
/o {
gsave
newpath
translate
0.8 setlinewidth
1 setlinejoin
0 setlinecap
0 0 m
-3.5 0 l

gsave
0.000 setgray
fill
grestore
stroke
grestore
} bind def
108 167.285 o
grestore
gsave
75.562500 163.488607 translate
0.000000 rotate
0.000000 0 m /five glyphshow
6.362305 0 m /zero glyphshow
12.724609 0 m /zero glyphshow
19.086914 0 m /zero glyphshow
grestore
gsave
/o {
gsave
newpath
translate
0.8 setlinewidth
1 setlinejoin
0 setlinecap
0 0 m
-3.5 0 l

gsave
0.000 setgray
fill
grestore
stroke
grestore
} bind def
108 219.352 o
grestore
gsave
75.562500 215.555482 translate
0.000000 rotate
0.000000 0 m /seven glyphshow
6.362305 0 m /five glyphshow
12.724609 0 m /zero glyphshow
19.086914 0 m /zero glyphshow
grestore
gsave
/o {
gsave
newpath
translate
0.8 setlinewidth
1 setlinejoin
0 setlinecap
0 0 m
-3.5 0 l

gsave
0.000 setgray
fill
grestore
stroke
grestore
} bind def
108 271.419 o
grestore
gsave
69.203125 267.622357 translate
0.000000 rotate
0.000000 0 m /one glyphshow
6.362305 0 m /zero glyphshow
12.724609 0 m /zero glyphshow
19.086914 0 m /zero glyphshow
25.449219 0 m /zero glyphshow
grestore
gsave
/o {
gsave
newpath
translate
0.8 setlinewidth
1 setlinejoin
0 setlinecap
0 0 m
-3.5 0 l

gsave
0.000 setgray
fill
grestore
stroke
grestore
} bind def
108 323.486 o
grestore
gsave
69.203125 319.689232 translate
0.000000 rotate
0.000000 0 m /one glyphshow
6.362305 0 m /two glyphshow
12.724609 0 m /five glyphshow
19.086914 0 m /zero glyphshow
25.449219 0 m /zero glyphshow
grestore
gsave
/o {
gsave
newpath
translate
0.8 setlinewidth
1 setlinejoin
0 setlinecap
0 0 m
-3.5 0 l

gsave
0.000 setgray
fill
grestore
stroke
grestore
} bind def
108 375.553 o
grestore
gsave
69.203125 371.756107 translate
0.000000 rotate
0.000000 0 m /one glyphshow
6.362305 0 m /five glyphshow
12.724609 0 m /zero glyphshow
19.086914 0 m /zero glyphshow
25.449219 0 m /zero glyphshow
grestore
gsave
/o {
gsave
newpath
translate
0.8 setlinewidth
1 setlinejoin
0 setlinecap
0 0 m
-3.5 0 l

gsave
0.000 setgray
fill
grestore
stroke
grestore
} bind def
108 427.62 o
grestore
gsave
69.203125 423.822982 translate
0.000000 rotate
0.000000 0 m /one glyphshow
6.362305 0 m /seven glyphshow
12.724609 0 m /five glyphshow
19.086914 0 m /zero glyphshow
25.449219 0 m /zero glyphshow
grestore
gsave
/o {
gsave
newpath
translate
0.8 setlinewidth
1 setlinejoin
0 setlinecap
0 0 m
-3.5 0 l

gsave
0.000 setgray
fill
grestore
stroke
grestore
} bind def
108 479.687 o
grestore
gsave
69.203125 475.889857 translate
0.000000 rotate
0.000000 0 m /two glyphshow
6.362305 0 m /zero glyphshow
12.724609 0 m /zero glyphshow
19.086914 0 m /zero glyphshow
25.449219 0 m /zero glyphshow
grestore
gsave
63.125000 258.799688 translate
90.000000 rotate
0.000000 0 m /h glyphshow
6.337891 0 m /e glyphshow
12.490234 0 m /i glyphshow
15.268555 0 m /g glyphshow
21.616211 0 m /h glyphshow
27.954102 0 m /t glyphshow
31.875000 0 m /space glyphshow
35.053711 0 m /bracketleft glyphshow
38.955078 0 m /m glyphshow
48.696289 0 m /bracketright glyphshow
grestore
1.500 setlinewidth
2 setlinecap
gsave
535.7 443.5 108 63.36 clipbox
156.2112 506.88 m
156.2112 453.100328 l
156.2112 420.054256 l
156.2112 393.180569 l
156.2112 370.057527 l
156.2112 349.581639 l
156.2112 331.12446 l
156.2112 314.282982 l
156.2112 298.778565 l
156.2112 284.408087 l
156.2112 271.017606 l
156.2112 258.486878 l
156.2112 246.719703 l
156.2112 235.637574 l
156.2112 225.175417 l
156.2112 215.278531 l
156.2112 205.900402 l
156.2112 197.001085 l
156.2112 188.545964 l
156.2112 180.504835 l
156.2112 172.851187 l
156.2112 165.561581 l
156.2112 158.615209 l
156.2112 151.993533 l
156.2112 145.679961 l
156.2112 139.659607 l
156.2112 133.919092 l
156.2112 128.44635 l
156.2112 123.23052 l
156.2112 118.261794 l
156.2112 113.531351 l
156.2112 109.031242 l
156.2112 104.754366 l
156.2112 100.694377 l
156.2112 96.845672 l
156.2112 93.203362 l
156.2112 89.76326 l
156.2112 86.521876 l
156.2112 83.476445 l
156.2112 80.624978 l
156.2112 77.966313 l
156.2112 75.500245 l
156.2112 73.227689 l
156.2112 71.150945 l
156.2112 69.274124 l
156.2112 67.603846 l
156.2112 66.150526 l
156.2112 64.931 l
156.2112 63.975286 l
156.2112 63.36 l
stroke
grestore
0.800 setlinewidth
0 setlinejoin
[] 0 setdash
gsave
108 63.36 m
108 506.88 l
stroke
grestore
gsave
643.68 63.36 m
643.68 506.88 l
stroke
grestore
gsave
108 63.36 m
643.68 63.36 l
stroke
grestore
gsave
108 506.88 m
643.68 506.88 l
stroke
grestore
/DejaVuSans findfont
12.000 scalefont
setfont
gsave
351.261875 512.880000 translate
0.000000 rotate
0.000000 0 m /v glyphshow
7.101562 0 m /o glyphshow
14.443359 0 m /r glyphshow
19.376953 0 m /t glyphshow
24.082031 0 m /i glyphshow
27.416016 0 m /c glyphshow
34.013672 0 m /i glyphshow
37.347656 0 m /t glyphshow
42.052734 0 m /y glyphshow
grestore
0.010 setlinewidth
0 setlinecap
1.000 setgray
gsave
22.18 443.5 677.2 63.36 clipbox
677.16 63.36 m
677.16 95.04 l
677.16 475.2 l
677.16 506.88 l
699.336 506.88 l
699.336 475.2 l
699.336 95.04 l
699.336 63.36 l
cl
gsave
fill
grestore
stroke
grestore
gsave
22.18 443.5 677.2 63.36 clipbox
677.16 63.36 m
699.336 63.36 l
699.336 95.04 l
677.16 95.04 l
677.16 63.36 l
0.071 0.071 1.000 setrgbcolor
fill
grestore
gsave
22.18 443.5 677.2 63.36 clipbox
677.16 95.04 m
699.336 95.04 l
699.336 126.72 l
677.16 126.72 l
677.16 95.04 l
0.212 0.212 1.000 setrgbcolor
fill
grestore
gsave
22.18 443.5 677.2 63.36 clipbox
677.16 126.72 m
699.336 126.72 l
699.336 158.4 l
677.16 158.4 l
677.16 126.72 l
0.353 0.353 1.000 setrgbcolor
fill
grestore
gsave
22.18 443.5 677.2 63.36 clipbox
677.16 158.4 m
699.336 158.4 l
699.336 190.08 l
677.16 190.08 l
677.16 158.4 l
0.502 0.502 1.000 setrgbcolor
fill
grestore
gsave
22.18 443.5 677.2 63.36 clipbox
677.16 190.08 m
699.336 190.08 l
699.336 221.76 l
677.16 221.76 l
677.16 190.08 l
0.643 0.643 1.000 setrgbcolor
fill
grestore
gsave
22.18 443.5 677.2 63.36 clipbox
677.16 221.76 m
699.336 221.76 l
699.336 253.44 l
677.16 253.44 l
677.16 221.76 l
0.784 0.784 1.000 setrgbcolor
fill
grestore
gsave
22.18 443.5 677.2 63.36 clipbox
677.16 253.44 m
699.336 253.44 l
699.336 285.12 l
677.16 285.12 l
677.16 253.44 l
0.925 0.925 1.000 setrgbcolor
fill
grestore
gsave
22.18 443.5 677.2 63.36 clipbox
677.16 285.12 m
699.336 285.12 l
699.336 316.8 l
677.16 316.8 l
677.16 285.12 l
1.000 0.925 0.925 setrgbcolor
fill
grestore
gsave
22.18 443.5 677.2 63.36 clipbox
677.16 316.8 m
699.336 316.8 l
699.336 348.48 l
677.16 348.48 l
677.16 316.8 l
1.000 0.784 0.784 setrgbcolor
fill
grestore
gsave
22.18 443.5 677.2 63.36 clipbox
677.16 348.48 m
699.336 348.48 l
699.336 380.16 l
677.16 380.16 l
677.16 348.48 l
1.000 0.643 0.643 setrgbcolor
fill
grestore
gsave
22.18 443.5 677.2 63.36 clipbox
677.16 380.16 m
699.336 380.16 l
699.336 411.84 l
677.16 411.84 l
677.16 380.16 l
1.000 0.494 0.494 setrgbcolor
fill
grestore
gsave
22.18 443.5 677.2 63.36 clipbox
677.16 411.84 m
699.336 411.84 l
699.336 443.52 l
677.16 443.52 l
677.16 411.84 l
1.000 0.353 0.353 setrgbcolor
fill
grestore
gsave
22.18 443.5 677.2 63.36 clipbox
677.16 443.52 m
699.336 443.52 l
699.336 475.2 l
677.16 475.2 l
677.16 443.52 l
1.000 0.212 0.212 setrgbcolor
fill
grestore
gsave
22.18 443.5 677.2 63.36 clipbox
677.16 475.2 m
699.336 475.2 l
699.336 506.88 l
677.16 506.88 l
677.16 475.2 l
1.000 0.071 0.071 setrgbcolor
fill
grestore
0.800 setlinewidth
1 setlinejoin
[] 0 setdash
0.000 setgray
gsave
/o {
gsave
newpath
translate
0.8 setlinewidth
1 setlinejoin
0 setlinecap
0 0 m
3.5 0 l

gsave
0.000 setgray
fill
grestore
stroke
grestore
} bind def
699.336 95.04 o
grestore
/DejaVuSans findfont
10.000 scalefont
setfont
gsave
706.336000 91.243125 translate
0.000000 rotate
0.000000 0 m /minus glyphshow
8.378906 0 m /zero glyphshow
14.741211 0 m /period glyphshow
17.919922 0 m /zero glyphshow
24.282227 0 m /zero glyphshow
30.644531 0 m /one glyphshow
37.006836 0 m /five glyphshow
grestore
gsave
/o {
gsave
newpath
translate
0.8 setlinewidth
1 setlinejoin
0 setlinecap
0 0 m
3.5 0 l

gsave
0.000 setgray
fill
grestore
stroke
grestore
} bind def
699.336 158.4 o
grestore
gsave
706.336000 154.603125 translate
0.000000 rotate
0.000000 0 m /minus glyphshow
8.378906 0 m /zero glyphshow
14.741211 0 m /period glyphshow
17.919922 0 m /zero glyphshow
24.282227 0 m /zero glyphshow
30.644531 0 m /one glyphshow
37.006836 0 m /zero glyphshow
grestore
gsave
/o {
gsave
newpath
translate
0.8 setlinewidth
1 setlinejoin
0 setlinecap
0 0 m
3.5 0 l

gsave
0.000 setgray
fill
grestore
stroke
grestore
} bind def
699.336 221.76 o
grestore
gsave
706.336000 217.963125 translate
0.000000 rotate
0.000000 0 m /minus glyphshow
8.378906 0 m /zero glyphshow
14.741211 0 m /period glyphshow
17.919922 0 m /zero glyphshow
24.282227 0 m /zero glyphshow
30.644531 0 m /zero glyphshow
37.006836 0 m /five glyphshow
grestore
gsave
/o {
gsave
newpath
translate
0.8 setlinewidth
1 setlinejoin
0 setlinecap
0 0 m
3.5 0 l

gsave
0.000 setgray
fill
grestore
stroke
grestore
} bind def
699.336 285.12 o
grestore
gsave
706.336000 281.323125 translate
0.000000 rotate
0.000000 0 m /zero glyphshow
6.362305 0 m /period glyphshow
9.541016 0 m /zero glyphshow
15.903320 0 m /zero glyphshow
22.265625 0 m /zero glyphshow
28.627930 0 m /zero glyphshow
grestore
gsave
/o {
gsave
newpath
translate
0.8 setlinewidth
1 setlinejoin
0 setlinecap
0 0 m
3.5 0 l

gsave
0.000 setgray
fill
grestore
stroke
grestore
} bind def
699.336 348.48 o
grestore
gsave
706.336000 344.683125 translate
0.000000 rotate
0.000000 0 m /zero glyphshow
6.362305 0 m /period glyphshow
9.541016 0 m /zero glyphshow
15.903320 0 m /zero glyphshow
22.265625 0 m /zero glyphshow
28.627930 0 m /five glyphshow
grestore
gsave
/o {
gsave
newpath
translate
0.8 setlinewidth
1 setlinejoin
0 setlinecap
0 0 m
3.5 0 l

gsave
0.000 setgray
fill
grestore
stroke
grestore
} bind def
699.336 411.84 o
grestore
gsave
706.336000 408.043125 translate
0.000000 rotate
0.000000 0 m /zero glyphshow
6.362305 0 m /period glyphshow
9.541016 0 m /zero glyphshow
15.903320 0 m /zero glyphshow
22.265625 0 m /one glyphshow
28.627930 0 m /zero glyphshow
grestore
gsave
/o {
gsave
newpath
translate
0.8 setlinewidth
1 setlinejoin
0 setlinecap
0 0 m
3.5 0 l

gsave
0.000 setgray
fill
grestore
stroke
grestore
} bind def
699.336 475.2 o
grestore
gsave
706.336000 471.403125 translate
0.000000 rotate
0.000000 0 m /zero glyphshow
6.362305 0 m /period glyphshow
9.541016 0 m /zero glyphshow
15.903320 0 m /zero glyphshow
22.265625 0 m /one glyphshow
28.627930 0 m /five glyphshow
grestore
0 setlinejoin
[] 0 setdash
gsave
677.16 63.36 m
677.16 95.04 l
677.16 475.2 l
677.16 506.88 l
699.336 506.88 l
699.336 475.2 l
699.336 95.04 l
699.336 63.36 l
cl
stroke
grestore

end
showpage
