1	3.0	2013-06-01T00:00:00Z	121	117	-97.375	12.125	100064.95	18.665977478027344	19.0
1	3.0	2013-06-01T06:00:00Z	116	120	-98.0	12.5	99751.69	26.241378784179688	19.0
1	3.0	2013-06-01T12:00:00Z	106	123	-99.25	12.875	99619.336	26.591754913330078	19.0
1	3.0	2013-06-01T18:00:00Z	98	125	-100.25	13.125	99282.9	35.680877685546875	19.0
1	3.0	2013-06-02T00:00:00Z	92	126	-101.0	13.25	98866.08	28.35186195373535	19.0
1	3.0	2013-06-02T06:00:00Z	87	128	-101.625	13.5	98454.41	30.791109085083008	19.0
1	3.0	2013-06-02T12:00:00Z	80	130	-102.5	13.75	98214.914	33.63666915893555	19.0
1	3.0	2013-06-02T18:00:00Z	74	130	-103.25	13.75	98143.59	35.12677764892578	19.0
1	3.0	2013-06-03T00:00:00Z	69	129	-103.875	13.625	97962.375	31.204004287719727	19.0
1	3.0	2013-06-03T06:00:00Z	66	129	-104.25	13.625	97784.78	34.20254135131836	19.0
1	3.0	2013-06-03T12:00:00Z	63	130	-104.625	13.75	97528.99	37.317630767822266	19.0
1	3.0	2013-06-03T18:00:00Z	58	130	-105.25	13.75	97261.64	38.18392562866211	19.0
1	3.0	2013-06-04T00:00:00Z	56	128	-105.5	13.5	97069.23	40.23048782348633	19.0
1	3.0	2013-06-04T06:00:00Z	54	129	-105.75	13.625	96705.72	42.30553436279297	19.0
1	3.0	2013-06-04T12:00:00Z	51	130	-106.125	13.75	96819.3	50.077186584472656	19.0
1	3.0	2013-06-04T18:00:00Z	48	131	-106.5	13.875	96906.35	45.56178283691406	19.0
1	3.0	2013-06-05T00:00:00Z	45	133	-106.875	14.125	97302.67	43.308589935302734	19.0
1	3.0	2013-06-05T06:00:00Z	42	135	-107.25	14.375	97800.43	42.2169075012207	19.0
1	3.0	2013-06-05T12:00:00Z	38	138	-107.75	14.75	99428.086	30.69341468811035	19.0
7	1.0	2013-06-27T12:00:00Z	52	138	-106.0	14.75	100117.586	22.702606201171875	4.0
7	1.0	2013-06-27T18:00:00Z	48	137	-106.5	14.625	99950.33	27.181182861328125	4.0
7	1.0	2013-06-28T00:00:00Z	48	138	-106.5	14.75	99722.98	34.006160736083984	4.0
7	1.0	2013-06-28T06:00:00Z	45	138	-106.875	14.75	99297.97	32.27255630493164	4.0
8	1.0	2013-06-28T18:00:00Z	47	131	-106.625	13.875	99701.734	33.81450653076172	3.0
8	1.0	2013-06-29T00:00:00Z	49	127	-106.375	13.375	99986.79	28.7772216796875	3.0
8	1.0	2013-06-29T06:00:00Z	50	123	-106.25	12.875	99816.28	27.86737632751465	3.0
9	2.0	2013-06-30T00:00:00Z	61	110	-104.875	11.25	100427.85	21.882871627807617	18.0
9	2.0	2013-06-30T06:00:00Z	67	112	-104.125	11.5	100088.33	26.481765747070312	18.0
9	2.0	2013-06-30T06:00:00Z	76	141	-103.0	15.125	100505.164	17.295291900634766	18.0
9	2.0	2013-06-30T12:00:00Z	71	115	-103.625	11.875	100156.484	26.932418823242188	18.0
9	2.0	2013-06-30T12:00:00Z	69	141	-103.875	15.125	100378.71	17.929555892944336	18.0
9	2.0	2013-06-30T18:00:00Z	62	141	-104.75	15.125	100249.79	24.778545379638672	18.0
9	2.0	2013-07-01T00:00:00Z	58	134	-105.25	14.25	99988.61	25.470211029052734	18.0
9	2.0	2013-07-01T06:00:00Z	62	134	-104.75	14.25	99650.33	22.266326904296875	18.0
9	2.0	2013-07-01T12:00:00Z	60	133	-105.0	14.125	99538.086	21.02178192138672	18.0
9	2.0	2013-07-01T18:00:00Z	62	132	-104.75	14.0	99061.07	29.559688568115234	18.0
9	2.0	2013-07-02T00:00:00Z	61	133	-104.875	14.125	98440.39	36.36698532104492	18.0
9	2.0	2013-07-02T06:00:00Z	59	129	-105.125	13.625	97770.164	41.22854232788086	18.0
9	2.0	2013-07-02T12:00:00Z	57	125	-105.375	13.125	97953.78	45.585933685302734	18.0
9	2.0	2013-07-02T18:00:00Z	54	119	-105.75	12.375	98283.72	48.04390335083008	18.0
9	2.0	2013-07-03T00:00:00Z	52	110	-106.0	11.25	98502.56	45.19554138183594	18.0
9	2.0	2013-07-03T06:00:00Z	50	100	-106.25	10.0	98825.32	41.289581298828125	18.0
9	2.0	2013-07-03T12:00:00Z	46	90	-106.75	8.75	99970.39	41.46823501586914	18.0
9	2.0	2013-07-03T18:00:00Z	42	79	-107.25	7.375	100674.414	41.05045700073242	18.0
12	0.0	2013-08-02T12:00:00Z	578	345	-40.25	40.625	100957.305	24.909164428710938	3.0
12	0.0	2013-08-02T18:00:00Z	582	358	-39.75	42.25	100981.37	21.253210067749023	3.0
12	0.0	2013-08-03T00:00:00Z	580	367	-40.0	43.375	100814.195	26.07493782043457	3.0
13	0.0	2013-08-09T18:00:00Z	123	198	-97.125	22.25	100447.805	26.11843490600586	3.0
13	0.0	2013-08-10T00:00:00Z	117	194	-97.875	21.75	100257.19	25.577545166015625	3.0
13	0.0	2013-08-10T06:00:00Z	110	192	-98.75	21.5	100833.24	26.745325088500977	3.0
18	0.0	2013-09-02T00:00:00Z	323	211	-72.125	23.875	100806.31	23.318431854248047	4.0
18	0.0	2013-09-02T06:00:00Z	321	214	-72.375	24.25	100703.02	24.304506301879883	4.0
18	0.0	2013-09-02T12:00:00Z	319	216	-72.625	24.5	100715.18	24.47068977355957	4.0
18	0.0	2013-09-02T18:00:00Z	318	218	-72.75	24.75	100660.11	23.040630340576172	4.0
19	2.0	2013-09-03T06:00:00Z	319	223	-72.625	25.375	99653.61	29.395254135131836	18.0
19	2.0	2013-09-03T12:00:00Z	317	225	-72.875	25.625	99357.445	28.727354049682617	18.0
19	2.0	2013-09-03T18:00:00Z	315	229	-73.125	26.125	98892.805	35.769126892089844	18.0
19	2.0	2013-09-04T00:00:00Z	311	233	-73.625	26.625	98110.88	35.81606674194336	18.0
19	2.0	2013-09-04T06:00:00Z	308	236	-74.0	27.0	97293.01	39.56557083129883	18.0
19	2.0	2013-09-04T12:00:00Z	303	241	-74.625	27.625	97330.47	37.02463150024414	18.0
19	2.0	2013-09-04T18:00:00Z	297	247	-75.375	28.375	97492.89	33.965091705322266	18.0
19	2.0	2013-09-05T00:00:00Z	291	252	-76.125	29.0	97237.45	34.74186325073242	18.0
19	2.0	2013-09-05T06:00:00Z	281	257	-77.375	29.625	97124.57	34.46733093261719	18.0
19	2.0	2013-09-05T12:00:00Z	271	260	-78.625	30.0	97001.33	28.371349334716797	18.0
19	2.0	2013-09-05T18:00:00Z	260	264	-80.0	30.5	97099.78	33.71638488769531	18.0
19	2.0	2013-09-06T00:00:00Z	247	269	-81.625	31.125	97234.914	44.71303176879883	18.0
19	2.0	2013-09-06T06:00:00Z	236	272	-83.0	31.5	98646.555	31.08668327331543	18.0
19	2.0	2013-09-06T12:00:00Z	220	277	-85.0	32.125	99709.39	25.630874633789062	18.0
19	2.0	2013-09-06T18:00:00Z	207	279	-86.625	32.375	100474.35	20.231172561645508	18.0
19	2.0	2013-09-07T00:00:00Z	196	282	-88.0	32.75	100550.69	18.731489181518555	18.0
19	2.0	2013-09-07T06:00:00Z	189	286	-88.875	33.25	100702.484	20.37333869934082	18.0
19	2.0	2013-09-07T12:00:00Z	179	288	-90.125	33.5	100831.89	19.95746612548828	18.0
21	1.0	2013-09-05T12:00:00Z	405	171	-61.875	18.875	100150.4	18.931238174438477	4.0
21	1.0	2013-09-05T18:00:00Z	390	174	-63.75	19.25	100041.35	26.810184478759766	4.0
21	1.0	2013-09-06T00:00:00Z	376	178	-65.5	19.75	99836.14	39.99958038330078	4.0
21	1.0	2013-09-06T06:00:00Z	361	180	-67.375	20.0	99644.82	37.040992736816406	4.0
22	2.0	2013-09-07T06:00:00Z	319	190	-72.625	21.25	99380.69	27.82168197631836	27.0
22	2.0	2013-09-07T12:00:00Z	312	190	-73.5	21.25	99228.84	37.529762268066406	27.0
22	2.0	2013-09-07T18:00:00Z	307	190	-74.125	21.25	98782.89	34.722625732421875	27.0
22	2.0	2013-09-08T00:00:00Z	300	189	-75.0	21.125	98505.36	33.162109375	27.0
22	2.0	2013-09-08T06:00:00Z	292	186	-76.0	20.75	98596.01	32.17856979370117	27.0
22	2.0	2013-09-08T12:00:00Z	284	182	-77.0	20.25	99196.77	30.203691482543945	27.0
22	2.0	2013-09-08T18:00:00Z	279	178	-77.625	19.75	99101.26	32.948673248291016	27.0
22	2.0	2013-09-09T00:00:00Z	275	174	-78.125	19.25	98125.86	39.00400161743164	27.0
22	2.0	2013-09-09T06:00:00Z	270	173	-78.75	19.125	97633.08	41.69926834106445	27.0
22	2.0	2013-09-09T12:00:00Z	268	172	-79.0	19.0	97326.625	41.86482620239258	27.0
22	2.0	2013-09-09T18:00:00Z	266	171	-79.25	18.875	96825.12	44.016143798828125	27.0
22	2.0	2013-09-10T00:00:00Z	265	172	-79.375	19.0	96461.805	42.2785530090332	27.0
22	2.0	2013-09-10T06:00:00Z	264	173	-79.5	19.125	96068.1	43.90935134887695	27.0
22	2.0	2013-09-10T12:00:00Z	264	177	-79.5	19.625	95806.72	47.60844802856445	27.0
22	2.0	2013-09-10T18:00:00Z	263	184	-79.625	20.5	95702.79	44.84969711303711	27.0
22	2.0	2013-09-11T00:00:00Z	263	191	-79.625	21.375	95813.39	44.69467544555664	27.0
22	2.0	2013-09-11T06:00:00Z	263	202	-79.625	22.75	96916.22	40.311370849609375	27.0
22	2.0	2013-09-11T12:00:00Z	261	210	-79.875	23.75	97004.54	31.765560150146484	27.0
22	2.0	2013-09-11T18:00:00Z	262	220	-79.75	25.0	96837.4	36.94571304321289	27.0
22	2.0	2013-09-12T00:00:00Z	262	230	-79.75	26.25	96551.21	35.29140853881836	27.0
22	2.0	2013-09-12T06:00:00Z	261	236	-79.875	27.0	96721.9	30.128400802612305	27.0
22	2.0	2013-09-12T12:00:00Z	259	242	-80.125	27.75	96934.17	26.250394821166992	27.0
22	2.0	2013-09-12T18:00:00Z	258	245	-80.25	28.125	97298.28	28.437795639038086	27.0
22	2.0	2013-09-13T00:00:00Z	256	246	-80.5	28.25	97335.46	25.274974822998047	27.0
22	2.0	2013-09-13T06:00:00Z	253	246	-80.875	28.25	97806.81	19.935161590576172	27.0
22	2.0	2013-09-13T12:00:00Z	248	246	-81.5	28.25	98359.29	21.97146987915039	27.0
22	2.0	2013-09-13T18:00:00Z	245	244	-81.875	28.0	98897.17	19.052867889404297	27.0
24	1.0	2013-09-08T18:00:00Z	121	417	-97.375	49.625	100918.77	42.07856750488281	6.0
24	1.0	2013-09-09T06:00:00Z	121	417	-97.375	49.625	100882.336	41.897552490234375	6.0
24	1.0	2013-09-09T18:00:00Z	121	417	-97.375	49.625	100989.875	41.50575637817383	6.0
24	1.0	2013-09-09T18:00:00Z	122	417	-97.25	49.625	100989.875	41.867393493652344	6.0
24	1.0	2013-09-10T18:00:00Z	121	417	-97.375	49.625	100874.055	41.439876556396484	6.0
24	1.0	2013-09-13T18:00:00Z	121	417	-97.375	49.625	100820.53	41.20212936401367	6.0
25	0.0	2013-09-10T18:00:00Z	667	138	-29.125	14.75	100352.836	20.400617599487305	9.0
25	0.0	2013-09-11T00:00:00Z	664	141	-29.5	15.125	100207.38	10.456711769104004	9.0
25	0.0	2013-09-11T06:00:00Z	661	147	-29.875	15.875	99878.67	15.446491241455078	9.0
25	0.0	2013-09-11T12:00:00Z	659	152	-30.125	16.5	99624.54	14.894667625427246	9.0
25	0.0	2013-09-11T18:00:00Z	659	156	-30.125	17.0	99342.836	15.719286918640137	9.0
25	0.0	2013-09-12T00:00:00Z	661	161	-29.875	17.625	99255.95	15.353225708007812	9.0
25	0.0	2013-09-12T06:00:00Z	665	167	-29.375	18.375	99178.766	25.741037368774414	9.0
25	0.0	2013-09-12T18:00:00Z	677	186	-27.875	20.75	99135.164	25.82843589782715	9.0
25	0.0	2013-09-13T00:00:00Z	684	197	-27.0	22.125	99060.664	23.142377853393555	9.0
29	0.0	2013-09-14T06:00:00Z	709	262	-23.875	30.25	99212.54	31.155832290649414	10.0
29	0.0	2013-09-14T12:00:00Z	704	276	-24.5	32.0	99358.77	26.6400203704834	10.0
29	0.0	2013-09-14T18:00:00Z	689	289	-26.375	33.625	99445.22	30.426631927490234	10.0
29	0.0	2013-09-15T00:00:00Z	668	291	-29.0	33.875	99570.27	25.96710205078125	10.0
29	0.0	2013-09-15T06:00:00Z	653	286	-30.875	33.25	99672.29	22.512500762939453	10.0
29	0.0	2013-09-15T12:00:00Z	647	282	-31.625	32.75	99595.93	20.526155471801758	10.0
29	0.0	2013-09-15T18:00:00Z	642	282	-32.25	32.75	99492.53	25.37474822998047	10.0
29	0.0	2013-09-16T00:00:00Z	633	281	-33.375	32.625	99636.266	25.711572647094727	10.0
29	0.0	2013-09-16T06:00:00Z	621	282	-34.875	32.75	99639.73	26.36290740966797	10.0
29	0.0	2013-09-16T12:00:00Z	611	280	-36.125	32.5	99678.94	30.78005027770996	10.0
30	0.0	2013-09-14T12:00:00Z	87	132	-101.625	14.0	100749.55	12.787915229797363	5.0
30	0.0	2013-09-16T00:00:00Z	89	136	-101.375	14.5	100438.13	23.025562286376953	5.0
30	0.0	2013-09-16T06:00:00Z	94	136	-100.75	14.5	100185.04	18.511260986328125	5.0
30	0.0	2013-09-17T06:00:00Z	104	135	-99.5	14.375	99735.48	21.585735321044922	5.0
30	0.0	2013-09-18T18:00:00Z	113	146	-98.375	15.75	100481.3	28.255233764648438	5.0
31	1.0	2013-09-14T12:00:00Z	450	315	-56.25	36.875	99354.336	30.251535415649414	44.0
31	1.0	2013-09-14T18:00:00Z	445	325	-56.875	38.125	99153.734	28.889305114746094	44.0
31	1.0	2013-09-15T00:00:00Z	435	329	-58.125	38.625	98859.13	23.211841583251953	44.0
31	1.0	2013-09-15T06:00:00Z	425	332	-59.375	39.0	98473.68	28.09270477294922	44.0
31	1.0	2013-09-15T12:00:00Z	415	332	-60.625	39.0	98327.84	28.181894302368164	44.0
31	1.0	2013-09-15T18:00:00Z	402	332	-62.25	39.0	98222.586	31.957883834838867	44.0
31	1.0	2013-09-16T00:00:00Z	388	330	-64.0	38.75	97964.0	32.272762298583984	44.0
31	1.0	2013-09-16T06:00:00Z	375	325	-65.625	38.125	97888.05	25.103408813476562	44.0
31	1.0	2013-09-16T12:00:00Z	360	320	-67.5	37.5	97767.586	30.276166915893555	44.0
31	1.0	2013-09-16T18:00:00Z	346	313	-69.25	36.625	97861.016	26.495847702026367	44.0
31	1.0	2013-09-17T00:00:00Z	332	305	-71.0	35.625	97520.484	30.54770278930664	44.0
31	1.0	2013-09-17T06:00:00Z	320	294	-72.5	34.25	97491.24	32.908477783203125	44.0
31	1.0	2013-09-17T12:00:00Z	312	283	-73.5	32.875	97624.49	30.805683135986328	44.0
31	1.0	2013-09-17T18:00:00Z	306	275	-74.25	31.875	97914.695	31.452951431274414	44.0
31	1.0	2013-09-18T00:00:00Z	299	267	-75.125	30.875	97514.414	36.3737678527832	44.0
31	1.0	2013-09-18T06:00:00Z	294	257	-75.75	29.625	97368.64	32.4744987487793	44.0
31	1.0	2013-09-18T12:00:00Z	290	249	-76.25	28.625	97177.85	35.24613952636719	44.0
31	1.0	2013-09-18T18:00:00Z	287	242	-76.625	27.75	97159.37	36.805965423583984	44.0
31	1.0	2013-09-19T00:00:00Z	285	236	-76.875	27.0	97011.4	35.32713317871094	44.0
31	1.0	2013-09-19T06:00:00Z	282	232	-77.25	26.5	96945.625	36.901920318603516	44.0
31	1.0	2013-09-19T12:00:00Z	278	229	-77.75	26.125	96800.63	38.9939079284668	44.0
31	1.0	2013-09-19T18:00:00Z	274	226	-78.25	25.75	96748.73	39.05559158325195	44.0
31	1.0	2013-09-20T00:00:00Z	271	224	-78.625	25.5	96530.97	37.116764068603516	44.0
31	1.0	2013-09-20T06:00:00Z	268	224	-79.0	25.5	96466.195	35.949851989746094	44.0
31	1.0	2013-09-20T12:00:00Z	265	227	-79.375	25.875	96351.16	40.34275817871094	44.0
31	1.0	2013-09-20T18:00:00Z	262	228	-79.75	26.0	96746.586	40.99775695800781	44.0
31	1.0	2013-09-21T00:00:00Z	255	231	-80.625	26.375	97438.0	31.079326629638672	44.0
31	1.0	2013-09-21T06:00:00Z	249	235	-81.375	26.875	98182.4	29.334869384765625	44.0
31	1.0	2013-09-21T12:00:00Z	240	236	-82.5	27.0	98548.76	22.55582046508789	44.0
31	1.0	2013-09-21T18:00:00Z	234	238	-83.25	27.25	98759.586	20.137226104736328	44.0
31	1.0	2013-09-22T00:00:00Z	227	240	-84.125	27.5	98462.01	19.421733856201172	44.0
31	1.0	2013-09-22T06:00:00Z	221	242	-84.875	27.75	98240.88	23.92156410217285	44.0
31	1.0	2013-09-22T12:00:00Z	218	247	-85.25	28.375	98055.48	26.849355697631836	44.0
31	1.0	2013-09-22T18:00:00Z	213	250	-85.875	28.75	97855.02	29.623483657836914	44.0
31	1.0	2013-09-23T00:00:00Z	210	255	-86.25	29.375	97525.06	29.05951499938965	44.0
31	1.0	2013-09-23T06:00:00Z	210	260	-86.25	30.0	97874.75	31.49858283996582	44.0
31	1.0	2013-09-23T12:00:00Z	204	267	-87.0	30.875	98840.41	24.498313903808594	44.0
31	1.0	2013-09-23T18:00:00Z	199	274	-87.625	31.75	99948.71	22.626802444458008	44.0
31	1.0	2013-09-24T00:00:00Z	193	278	-88.375	32.25	100312.3	20.04960823059082	44.0
31	1.0	2013-09-24T06:00:00Z	188	283	-89.0	32.875	100606.28	18.0537052154541	44.0
31	1.0	2013-09-24T12:00:00Z	181	284	-89.875	33.0	100802.96	18.172250747680664	44.0
31	1.0	2013-09-25T00:00:00Z	174	285	-90.75	33.125	100834.15	13.10309886932373	44.0
31	1.0	2013-09-25T06:00:00Z	175	282	-90.625	32.75	100870.75	11.726840019226074	44.0
31	1.0	2013-09-25T12:00:00Z	176	287	-90.5	33.375	100932.016	12.923977851867676	44.0
32	1.0	2013-09-14T18:00:00Z	226	234	-84.25	26.75	98764.14	18.40907859802246	25.0
32	1.0	2013-09-15T00:00:00Z	219	231	-85.125	26.375	98417.19	25.872194290161133	25.0
32	1.0	2013-09-15T06:00:00Z	213	231	-85.875	26.375	97941.83	26.874279022216797	25.0
32	1.0	2013-09-15T12:00:00Z	210	226	-86.25	25.75	97353.87	37.56861877441406	25.0
32	1.0	2013-09-15T18:00:00Z	205	226	-86.875	25.75	96944.89	23.039854049682617	25.0
32	1.0	2013-09-16T00:00:00Z	200	224	-87.5	25.5	96348.914	28.630496978759766	25.0
32	1.0	2013-09-16T06:00:00Z	193	223	-88.375	25.375	95909.69	26.768321990966797	25.0
32	1.0	2013-09-16T12:00:00Z	186	222	-89.25	25.25	95364.98	26.467987060546875	25.0
32	1.0	2013-09-16T18:00:00Z	178	222	-90.25	25.25	95241.516	30.612226486206055	25.0
32	1.0	2013-09-17T00:00:00Z	171	223	-91.125	25.375	94997.805	31.682327270507812	25.0
32	1.0	2013-09-17T06:00:00Z	165	223	-91.875	25.375	94994.33	30.793813705444336	25.0
32	1.0	2013-09-17T12:00:00Z	158	225	-92.75	25.625	95102.3	33.858768463134766	25.0
32	1.0	2013-09-17T18:00:00Z	151	225	-93.625	25.625	95364.555	28.79660415649414	25.0
32	1.0	2013-09-18T00:00:00Z	145	225	-94.375	25.625	95256.93	32.267120361328125	25.0
32	1.0	2013-09-18T06:00:00Z	141	226	-94.875	25.75	95028.44	38.38676452636719	25.0
32	1.0	2013-09-18T12:00:00Z	136	226	-95.5	25.75	95070.04	31.755292892456055	25.0
32	1.0	2013-09-18T18:00:00Z	132	226	-96.0	25.75	95216.77	30.350603103637695	25.0
32	1.0	2013-09-19T00:00:00Z	127	225	-96.625	25.625	95166.44	32.45917510986328	25.0
32	1.0	2013-09-19T06:00:00Z	123	223	-97.125	25.375	95391.79	33.915283203125	25.0
32	1.0	2013-09-19T12:00:00Z	121	223	-97.375	25.375	95971.03	40.079124450683594	25.0
32	1.0	2013-09-19T18:00:00Z	116	221	-98.0	25.125	97312.54	36.04243087768555	25.0
32	1.0	2013-09-20T00:00:00Z	115	219	-98.125	24.875	98897.3	27.756824493408203	25.0
32	1.0	2013-09-20T06:00:00Z	113	221	-98.375	25.125	99785.42	27.732616424560547	25.0
32	1.0	2013-09-20T12:00:00Z	111	223	-98.625	25.375	100332.586	22.064599990844727	25.0
32	1.0	2013-09-21T12:00:00Z	116	222	-98.0	25.25	100897.914	15.35021686553955	25.0
33	2.0	2013-09-14T18:00:00Z	121	417	-97.375	49.625	100830.7	40.923519134521484	9.0
33	2.0	2013-09-14T18:00:00Z	122	417	-97.25	49.625	100830.7	41.281700134277344	9.0
33	2.0	2013-09-15T18:00:00Z	121	417	-97.375	49.625	100743.234	41.338863372802734	9.0
33	2.0	2013-09-16T18:00:00Z	121	417	-97.375	49.625	100692.984	42.50193786621094	9.0
33	2.0	2013-09-17T18:00:00Z	121	417	-97.375	49.625	100732.84	44.117496490478516	9.0
33	2.0	2013-09-17T18:00:00Z	122	417	-97.25	49.625	100732.84	44.117496490478516	9.0
33	2.0	2013-09-18T18:00:00Z	121	417	-97.375	49.625	100732.664	45.27831268310547	9.0
33	2.0	2013-09-18T18:00:00Z	122	417	-97.25	49.625	100732.664	45.27831268310547	9.0
33	2.0	2013-09-30T18:00:00Z	122	417	-97.25	49.625	100679.44	49.25447463989258	9.0
34	-1.0	2013-09-17T18:00:00Z	25	202	-109.375	22.75	100846.15	15.463431358337402	3.0
34	-1.0	2013-09-18T00:00:00Z	25	198	-109.375	22.25	100771.71	13.894461631774902	3.0
34	-1.0	2013-09-19T00:00:00Z	31	212	-108.625	24.0	100686.62	13.697627067565918	3.0
35	1.0	2013-09-23T12:00:00Z	441	288	-57.375	33.5	99668.62	17.58654022216797	55.0
35	1.0	2013-09-23T18:00:00Z	440	286	-57.5	33.25	99636.89	23.07874298095703	55.0
35	1.0	2013-09-24T00:00:00Z	440	286	-57.5	33.25	99488.836	20.174104690551758	55.0
35	1.0	2013-09-24T06:00:00Z	436	286	-58.0	33.25	99383.23	20.88353157043457	55.0
35	1.0	2013-09-24T12:00:00Z	434	286	-58.25	33.25	99287.82	22.95815086364746	55.0
35	1.0	2013-09-24T18:00:00Z	430	289	-58.75	33.625	99214.586	20.93810272216797	55.0
35	1.0	2013-09-25T00:00:00Z	425	290	-59.375	33.75	98932.4	25.498241424560547	55.0
35	1.0	2013-09-25T06:00:00Z	421	293	-59.875	34.125	98647.75	27.73520278930664	55.0
35	1.0	2013-09-25T12:00:00Z	416	295	-60.5	34.375	98555.19	27.08005714416504	55.0
35	1.0	2013-09-25T18:00:00Z	411	296	-61.125	34.5	98575.93	29.764619827270508	55.0
35	1.0	2013-09-26T00:00:00Z	405	297	-61.875	34.625	98265.0	26.96164321899414	55.0
35	1.0	2013-09-26T06:00:00Z	399	296	-62.625	34.5	97882.6	30.386987686157227	55.0
35	1.0	2013-09-26T12:00:00Z	396	293	-63.0	34.125	97611.48	30.361600875854492	55.0
35	1.0	2013-09-26T18:00:00Z	394	293	-63.25	34.125	97578.984	33.061946868896484	55.0
35	1.0	2013-09-27T00:00:00Z	391	291	-63.625	33.875	97352.61	28.978681564331055	55.0
35	1.0	2013-09-27T06:00:00Z	388	289	-64.0	33.625	97308.58	30.756153106689453	55.0
35	1.0	2013-09-27T12:00:00Z	391	289	-63.625	33.625	97391.414	28.83734130859375	55.0
35	1.0	2013-09-27T18:00:00Z	396	293	-63.0	34.125	97639.67	31.602313995361328	55.0
35	1.0	2013-09-28T00:00:00Z	398	298	-62.75	34.75	97510.16	30.80379295349121	55.0
35	1.0	2013-09-28T00:00:00Z	398	299	-62.75	34.875	97510.16	28.04460906982422	55.0
35	1.0	2013-09-28T06:00:00Z	398	302	-62.75	35.25	97545.21	25.22574234008789	55.0
35	1.0	2013-09-28T12:00:00Z	399	303	-62.625	35.375	97527.12	26.352659225463867	55.0
35	1.0	2013-09-28T18:00:00Z	397	303	-62.875	35.375	97542.695	27.44683837890625	55.0
35	1.0	2013-09-29T00:00:00Z	398	300	-62.75	35.0	97187.44	29.39075469970703	55.0
35	1.0	2013-09-29T06:00:00Z	398	300	-62.75	35.0	97059.1	26.834562301635742	55.0
35	1.0	2013-09-29T12:00:00Z	398	301	-62.75	35.125	97255.016	25.422395706176758	55.0
35	1.0	2013-09-29T18:00:00Z	397	301	-62.875	35.125	97378.47	24.139917373657227	55.0
35	1.0	2013-09-30T00:00:00Z	398	302	-62.75	35.25	97264.56	22.5020751953125	55.0
35	1.0	2013-09-30T06:00:00Z	399	303	-62.625	35.375	97301.914	22.682209014892578	55.0
35	1.0	2013-09-30T12:00:00Z	400	304	-62.5	35.5	97427.19	21.35358428955078	55.0
35	1.0	2013-09-30T18:00:00Z	401	306	-62.375	35.75	97441.52	19.88373374938965	55.0
35	1.0	2013-10-01T00:00:00Z	403	305	-62.125	35.625	97252.695	19.585573196411133	55.0
35	1.0	2013-10-01T06:00:00Z	405	305	-61.875	35.625	97205.664	18.102462768554688	55.0
35	1.0	2013-10-01T12:00:00Z	408	303	-61.5	35.375	97120.805	21.183666229248047	55.0
35	1.0	2013-10-01T18:00:00Z	412	303	-61.0	35.375	97131.5	24.03575325012207	55.0
35	1.0	2013-10-02T00:00:00Z	417	302	-60.375	35.25	96857.2	23.965227127075195	55.0
35	1.0	2013-10-02T06:00:00Z	423	302	-59.625	35.25	96756.58	22.77867317199707	55.0
35	1.0	2013-10-02T12:00:00Z	429	301	-58.875	35.125	96520.88	25.24989891052246	55.0
35	1.0	2013-10-02T18:00:00Z	437	299	-57.875	34.875	96412.14	29.035367965698242	55.0
35	1.0	2013-10-03T00:00:00Z	447	299	-56.625	34.875	96228.7	23.52323341369629	55.0
35	1.0	2013-10-03T06:00:00Z	456	299	-55.5	34.875	96136.664	21.42683219909668	55.0
35	1.0	2013-10-03T12:00:00Z	469	298	-53.875	34.75	95914.79	28.269264221191406	55.0
35	1.0	2013-10-03T18:00:00Z	481	300	-52.375	35.0	95816.4	25.189119338989258	55.0
35	1.0	2013-10-04T00:00:00Z	496	304	-50.5	35.5	95633.37	24.184146881103516	55.0
35	1.0	2013-10-04T06:00:00Z	509	308	-48.875	36.0	95614.12	27.048742294311523	55.0
35	1.0	2013-10-04T12:00:00Z	523	314	-47.125	36.75	95651.87	29.29323959350586	55.0
35	1.0	2013-10-04T18:00:00Z	535	323	-45.625	37.875	95744.305	22.14763069152832	55.0
35	1.0	2013-10-05T00:00:00Z	546	331	-44.25	38.875	95760.27	23.73358917236328	55.0
35	1.0	2013-10-05T06:00:00Z	558	341	-42.75	40.125	95844.82	25.610614776611328	55.0
35	1.0	2013-10-05T12:00:00Z	568	348	-41.5	41.0	96061.836	31.328598022460938	55.0
35	1.0	2013-10-05T18:00:00Z	580	355	-40.0	41.875	96465.29	31.902099609375	55.0
35	1.0	2013-10-06T00:00:00Z	598	362	-37.75	42.75	96831.52	32.05891418457031	55.0
35	1.0	2013-10-06T06:00:00Z	617	370	-35.375	43.75	97274.0	31.557723999023438	55.0
35	1.0	2013-10-06T12:00:00Z	640	380	-32.5	45.0	97765.664	31.504371643066406	55.0
35	1.0	2013-10-06T18:00:00Z	658	392	-30.25	46.5	98198.25	25.885822296142578	55.0
41	0.0	2013-10-18T12:00:00Z	453	180	-55.875	20.0	100428.48	26.484371185302734	6.0
41	0.0	2013-10-18T18:00:00Z	462	181	-54.75	20.125	100566.33	25.945188522338867	6.0
41	0.0	2013-10-19T00:00:00Z	470	181	-53.75	20.125	100580.9	29.430574417114258	6.0
41	0.0	2013-10-19T06:00:00Z	479	183	-52.625	20.375	100591.734	18.685565948486328	6.0
41	0.0	2013-10-19T12:00:00Z	487	183	-51.625	20.375	100612.81	21.99842071533203	6.0
41	0.0	2013-10-19T18:00:00Z	495	186	-50.625	20.75	100523.46	23.570331573486328	6.0
43	3.0	2013-10-22T06:00:00Z	86	129	-101.75	13.625	99582.75	19.533315658569336	14.0
43	3.0	2013-10-22T12:00:00Z	83	128	-102.125	13.5	99285.15	26.526153564453125	14.0
43	3.0	2013-10-22T18:00:00Z	81	127	-102.375	13.375	99128.49	30.224023818969727	14.0
43	3.0	2013-10-23T00:00:00Z	80	128	-102.5	13.5	98764.23	33.34038543701172	14.0
43	3.0	2013-10-23T06:00:00Z	78	129	-102.75	13.625	98296.12	35.314735412597656	14.0
43	3.0	2013-10-23T12:00:00Z	75	131	-103.125	13.875	98044.39	42.01738739013672	14.0
43	3.0	2013-10-23T18:00:00Z	71	132	-103.625	14.0	97713.99	47.33294677734375	14.0
43	3.0	2013-10-24T00:00:00Z	66	134	-104.25	14.25	97803.51	43.9147834777832	14.0
43	3.0	2013-10-24T06:00:00Z	61	135	-104.875	14.375	97968.195	39.22468185424805	14.0
43	3.0	2013-10-24T12:00:00Z	56	135	-105.5	14.375	98241.88	36.001041412353516	14.0
43	3.0	2013-10-24T18:00:00Z	51	134	-106.125	14.25	97471.51	39.97739028930664	14.0
43	3.0	2013-10-25T00:00:00Z	47	135	-106.625	14.375	96828.84	50.328102111816406	14.0
43	3.0	2013-10-25T06:00:00Z	42	137	-107.25	14.625	96612.04	48.39396286010742	14.0
43	3.0	2013-10-25T12:00:00Z	38	139	-107.75	14.875	97173.47	50.44108581542969	14.0
48	1.0	2013-11-27T18:00:00Z	777	220	-15.375	25.0	100953.516	38.72549819946289	1.0
