2013-06-01T18:00:00Z	329	389	-78.875	48.625	99915.93	50.32740020751953
2013-06-03T00:00:00Z	38	394	-115.25	49.25	100659.0	12.711356163024902
2013-06-05T12:00:00Z	545	532	-51.875	66.5	100904.414	23.479429244995117
2013-06-05T18:00:00Z	199	398	-95.125	49.75	100511.734	17.59910774230957
2013-06-08T06:00:00Z	96	513	-108.0	64.125	100329.64	14.761889457702637
2013-06-14T00:00:00Z	62	466	-112.25	58.25	100972.555	33.752105712890625
2013-06-15T06:00:00Z	86	427	-109.25	53.375	99674.51	32.90833282470703
2013-06-18T00:00:00Z	607	486	-44.125	60.75	99323.164	19.84259033203125
2013-06-20T06:00:00Z	100	383	-107.5	47.875	100151.22	33.8819465637207
2013-06-20T12:00:00Z	54	395	-113.25	49.375	100450.61	43.964393615722656
2013-06-20T12:00:00Z	830	464	-16.25	58.0	100725.414	27.72140121459961
2013-06-24T06:00:00Z	57	134	-112.875	16.75	98797.98	29.889324188232422
2013-06-24T12:00:00Z	51	135	-113.625	16.875	98496.836	30.851160049438477
2013-06-25T00:00:00Z	40	133	-115.0	16.625	98299.38	33.13325119018555
2013-06-25T06:00:00Z	34	130	-115.75	16.25	98498.87	29.669193267822266
2013-06-25T18:00:00Z	27	125	-116.625	15.625	98364.32	32.638954162597656
2013-06-26T00:00:00Z	24	129	-117.0	16.125	98346.02	37.10505676269531
2013-06-26T06:00:00Z	19	133	-117.625	16.625	98742.07	40.8183708190918
2013-06-27T06:00:00Z	671	488	-36.125	61.0	97527.23	29.89615249633789
2013-06-28T00:00:00Z	70	151	-111.25	18.875	98854.44	25.13067054748535
2013-06-28T06:00:00Z	64	154	-112.0	19.25	98916.17	26.677940368652344
2013-06-28T12:00:00Z	439	510	-65.125	63.75	100633.12	28.587875366210938
2013-06-28T18:00:00Z	51	151	-113.625	18.875	99074.914	22.35938262939453
2013-07-01T18:00:00Z	828	521	-16.5	65.125	99869.805	13.110225677490234
2013-07-02T00:00:00Z	52	139	-113.5	17.375	96969.43	42.922752380371094
2013-07-02T00:00:00Z	828	520	-16.5	65.0	99920.16	14.521649360656738
2013-07-02T00:00:00Z	828	521	-16.5	65.125	99920.16	13.233163833618164
2013-07-02T06:00:00Z	51	143	-113.625	17.875	97201.21	40.395164489746094
2013-07-02T12:00:00Z	51	144	-113.625	18.0	97134.61	40.3531494140625
2013-07-02T18:00:00Z	51	147	-113.625	18.375	97391.26	40.08251190185547
2013-07-03T00:00:00Z	52	147	-113.5	18.375	97296.19	43.09850311279297
2013-07-03T06:00:00Z	53	146	-113.375	18.25	97509.79	39.180240631103516
2013-07-03T06:00:00Z	12	523	-118.5	65.375	98995.17	16.563142776489258
2013-07-03T12:00:00Z	53	145	-113.375	18.125	97614.7	35.84575271606445
2013-07-03T18:00:00Z	52	141	-113.5	17.625	97727.09	38.34465408325195
2013-07-04T00:00:00Z	51	138	-113.625	17.25	97543.96	38.968597412109375
2013-07-04T06:00:00Z	48	135	-114.0	16.875	97777.15	38.68217468261719
2013-07-04T12:00:00Z	44	131	-114.5	16.375	97644.47	39.28501510620117
2013-07-04T18:00:00Z	41	127	-114.875	15.875	98060.51	39.71664810180664
2013-07-05T00:00:00Z	37	124	-115.375	15.5	97987.27	37.9366455078125
2013-07-05T06:00:00Z	33	120	-115.875	15.0	97984.37	41.264774322509766
2013-07-05T12:00:00Z	30	118	-116.25	14.75	97751.41	42.46923065185547
2013-07-05T18:00:00Z	30	116	-116.25	14.5	98010.82	41.65772247314453
2013-07-06T00:00:00Z	30	115	-116.25	14.375	98380.4	35.899925231933594
2013-07-06T06:00:00Z	30	114	-116.25	14.25	98495.97	36.02053451538086
2013-07-06T06:00:00Z	162	409	-99.75	51.125	100546.91	37.61149978637695
2013-07-06T12:00:00Z	30	112	-116.25	14.0	98554.04	38.422096252441406
2013-07-07T00:00:00Z	32	108	-116.0	13.5	99001.3	35.67448043823242
2013-07-08T18:00:00Z	45	148	-114.375	18.5	99905.12	24.644250869750977
2013-07-09T00:00:00Z	34	150	-115.75	18.75	99912.125	32.17469787597656
2013-07-13T12:00:00Z	208	494	-94.0	61.75	99042.484	21.559616088867188
2013-07-13T12:00:00Z	653	532	-38.375	66.5	100530.82	40.93687438964844
2013-07-15T06:00:00Z	416	489	-68.0	61.125	99701.79	19.111623764038086
2013-07-17T18:00:00Z	341	464	-77.375	58.0	97598.0	17.44024658203125
2013-07-18T00:00:00Z	428	384	-66.5	48.0	100651.41	61.30860137939453
2013-07-22T00:00:00Z	504	431	-57.0	53.875	98490.58	28.093692779541016
2013-07-22T06:00:00Z	513	437	-55.875	54.625	98440.04	26.338232040405273
2013-07-22T12:00:00Z	512	434	-56.0	54.25	98564.055	23.252838134765625
2013-07-24T12:00:00Z	832	456	-16.0	57.0	100850.37	20.8798828125
2013-07-25T18:00:00Z	675	429	-35.625	53.625	99478.82	18.51715850830078
2013-07-26T00:00:00Z	671	427	-36.125	53.375	99596.93	16.28723907470703
2013-07-26T12:00:00Z	666	427	-36.75	53.375	99736.52	14.505592346191406
2013-07-27T00:00:00Z	30	123	-116.25	15.375	99139.375	28.123743057250977
2013-07-27T06:00:00Z	24	117	-117.0	14.625	99310.37	37.88877868652344
2013-07-27T12:00:00Z	18	113	-117.75	14.125	99788.76	35.257415771484375
2013-07-29T00:00:00Z	343	16	-77.125	2.0	100870.71	28.97210693359375
2013-08-01T12:00:00Z	52	162	-113.5	20.25	99893.59	28.868017196655273
2013-08-06T06:00:00Z	28	110	-116.5	13.75	99652.08	25.31000328063965
2013-08-06T12:00:00Z	21	103	-117.375	12.875	99333.516	30.986743927001953
2013-08-06T18:00:00Z	17	101	-117.875	12.625	99642.29	32.6999397277832
2013-08-21T00:00:00Z	27	137	-116.625	17.125	98802.766	30.23256492614746
2013-08-21T06:00:00Z	26	142	-116.75	17.75	98668.38	36.50442123413086
2013-08-21T12:00:00Z	21	147	-117.375	18.375	98636.82	38.04834747314453
2013-08-21T18:00:00Z	16	152	-118.0	19.0	99347.93	43.26270294189453
2013-08-26T00:00:00Z	265	415	-86.875	51.875	100133.05	34.82533645629883
2013-08-26T06:00:00Z	711	539	-31.125	67.375	99325.1	28.527772903442383
2013-08-27T00:00:00Z	784	530	-22.0	66.25	99594.92	28.628311157226562
2013-08-27T00:00:00Z	765	537	-24.375	67.125	99395.31	24.502208709716797
2013-08-28T18:00:00Z	628	515	-41.5	64.375	98642.375	29.512462615966797
2013-08-30T12:00:00Z	38	147	-115.25	18.375	98503.87	33.74232864379883
2013-08-31T00:00:00Z	33	156	-115.875	19.5	98390.836	35.98340606689453
2013-08-31T06:00:00Z	32	161	-116.0	20.125	98260.62	36.81269073486328
2013-08-31T12:00:00Z	28	166	-116.5	20.75	98205.17	36.15963363647461
2013-08-31T18:00:00Z	24	169	-117.0	21.125	98408.84	41.131160736083984
2013-08-31T18:00:00Z	829	526	-16.375	65.75	99636.266	51.43564987182617
2013-09-01T00:00:00Z	22	173	-117.25	21.625	98556.41	40.87348556518555
2013-09-01T00:00:00Z	825	543	-16.875	67.875	99673.9	23.578031539916992
2013-09-01T06:00:00Z	531	258	-53.625	32.25	100490.5	31.37228012084961
2013-09-01T06:00:00Z	827	550	-16.625	68.75	99966.83	25.825666427612305
2013-09-01T12:00:00Z	536	265	-53.0	33.125	100423.91	26.91592025756836
2013-09-01T18:00:00Z	541	274	-52.375	34.25	100316.984	26.985946655273438
2013-09-02T00:00:00Z	549	284	-51.375	35.5	100360.94	27.04210662841797
2013-09-05T12:00:00Z	37	160	-115.375	20.0	99840.766	28.053817749023438
2013-09-05T18:00:00Z	33	160	-115.875	20.0	99867.23	28.439237594604492
2013-09-06T00:00:00Z	28	160	-116.5	20.0	99720.77	30.171993255615234
2013-09-06T06:00:00Z	23	160	-117.125	20.0	99910.35	29.13217544555664
2013-09-08T12:00:00Z	54	112	-113.25	14.0	98184.93	30.779020309448242
2013-09-08T18:00:00Z	54	112	-113.25	14.0	97917.31	37.04588317871094
2013-09-09T00:00:00Z	55	115	-113.125	14.375	97393.75	40.52312469482422
2013-09-09T06:00:00Z	53	117	-113.375	14.625	96916.29	42.494205474853516
2013-09-09T12:00:00Z	52	118	-113.5	14.75	96448.25	47.780147552490234
2013-09-09T12:00:00Z	201	149	-94.875	18.625	100254.96	24.093791961669922
2013-09-09T18:00:00Z	53	122	-113.375	15.25	96861.94	47.07716369628906
2013-09-10T00:00:00Z	53	126	-113.375	15.75	97206.945	39.41532897949219
2013-09-10T06:00:00Z	53	129	-113.375	16.125	97318.375	40.1359748840332
2013-09-10T12:00:00Z	734	128	-28.25	16.0	100347.57	19.5294246673584
2013-09-10T12:00:00Z	54	134	-113.25	16.75	97188.46	42.489349365234375
2013-09-10T18:00:00Z	52	139	-113.5	17.375	97341.055	42.42509078979492
2013-09-10T18:00:00Z	451	262	-63.625	32.75	100225.85	20.876142501831055
2013-09-11T00:00:00Z	50	143	-113.75	17.875	97046.766	45.7950325012207
2013-09-11T06:00:00Z	47	145	-114.125	18.125	97316.984	47.18018341064453
2013-09-11T06:00:00Z	451	266	-63.625	33.25	99812.484	22.361989974975586
2013-09-11T12:00:00Z	43	149	-114.625	18.625	97345.69	43.483123779296875
2013-09-11T12:00:00Z	448	270	-64.0	33.75	99557.7	28.673723220825195
2013-09-11T18:00:00Z	39	150	-115.125	18.75	98207.44	41.99697494506836
2013-09-11T18:00:00Z	441	273	-64.875	34.125	99306.05	31.486127853393555
2013-09-12T00:00:00Z	35	153	-115.625	19.125	98693.3	40.18986129760742
2013-09-12T00:00:00Z	435	278	-65.625	34.75	98963.41	33.171043395996094
2013-09-12T06:00:00Z	430	284	-66.25	35.5	98516.914	35.0523681640625
2013-09-12T12:00:00Z	427	291	-66.625	36.375	98014.64	38.072147369384766
2013-09-12T12:00:00Z	656	531	-38.0	66.375	98706.96	22.78399658203125
2013-09-12T18:00:00Z	429	300	-66.375	37.5	97783.984	41.860816955566406
2013-09-12T18:00:00Z	827	550	-16.625	68.75	97318.21	19.405603408813477
2013-09-13T00:00:00Z	435	312	-65.625	39.0	98023.79	36.716331481933594
2013-09-13T06:00:00Z	451	327	-63.625	40.875	98235.71	37.19160842895508
2013-09-13T12:00:00Z	473	343	-60.875	42.875	98792.47	36.5222282409668
2013-09-15T00:00:00Z	631	220	-41.125	27.5	99524.79	26.277151107788086
2013-09-15T06:00:00Z	623	220	-42.125	27.5	99119.88	26.864967346191406
2013-09-15T12:00:00Z	615	222	-43.125	27.75	98640.1	34.43023681640625
2013-09-15T18:00:00Z	607	225	-44.125	28.125	98231.28	37.68290710449219
2013-09-16T00:00:00Z	601	228	-44.875	28.5	98072.34	39.37096405029297
2013-09-16T06:00:00Z	595	230	-45.625	28.75	97679.86	35.60142517089844
2013-09-16T06:00:00Z	826	526	-16.75	65.75	99224.164	30.032333374023438
2013-09-16T12:00:00Z	590	235	-46.25	29.375	97333.055	42.18217086791992
2013-09-16T18:00:00Z	584	241	-47.0	30.125	96992.36	46.87883377075195
2013-09-16T18:00:00Z	546	533	-51.75	66.625	99423.39	21.968547821044922
2013-09-17T00:00:00Z	579	246	-47.625	30.75	96770.914	40.993343353271484
2013-09-17T06:00:00Z	575	255	-48.125	31.875	96817.234	42.27838897705078
2013-09-17T06:00:00Z	832	456	-16.0	57.0	99761.55	39.69938278198242
2013-09-17T12:00:00Z	568	264	-49.0	33.0	97011.4	35.029354095458984
2013-09-17T18:00:00Z	562	275	-49.75	34.375	97100.016	35.343074798583984
2013-09-17T18:00:00Z	544	532	-52.0	66.5	99808.664	23.164098739624023
2013-09-18T12:00:00Z	549	306	-51.375	38.25	97320.625	28.489517211914062
2013-09-18T18:00:00Z	549	318	-51.375	39.75	97419.7	33.55183029174805
2013-09-19T00:00:00Z	550	333	-51.25	41.625	97390.945	35.2054557800293
2013-09-19T06:00:00Z	557	348	-50.375	43.5	97597.3	35.00364303588867
2013-09-21T18:00:00Z	674	527	-35.75	65.875	98993.734	23.972335815429688
2013-09-26T12:00:00Z	162	111	-99.75	13.875	100173.95	18.43668556213379
2013-09-26T12:00:00Z	832	359	-16.0	44.875	99849.33	50.991058349609375
2013-09-27T00:00:00Z	154	117	-100.75	14.625	99751.85	24.775924682617188
2013-09-27T06:00:00Z	151	114	-101.125	14.25	99639.984	18.901456832885742
2013-09-28T06:00:00Z	150	122	-101.25	15.25	98447.39	27.491907119750977
2013-09-28T18:00:00Z	152	131	-101.0	16.375	98040.55	40.42106246948242
2013-09-29T12:00:00Z	832	358	-16.0	44.75	99425.92	51.68975830078125
2013-10-01T06:00:00Z	39	411	-115.125	51.375	100143.87	35.132991790771484
2013-10-02T06:00:00Z	283	461	-84.625	57.625	98511.52	20.29251480102539
2013-10-03T12:00:00Z	592	255	-46.0	31.875	98774.35	27.521148681640625
2013-10-03T18:00:00Z	604	257	-44.5	32.125	98641.02	26.205955505371094
2013-10-03T18:00:00Z	668	457	-36.5	57.125	99211.664	28.642820358276367
2013-10-04T00:00:00Z	613	260	-43.375	32.5	98561.38	29.47381019592285
2013-10-06T06:00:00Z	711	334	-31.125	41.75	98087.32	29.865888595581055
2013-10-07T00:00:00Z	186	327	-96.75	40.875	100982.48	32.812644958496094
2013-10-10T06:00:00Z	82	275	-109.75	34.375	100725.6	65.09410095214844
2013-10-26T06:00:00Z	805	452	-19.375	56.5	97143.945	26.060091018676758
2013-10-26T18:00:00Z	828	489	-16.5	61.125	97152.5	18.066387176513672
2013-10-26T18:00:00Z	829	489	-16.375	61.125	97152.5	18.066387176513672
2013-10-31T00:00:00Z	583	487	-47.125	60.875	99231.58	29.475622177124023
2013-10-31T06:00:00Z	157	316	-100.375	39.5	100697.65	66.7876205444336
2013-10-31T12:00:00Z	42	411	-114.75	51.375	100391.48	54.325077056884766
2013-10-31T12:00:00Z	37	415	-115.375	51.875	100369.27	54.67154312133789
2013-11-02T00:00:00Z	831	413	-16.125	51.625	98728.57	55.41345977783203
2013-11-02T00:00:00Z	831	421	-16.125	52.625	98796.305	47.67228317260742
2013-11-03T00:00:00Z	373	353	-73.375	44.125	100226.39	64.17454528808594
2013-11-03T06:00:00Z	831	403	-16.125	50.375	100125.03	43.798763275146484
2013-11-03T06:00:00Z	832	403	-16.0	50.375	100125.03	43.798763275146484
2013-11-03T06:00:00Z	831	413	-16.125	51.625	100156.66	42.382781982421875
2013-11-12T18:00:00Z	669	538	-36.375	67.25	100532.9	37.93077087402344
2013-11-14T12:00:00Z	695	526	-33.125	65.75	98451.22	45.073265075683594
2013-11-14T18:00:00Z	606	517	-44.25	64.625	98796.32	42.41107177734375
2013-11-15T00:00:00Z	652	525	-38.5	65.625	98803.55	41.70674514770508
2013-11-16T00:00:00Z	698	540	-32.75	67.5	98827.16	50.2199592590332
2013-11-16T06:00:00Z	109	153	-106.375	19.125	100115.16	36.68436050415039
2013-11-16T06:00:00Z	671	537	-36.125	67.125	99719.8	45.176666259765625
2013-11-16T12:00:00Z	121	304	-104.875	38.0	99660.4	43.03125
2013-11-16T18:00:00Z	667	538	-36.625	67.25	100040.65	34.39664840698242
2013-11-17T00:00:00Z	669	537	-36.375	67.125	100197.35	31.94434928894043
2013-11-17T06:00:00Z	652	525	-38.5	65.625	100821.53	29.743186950683594
2013-11-17T12:00:00Z	120	297	-105.0	37.125	100257.195	49.06550979614258
2013-11-21T18:00:00Z	749	550	-26.375	68.75	99668.016	74.13369750976562
