param_id,maxhgt,res,slpdis,temdif,temdis,vormin,winddis
53,3000,0.125,25000,0.5,400000,0.0001,200000
375,2500,0.125,25000,0.5,400000,0.0001,50000
343,2500,0.125,25000,0.75,400000,1e-05,100000
342,2500,0.125,25000,0.75,400000,1e-05,50000
344,2500,0.125,25000,0.75,400000,1e-05,200000
18,3000,0.125,25000,0.75,400000,1e-05,50000
19,3000,0.125,25000,0.75,400000,1e-05,100000
20,3000,0.125,25000,0.75,400000,1e-05,200000
369,2500,0.125,25000,0.5,400000,1e-05,50000
371,2500,0.125,25000,0.5,400000,1e-05,200000
370,2500,0.125,25000,0.5,400000,1e-05,100000
46,3000,0.125,25000,0.5,400000,1e-05,100000
47,3000,0.125,25000,0.5,400000,1e-05,200000
45,3000,0.125,25000,0.5,400000,1e-05,50000
373,2500,0.125,25000,0.5,400000,1e-06,100000
372,2500,0.125,25000,0.5,400000,1e-06,50000
48,3000,0.125,25000,0.5,400000,1e-06,50000
49,3000,0.125,25000,0.5,400000,1e-06,100000
50,3000,0.125,25000,0.5,400000,1e-06,200000
374,2500,0.125,25000,0.5,400000,1e-06,200000
