2013-06-02T06:00:00Z	10	318	-118.75	39.75	100726.14	13.783064842224121
2013-06-02T18:00:00Z	11	316	-118.625	39.5	100497.05	14.428349494934082
2013-06-03T06:00:00Z	9	260	-118.875	32.5	100894.11	26.23193359375
2013-06-04T06:00:00Z	12	300	-118.5	37.5	100755.766	10.40854263305664
2013-06-04T12:00:00Z	11	526	-118.625	65.75	100787.03	10.870357513427734
2013-06-04T18:00:00Z	9	515	-118.875	64.375	100316.63	11.551610946655273
2013-06-04T18:00:00Z	12	523	-118.5	65.375	100285.766	12.136571884155273
2013-06-04T18:00:00Z	12	524	-118.5	65.5	100285.766	12.13876724243164
2013-06-05T00:00:00Z	12	501	-118.5	62.625	100160.15	22.056045532226562
2013-06-05T00:00:00Z	12	523	-118.5	65.375	99857.57	12.897701263427734
2013-06-05T00:00:00Z	12	524	-118.5	65.5	99857.57	12.620404243469238
2013-06-05T06:00:00Z	12	300	-118.5	37.5	100988.914	16.199504852294922
2013-06-05T12:00:00Z	12	523	-118.5	65.375	99884.93	17.4464111328125
2013-06-05T12:00:00Z	12	524	-118.5	65.5	99884.93	17.033536911010742
2013-06-06T00:00:00Z	327	9	-79.125	1.125	100881.09	14.048114776611328
2013-06-06T00:00:00Z	11	83	-118.625	10.375	100897.664	16.70404815673828
2013-06-06T18:00:00Z	11	493	-118.625	61.625	100526.54	24.787792205810547
2013-06-07T00:00:00Z	328	12	-79.0	1.5	100744.06	17.761512756347656
2013-06-07T00:00:00Z	8	369	-119.0	46.125	100932.234	30.431026458740234
2013-06-07T06:00:00Z	9	86	-118.875	10.75	100910.516	18.2620792388916
2013-06-07T06:00:00Z	12	318	-118.5	39.75	100742.39	21.47976303100586
2013-06-07T06:00:00Z	9	451	-118.875	56.375	100903.56	28.18214988708496
2013-06-07T12:00:00Z	9	451	-118.875	56.375	100809.99	26.334726333618164
2013-06-07T18:00:00Z	12	84	-118.5	10.5	100930.82	14.489048957824707
2013-06-07T18:00:00Z	8	455	-119.0	56.875	100411.44	20.41581916809082
2013-06-08T00:00:00Z	326	9	-79.25	1.125	100743.62	16.708614349365234
2013-06-08T00:00:00Z	12	82	-118.5	10.25	100737.305	13.939126014709473
2013-06-08T00:00:00Z	12	300	-118.5	37.5	100694.49	24.720623016357422
2013-06-08T00:00:00Z	8	369	-119.0	46.125	100912.805	51.34321212768555
2013-06-08T00:00:00Z	8	403	-119.0	50.375	100679.01	64.54900360107422
2013-06-08T00:00:00Z	9	451	-118.875	56.375	100528.12	17.209505081176758
2013-06-08T06:00:00Z	11	81	-118.625	10.125	100819.46	12.481207847595215
2013-06-08T06:00:00Z	9	316	-118.875	39.5	100772.7	17.943113327026367
2013-06-08T06:00:00Z	9	451	-118.875	56.375	100882.75	20.126617431640625
2013-06-08T12:00:00Z	12	82	-118.5	10.25	100725.68	14.383514404296875
2013-06-08T18:00:00Z	328	8	-79.0	1.0	100875.49	18.783905029296875
2013-06-08T18:00:00Z	12	82	-118.5	10.25	100959.23	13.391502380371094
2013-06-09T00:00:00Z	326	9	-79.25	1.125	100746.87	17.56121253967285
2013-06-09T00:00:00Z	12	300	-118.5	37.5	100556.87	13.595353126525879
2013-06-09T06:00:00Z	11	315	-118.625	39.375	100796.586	11.8540620803833
2013-06-09T18:00:00Z	327	8	-79.125	1.0	100954.38	15.133345603942871
2013-06-10T00:00:00Z	327	9	-79.125	1.125	100898.22	18.877485275268555
2013-06-10T00:00:00Z	8	369	-119.0	46.125	100920.375	40.90092468261719
2013-06-10T06:00:00Z	8	57	-119.0	7.125	100984.69	15.81893539428711
2013-06-10T06:00:00Z	8	282	-119.0	35.25	100623.82	31.14837074279785
2013-06-10T12:00:00Z	12	317	-118.5	39.625	100429.76	26.669754028320312
2013-06-11T00:00:00Z	8	369	-119.0	46.125	100602.55	28.181697845458984
2013-06-11T00:00:00Z	10	391	-118.75	48.875	100511.88	37.440093994140625
2013-06-11T06:00:00Z	8	384	-119.0	48.0	100625.39	30.91043472290039
2013-06-11T06:00:00Z	10	392	-118.75	49.0	100681.125	29.981855392456055
2013-06-12T12:00:00Z	12	54	-118.5	6.75	100973.6	12.529038429260254
2013-06-13T00:00:00Z	11	91	-118.625	11.375	100998.47	19.6557674407959
2013-06-13T12:00:00Z	13	91	-118.375	11.375	100990.266	15.297008514404297
2013-06-13T18:00:00Z	327	8	-79.125	1.0	100991.82	22.18534278869629
2013-06-14T00:00:00Z	327	9	-79.125	1.125	100864.21	22.821880340576172
2013-06-14T12:00:00Z	13	83	-118.375	10.375	100870.6	12.041217803955078
2013-06-15T00:00:00Z	327	9	-79.125	1.125	100774.5	17.872488021850586
2013-06-15T00:00:00Z	10	87	-118.75	10.875	100771.57	14.046751022338867
2013-06-15T18:00:00Z	330	13	-78.75	1.625	100889.27	15.615104675292969
2013-06-15T18:00:00Z	11	60	-118.625	7.5	100774.71	25.60762596130371
2013-06-16T00:00:00Z	427	13	-66.625	1.625	100960.734	15.051132202148438
2013-06-16T00:00:00Z	10	316	-118.75	39.5	100820.38	26.128761291503906
2013-06-16T12:00:00Z	11	79	-118.625	9.875	100694.46	16.97625732421875
2013-06-16T18:00:00Z	328	9	-79.0	1.125	100856.984	14.615266799926758
2013-06-16T18:00:00Z	452	13	-63.5	1.625	100961.19	12.980867385864258
2013-06-16T18:00:00Z	8	80	-119.0	10.0	100790.15	19.094223022460938
2013-06-17T00:00:00Z	328	10	-79.0	1.25	100755.12	14.90009593963623
2013-06-17T00:00:00Z	452	12	-63.5	1.5	100946.69	13.848040580749512
2013-06-17T06:00:00Z	11	75	-118.625	9.375	100844.0	19.589340209960938
2013-06-17T18:00:00Z	327	8	-79.125	1.0	100872.21	16.234416961669922
2013-06-18T00:00:00Z	327	9	-79.125	1.125	100807.88	18.127017974853516
2013-06-18T00:00:00Z	167	13	-99.125	1.625	100881.22	15.651427268981934
2013-06-18T00:00:00Z	9	356	-118.875	44.5	100707.82	28.362863540649414
2013-06-18T00:00:00Z	8	383	-119.0	47.875	100852.336	34.201351165771484
2013-06-18T00:00:00Z	8	470	-119.0	58.75	100914.914	9.898238182067871
2013-06-18T18:00:00Z	327	8	-79.125	1.0	100944.34	18.75164031982422
2013-06-19T00:00:00Z	226	13	-91.75	1.625	100903.13	14.876763343811035
2013-06-19T00:00:00Z	8	421	-119.0	52.625	100777.06	38.6458625793457
2013-06-19T06:00:00Z	8	408	-119.0	51.0	100755.04	39.22882080078125
2013-06-19T18:00:00Z	480	9	-60.0	1.125	100970.17	21.164609909057617
2013-06-19T18:00:00Z	452	12	-63.5	1.5	100959.26	18.705780029296875
2013-06-20T00:00:00Z	451	12	-63.625	1.5	100952.875	16.061141967773438
2013-06-20T06:00:00Z	12	417	-118.5	52.125	100627.625	31.76687240600586
2013-06-20T12:00:00Z	8	404	-119.0	50.5	100546.98	30.036537170410156
2013-06-20T18:00:00Z	11	275	-118.625	34.375	100998.33	30.3332462310791
2013-06-21T12:00:00Z	8	91	-119.0	11.375	100822.695	17.263526916503906
2013-06-21T12:00:00Z	13	98	-118.375	12.25	100843.44	18.02162742614746
2013-06-22T00:00:00Z	11	94	-118.625	11.75	100923.72	18.381441116333008
2013-06-22T12:00:00Z	11	501	-118.625	62.625	100700.4	17.738784790039062
2013-06-22T12:00:00Z	12	527	-118.5	65.875	100526.086	12.611662864685059
2013-06-22T18:00:00Z	12	523	-118.5	65.375	100387.99	11.676682472229004
2013-06-22T18:00:00Z	12	524	-118.5	65.5	100387.99	11.499151229858398
2013-06-23T00:00:00Z	326	9	-79.25	1.125	100926.484	16.167692184448242
2013-06-23T06:00:00Z	8	346	-119.0	43.25	100954.945	18.718387603759766
2013-06-23T06:00:00Z	9	369	-118.875	46.125	100927.05	21.472637176513672
2013-06-23T06:00:00Z	10	448	-118.75	56.0	100655.15	30.313953399658203
2013-06-23T12:00:00Z	12	368	-118.5	46.0	100843.75	21.076814651489258
2013-06-23T18:00:00Z	12	299	-118.5	37.375	100351.22	18.842060089111328
2013-06-23T18:00:00Z	11	317	-118.625	39.625	100343.03	18.554492950439453
2013-06-23T18:00:00Z	12	337	-118.5	42.125	100356.87	18.857635498046875
2013-06-23T18:00:00Z	9	402	-118.875	50.25	100748.12	12.14954948425293
2013-06-23T18:00:00Z	10	448	-118.75	56.0	100424.76	25.730222702026367
2013-06-24T00:00:00Z	8	356	-119.0	44.5	100152.61	22.865541458129883
2013-06-24T00:00:00Z	9	402	-118.875	50.25	100226.414	21.59911346435547
2013-06-24T00:00:00Z	10	448	-118.75	56.0	100185.42	24.09770393371582
2013-06-24T06:00:00Z	10	448	-118.75	56.0	100163.99	28.143539428710938
2013-06-24T06:00:00Z	11	484	-118.625	60.5	100146.32	17.85591697692871
2013-06-24T12:00:00Z	8	384	-119.0	48.0	100163.21	18.335887908935547
2013-06-24T12:00:00Z	8	392	-119.0	49.0	100136.75	17.683380126953125
2013-06-24T12:00:00Z	12	428	-118.5	53.5	100292.87	10.280837059020996
2013-06-24T12:00:00Z	10	448	-118.75	56.0	100218.13	22.792749404907227
2013-06-24T12:00:00Z	13	463	-118.375	57.875	100248.45	28.718822479248047
2013-06-24T18:00:00Z	8	348	-119.0	43.5	100392.55	30.792993545532227
2013-06-24T18:00:00Z	10	355	-118.75	44.375	100372.375	29.004974365234375
2013-06-24T18:00:00Z	11	434	-118.625	54.25	99982.266	16.718490600585938
2013-06-24T18:00:00Z	10	448	-118.75	56.0	100098.37	25.620391845703125
2013-06-25T00:00:00Z	10	318	-118.75	39.75	100799.6	46.04908752441406
2013-06-25T06:00:00Z	9	396	-118.875	49.5	100302.84	27.677001953125
2013-06-25T06:00:00Z	8	421	-119.0	52.625	100111.07	23.56273651123047
2013-06-25T06:00:00Z	10	448	-118.75	56.0	100195.68	14.122712135314941
2013-06-25T06:00:00Z	12	463	-118.5	57.875	100173.9	25.834230422973633
2013-06-25T12:00:00Z	10	470	-118.75	58.75	100259.83	25.77941131591797
2013-06-25T18:00:00Z	10	364	-118.75	45.5	100824.83	49.7523193359375
2013-06-25T18:00:00Z	8	401	-119.0	50.125	100540.86	16.251007080078125
2013-06-25T18:00:00Z	9	468	-118.875	58.5	100434.27	18.940914154052734
2013-06-26T00:00:00Z	24	129	-117.0	16.125	98346.02	37.10505676269531
2013-06-26T00:00:00Z	8	369	-119.0	46.125	100722.65	48.35297393798828
2013-06-26T12:00:00Z	9	451	-118.875	56.375	100352.31	25.771818161010742
2013-06-26T18:00:00Z	11	157	-118.625	19.625	100772.4	23.11444854736328
2013-06-26T18:00:00Z	9	451	-118.875	56.375	100352.34	26.20895767211914
2013-06-27T00:00:00Z	13	151	-118.375	18.875	100532.266	21.83928680419922
2013-06-29T00:00:00Z	427	11	-66.625	1.375	100985.0	20.291894912719727
2013-06-29T18:00:00Z	11	275	-118.625	34.375	100972.89	15.538331031799316
2013-06-30T00:00:00Z	452	12	-63.5	1.5	100994.78	17.871349334716797
2013-06-30T06:00:00Z	12	318	-118.5	39.75	100865.516	12.880797386169434
2013-06-30T12:00:00Z	10	528	-118.75	66.0	100924.695	10.469695091247559
2013-06-30T18:00:00Z	11	275	-118.625	34.375	100648.92	13.447797775268555
2013-07-01T00:00:00Z	11	260	-118.625	32.5	100705.84	15.620235443115234
2013-07-01T00:00:00Z	12	318	-118.5	39.75	100436.42	12.832322120666504
2013-07-01T06:00:00Z	12	319	-118.5	39.875	100615.75	14.585622787475586
2013-07-01T18:00:00Z	9	248	-118.875	31.0	100977.17	23.93450927734375
2013-07-01T18:00:00Z	13	369	-118.375	46.125	100897.016	22.129459381103516
2013-07-01T18:00:00Z	828	521	-16.5	65.125	99869.805	13.110225677490234
2013-07-02T00:00:00Z	52	139	-113.5	17.375	96969.43	42.922752380371094
2013-07-02T00:00:00Z	10	330	-118.75	41.25	100713.15	11.894783020019531
2013-07-02T00:00:00Z	8	346	-119.0	43.25	100794.625	15.905288696289062
2013-07-02T00:00:00Z	8	369	-119.0	46.125	100616.49	22.12140464782715
2013-07-02T00:00:00Z	13	436	-118.375	54.5	100897.99	32.95573425292969
2013-07-02T00:00:00Z	828	520	-16.5	65.0	99920.16	14.521649360656738
2013-07-02T00:00:00Z	828	521	-16.5	65.125	99920.16	13.233163833618164
2013-07-02T06:00:00Z	51	143	-113.625	17.875	97201.21	40.395164489746094
2013-07-02T06:00:00Z	11	316	-118.625	39.5	100877.69	11.623236656188965
2013-07-02T06:00:00Z	8	327	-119.0	40.875	100914.9	10.296655654907227
2013-07-02T12:00:00Z	51	144	-113.625	18.0	97134.61	40.3531494140625
2013-07-02T12:00:00Z	11	501	-118.625	62.625	100002.44	47.13777542114258
2013-07-02T12:00:00Z	9	515	-118.875	64.375	99924.97	44.70458984375
2013-07-02T18:00:00Z	51	147	-113.625	18.375	97391.26	40.08251190185547
2013-07-02T18:00:00Z	9	515	-118.875	64.375	99203.195	38.27989959716797
2013-07-02T18:00:00Z	12	523	-118.5	65.375	99213.66	33.80878829956055
2013-07-02T18:00:00Z	12	524	-118.5	65.5	99213.66	33.43682098388672
2013-07-03T00:00:00Z	52	147	-113.5	18.375	97296.19	43.09850311279297
2013-07-03T00:00:00Z	8	346	-119.0	43.25	100983.56	19.954116821289062
2013-07-03T00:00:00Z	8	369	-119.0	46.125	100740.46	22.825321197509766
2013-07-03T00:00:00Z	8	409	-119.0	51.125	100907.664	37.81578063964844
2013-07-03T00:00:00Z	12	523	-118.5	65.375	98967.26	15.453293800354004
2013-07-03T00:00:00Z	12	524	-118.5	65.5	98967.26	16.26442527770996
2013-07-03T06:00:00Z	53	146	-113.375	18.25	97509.79	39.180240631103516
2013-07-03T06:00:00Z	8	409	-119.0	51.125	100932.85	41.059898376464844
2013-07-03T06:00:00Z	12	523	-118.5	65.375	98995.17	16.563142776489258
2013-07-03T06:00:00Z	12	524	-118.5	65.5	98995.17	14.809502601623535
2013-07-03T12:00:00Z	53	145	-113.375	18.125	97614.7	35.84575271606445
2013-07-03T12:00:00Z	12	523	-118.5	65.375	99293.85	20.382463455200195
2013-07-03T12:00:00Z	12	524	-118.5	65.5	99293.85	20.826641082763672
2013-07-03T18:00:00Z	52	141	-113.5	17.625	97727.09	38.34465408325195
2013-07-04T00:00:00Z	51	138	-113.625	17.25	97543.96	38.968597412109375
2013-07-04T00:00:00Z	12	319	-118.5	39.875	100709.05	12.31982421875
2013-07-04T06:00:00Z	48	135	-114.0	16.875	97777.15	38.68217468261719
2013-07-04T06:00:00Z	12	318	-118.5	39.75	100867.82	14.520370483398438
2013-07-04T06:00:00Z	8	369	-119.0	46.125	100904.195	29.920480728149414
2013-07-04T12:00:00Z	44	131	-114.5	16.375	97644.47	39.28501510620117
2013-07-04T12:00:00Z	9	451	-118.875	56.375	100984.71	31.36585235595703
2013-07-04T18:00:00Z	41	127	-114.875	15.875	98060.51	39.71664810180664
2013-07-04T18:00:00Z	9	451	-118.875	56.375	100851.37	26.295076370239258
2013-07-05T00:00:00Z	37	124	-115.375	15.5	97987.27	37.9366455078125
2013-07-05T00:00:00Z	12	417	-118.5	52.125	100942.47	32.72404479980469
2013-07-05T00:00:00Z	10	448	-118.75	56.0	100781.98	25.684734344482422
2013-07-05T06:00:00Z	33	120	-115.875	15.0	97984.37	41.264774322509766
2013-07-05T06:00:00Z	12	318	-118.5	39.75	100744.53	25.574098587036133
2013-07-05T12:00:00Z	30	118	-116.25	14.75	97751.41	42.46923065185547
2013-07-05T12:00:00Z	10	318	-118.75	39.75	100914.51	27.15923500061035
2013-07-05T18:00:00Z	30	116	-116.25	14.5	98010.82	41.65772247314453
2013-07-05T18:00:00Z	8	386	-119.0	48.25	100856.7	27.532222747802734
2013-07-06T00:00:00Z	10	318	-118.75	39.75	100069.75	25.568883895874023
2013-07-06T00:00:00Z	9	402	-118.875	50.25	100865.98	17.8004150390625
2013-07-06T00:00:00Z	8	409	-119.0	51.125	100848.9	15.8296480178833
2013-07-06T06:00:00Z	30	114	-116.25	14.25	98495.97	36.02053451538086
2013-07-06T06:00:00Z	8	327	-119.0	40.875	100451.59	27.200908660888672
2013-07-06T06:00:00Z	8	381	-119.0	47.625	100804.664	24.451967239379883
2013-07-07T06:00:00Z	12	338	-118.5	42.25	100401.58	28.770889282226562
2013-07-07T12:00:00Z	13	339	-118.375	42.375	100847.58	28.252304077148438
2013-07-07T18:00:00Z	8	369	-119.0	46.125	100893.72	27.489360809326172
2013-07-08T00:00:00Z	325	12	-79.375	1.5	100774.93	20.703550338745117
2013-07-08T00:00:00Z	9	402	-118.875	50.25	100963.88	32.354591369628906
2013-07-08T12:00:00Z	12	507	-118.5	63.375	100932.06	7.732576370239258
2013-07-09T06:00:00Z	9	451	-118.875	56.375	100927.9	17.393325805664062
2013-07-09T12:00:00Z	9	471	-118.875	58.875	100767.55	16.18149757385254
2013-07-09T12:00:00Z	11	501	-118.625	62.625	100595.914	9.992859840393066
2013-07-09T18:00:00Z	11	501	-118.625	62.625	100529.57	12.085233688354492
2013-07-10T18:00:00Z	10	391	-118.75	48.875	100917.48	32.729454040527344
2013-07-11T00:00:00Z	10	392	-118.75	49.0	100370.04	35.10868835449219
2013-07-11T06:00:00Z	8	409	-119.0	51.125	100396.32	33.90086364746094
2013-07-11T12:00:00Z	13	500	-118.375	62.5	100079.414	14.500094413757324
2013-07-11T18:00:00Z	11	478	-118.625	59.75	99857.266	30.283403396606445
2013-07-12T00:00:00Z	10	317	-118.75	39.625	100591.16	42.17927169799805
2013-07-12T00:00:00Z	10	330	-118.75	41.25	100564.72	50.190372467041016
2013-07-12T00:00:00Z	8	369	-119.0	46.125	100721.31	43.118370056152344
2013-07-12T06:00:00Z	10	347	-118.75	43.375	100835.98	46.86167907714844
2013-07-13T06:00:00Z	13	339	-118.375	42.375	100859.87	40.222190856933594
2013-07-14T00:00:00Z	10	316	-118.75	39.5	100800.87	31.093748092651367
2013-07-15T00:00:00Z	327	9	-79.125	1.125	100905.79	14.04287052154541
2013-07-15T00:00:00Z	9	369	-118.875	46.125	100972.9	34.01519775390625
2013-07-15T06:00:00Z	12	318	-118.5	39.75	100808.67	27.526954650878906
2013-07-15T06:00:00Z	13	339	-118.375	42.375	100829.664	32.714012145996094
2013-07-15T18:00:00Z	12	299	-118.5	37.375	100789.414	20.75523567199707
2013-07-16T00:00:00Z	8	327	-119.0	40.875	100239.88	25.782058715820312
2013-07-16T00:00:00Z	12	368	-118.5	46.0	100840.23	37.03049850463867
2013-07-16T06:00:00Z	12	319	-118.5	39.875	100265.45	29.35400390625
2013-07-16T06:00:00Z	10	329	-118.75	41.125	100233.836	27.594453811645508
2013-07-16T06:00:00Z	12	338	-118.5	42.25	100318.016	25.012773513793945
2013-07-16T06:00:00Z	10	369	-118.75	46.125	100872.13	34.81332015991211
2013-07-16T12:00:00Z	12	320	-118.5	40.0	100612.27	33.490814208984375
2013-07-16T18:00:00Z	13	369	-118.375	46.125	100787.57	30.414560317993164
2013-07-17T00:00:00Z	327	9	-79.125	1.125	100949.6	21.10978126525879
2013-07-17T06:00:00Z	9	370	-118.875	46.25	100415.06	41.4747428894043
2013-07-17T12:00:00Z	13	84	-118.375	10.5	100948.59	20.85315704345703
2013-07-17T12:00:00Z	9	103	-118.875	12.875	100961.516	17.703828811645508
2013-07-18T00:00:00Z	11	81	-118.625	10.125	100968.41	21.131282806396484
2013-07-18T12:00:00Z	12	93	-118.5	11.625	100920.914	20.036060333251953
2013-07-20T00:00:00Z	10	317	-118.75	39.625	100527.6	23.729454040527344
2013-07-20T06:00:00Z	12	318	-118.5	39.75	100482.945	24.495038986206055
2013-07-20T06:00:00Z	10	328	-118.75	41.0	100585.72	25.168405532836914
2013-07-20T12:00:00Z	12	319	-118.5	39.875	100894.99	23.543508529663086
2013-07-20T18:00:00Z	8	282	-119.0	35.25	100684.7	14.166714668273926
2013-07-21T00:00:00Z	327	9	-79.125	1.125	100934.984	17.90936279296875
2013-07-21T00:00:00Z	8	369	-119.0	46.125	100598.27	21.577224731445312
2013-07-21T00:00:00Z	12	417	-118.5	52.125	100612.21	33.9626579284668
2013-07-21T06:00:00Z	8	327	-119.0	40.875	100436.016	22.510868072509766
2013-07-21T12:00:00Z	12	318	-118.5	39.75	100633.96	22.694992065429688
2013-07-21T12:00:00Z	8	384	-119.0	48.0	100776.4	22.6966552734375
2013-07-21T18:00:00Z	12	318	-118.5	39.75	100607.36	22.609914779663086
2013-07-21T18:00:00Z	8	369	-119.0	46.125	100799.2	22.55720329284668
2013-07-21T18:00:00Z	8	409	-119.0	51.125	100780.65	21.78458023071289
2013-07-22T00:00:00Z	8	328	-119.0	41.0	100319.94	23.9105281829834
2013-07-22T00:00:00Z	8	369	-119.0	46.125	100446.266	23.024761199951172
2013-07-22T00:00:00Z	10	392	-118.75	49.0	100340.23	26.734527587890625
2013-07-22T00:00:00Z	10	448	-118.75	56.0	100772.51	34.88634490966797
2013-07-22T06:00:00Z	12	338	-118.5	42.25	100664.52	28.135154724121094
2013-07-22T06:00:00Z	8	384	-119.0	48.0	100528.85	27.580337524414062
2013-07-22T06:00:00Z	513	437	-55.875	54.625	98440.04	26.338232040405273
2013-07-22T12:00:00Z	12	320	-118.5	40.0	100905.91	24.772550582885742
2013-07-22T12:00:00Z	8	384	-119.0	48.0	100850.94	33.02249526977539
2013-07-22T12:00:00Z	512	434	-56.0	54.25	98564.055	23.252838134765625
2013-07-22T18:00:00Z	12	417	-118.5	52.125	100919.9	21.424638748168945
2013-07-23T06:00:00Z	8	327	-119.0	40.875	100700.72	18.370725631713867
2013-07-23T06:00:00Z	8	380	-119.0	47.5	100931.414	28.925779342651367
2013-07-23T12:00:00Z	11	83	-118.625	10.375	100708.2	21.803373336791992
2013-07-24T00:00:00Z	12	108	-118.5	13.5	100711.89	21.13273048400879
2013-07-24T00:00:00Z	8	369	-119.0	46.125	100875.37	29.441238403320312
2013-07-24T00:00:00Z	10	392	-118.75	49.0	100969.47	28.242828369140625
2013-07-24T06:00:00Z	9	123	-118.875	15.375	100750.83	18.008647918701172
2013-07-24T18:00:00Z	326	8	-79.25	1.0	100816.4	15.970724105834961
2013-07-25T00:00:00Z	326	9	-79.25	1.125	100737.82	17.57059097290039
2013-07-25T00:00:00Z	9	316	-118.875	39.5	100958.87	20.226036071777344
2013-07-25T00:00:00Z	8	369	-119.0	46.125	100948.48	22.22254180908203
2013-07-26T00:00:00Z	327	9	-79.125	1.125	100792.695	17.710918426513672
2013-07-26T00:00:00Z	211	12	-93.625	1.5	100950.75	17.07667350769043
2013-07-26T00:00:00Z	226	13	-91.75	1.625	100973.41	17.547239303588867
2013-07-27T00:00:00Z	327	9	-79.125	1.125	100772.05	20.902652740478516
2013-07-27T00:00:00Z	10	75	-118.75	9.375	100795.44	25.218036651611328
2013-07-27T00:00:00Z	12	320	-118.5	40.0	100988.92	35.531410217285156
2013-07-27T00:00:00Z	8	369	-119.0	46.125	100981.95	29.832460403442383
2013-07-27T06:00:00Z	24	117	-117.0	14.625	99310.37	37.88877868652344
2013-07-27T18:00:00Z	328	8	-79.0	1.0	100871.91	17.301023483276367
2013-07-27T18:00:00Z	9	282	-118.875	35.25	100966.63	25.517086029052734
2013-07-28T00:00:00Z	326	9	-79.25	1.125	100866.305	19.573062896728516
2013-07-28T06:00:00Z	12	320	-118.5	40.0	100569.65	39.94340515136719
2013-07-28T06:00:00Z	10	329	-118.75	41.125	100696.766	38.958648681640625
2013-07-28T06:00:00Z	8	380	-119.0	47.5	100854.91	26.755645751953125
2013-07-28T12:00:00Z	8	383	-119.0	47.875	100999.21	19.88962745666504
2013-07-28T18:00:00Z	8	385	-119.0	48.125	100939.15	19.815210342407227
2013-07-29T00:00:00Z	328	10	-79.0	1.25	100992.48	23.973947525024414
2013-07-29T00:00:00Z	10	317	-118.75	39.625	100279.18	40.48968505859375
2013-07-29T00:00:00Z	8	369	-119.0	46.125	100624.93	21.803659439086914
2013-07-29T06:00:00Z	12	66	-118.5	8.25	100897.47	13.971297264099121
2013-07-29T06:00:00Z	11	74	-118.625	9.25	100892.43	15.158343315124512
2013-07-29T06:00:00Z	10	329	-118.75	41.125	100409.99	32.62351608276367
2013-07-29T06:00:00Z	8	377	-119.0	47.125	100629.805	20.32777214050293
2013-07-29T12:00:00Z	8	282	-119.0	35.25	100762.44	31.59586524963379
2013-07-30T00:00:00Z	10	317	-118.75	39.625	100625.5	29.426223754882812
2013-07-30T00:00:00Z	8	369	-119.0	46.125	100777.65	29.628820419311523
2013-07-30T06:00:00Z	9	370	-118.875	46.25	100806.445	27.185989379882812
2013-08-01T06:00:00Z	10	330	-118.75	41.25	100985.68	47.92998504638672
2013-08-01T12:00:00Z	52	162	-113.5	20.25	99893.59	28.868017196655273
2013-08-02T00:00:00Z	11	104	-118.625	13.0	100935.305	14.484779357910156
2013-08-02T06:00:00Z	10	100	-118.75	12.5	100919.61	12.838295936584473
2013-08-02T12:00:00Z	10	105	-118.75	13.125	100814.41	12.097893714904785
2013-08-02T18:00:00Z	330	13	-78.75	1.625	100983.2	14.731012344360352
2013-08-03T00:00:00Z	327	9	-79.125	1.125	100913.555	17.316255569458008
2013-08-04T06:00:00Z	12	319	-118.5	39.875	100859.23	36.89961242675781
2013-08-05T00:00:00Z	327	9	-79.125	1.125	100916.94	14.83355712890625
2013-08-05T00:00:00Z	11	317	-118.625	39.625	100781.79	27.144363403320312
2013-08-06T00:00:00Z	327	9	-79.125	1.125	100958.516	13.637030601501465
2013-08-07T00:00:00Z	325	9	-79.375	1.125	100978.83	15.019165992736816
2013-08-07T00:00:00Z	9	91	-118.875	11.375	100994.164	18.68207359313965
2013-08-07T00:00:00Z	11	101	-118.625	12.625	100988.2	18.120986938476562
2013-08-07T00:00:00Z	12	319	-118.5	39.875	100627.37	20.23914909362793
2013-08-07T00:00:00Z	8	369	-119.0	46.125	100741.36	15.238168716430664
2013-08-07T06:00:00Z	10	328	-118.75	41.0	100660.82	20.9016056060791
2013-08-08T00:00:00Z	8	369	-119.0	46.125	100716.33	14.42204761505127
2013-08-09T00:00:00Z	11	392	-118.625	49.0	100747.164	11.654291152954102
2013-08-09T18:00:00Z	545	13	-51.875	1.625	100994.85	12.19849967956543
2013-08-10T00:00:00Z	404	9	-69.5	1.125	100955.34	11.7240571975708
2013-08-10T00:00:00Z	10	310	-118.75	38.75	100718.38	24.039621353149414
2013-08-10T00:00:00Z	8	370	-119.0	46.25	100478.875	14.489684104919434
2013-08-13T00:00:00Z	12	308	-118.5	38.5	100931.38	41.88520050048828
2013-08-13T00:00:00Z	9	316	-118.875	39.5	100920.07	31.880346298217773
2013-08-13T00:00:00Z	8	369	-119.0	46.125	100980.625	19.308683395385742
2013-08-14T18:00:00Z	11	82	-118.625	10.25	100918.516	14.484711647033691
2013-08-15T00:00:00Z	327	9	-79.125	1.125	100850.87	18.448841094970703
2013-08-15T00:00:00Z	12	84	-118.5	10.5	100853.46	15.145346641540527
2013-08-15T00:00:00Z	10	316	-118.75	39.5	100867.68	33.12628173828125
2013-08-15T00:00:00Z	9	356	-118.875	44.5	100895.79	17.71491241455078
2013-08-15T00:00:00Z	9	451	-118.875	56.375	100830.61	31.93915367126465
2013-08-15T06:00:00Z	12	318	-118.5	39.75	100928.2	29.9996395111084
2013-08-15T06:00:00Z	8	380	-119.0	47.5	100825.57	22.044082641601562
2013-08-15T06:00:00Z	12	501	-118.5	62.625	100581.2	7.578502655029297
2013-08-15T12:00:00Z	10	448	-118.75	56.0	100918.695	22.16526985168457
2013-08-15T18:00:00Z	327	8	-79.125	1.0	100897.68	12.462776184082031
2013-08-15T18:00:00Z	11	104	-118.625	13.0	100926.71	18.28339958190918
2013-08-16T00:00:00Z	327	9	-79.125	1.125	100835.74	12.202923774719238
2013-08-16T00:00:00Z	10	310	-118.75	38.75	100885.375	30.019123077392578
2013-08-16T00:00:00Z	9	356	-118.875	44.5	100835.57	21.750930786132812
2013-08-16T00:00:00Z	11	484	-118.625	60.5	100666.95	17.555707931518555
2013-08-16T06:00:00Z	11	112	-118.625	14.0	100944.56	18.93755531311035
2013-08-16T06:00:00Z	11	484	-118.625	60.5	100758.95	13.557193756103516
2013-08-16T18:00:00Z	540	10	-52.5	1.25	100985.016	19.64773941040039
2013-08-17T00:00:00Z	11	484	-118.625	60.5	100569.195	10.509767532348633
2013-08-17T12:00:00Z	11	484	-118.625	60.5	100365.016	9.101019859313965
2013-08-18T00:00:00Z	12	319	-118.5	39.875	100788.99	26.53653335571289
2013-08-18T00:00:00Z	10	392	-118.75	49.0	100947.07	21.107492446899414
2013-08-18T00:00:00Z	11	493	-118.625	61.625	100127.83	9.785335540771484
2013-08-18T06:00:00Z	13	102	-118.375	12.75	100955.016	16.65462303161621
2013-08-18T06:00:00Z	11	501	-118.625	62.625	100052.586	9.159255027770996
2013-08-18T12:00:00Z	12	500	-118.5	62.5	99872.64	9.421504020690918
2013-08-18T18:00:00Z	8	282	-119.0	35.25	100920.586	34.98514175415039
2013-08-18T18:00:00Z	11	501	-118.625	62.625	99698.06	10.150083541870117
2013-08-18T18:00:00Z	12	523	-118.5	65.375	99737.67	10.233031272888184
2013-08-18T18:00:00Z	12	524	-118.5	65.5	99737.67	10.237895011901855
2013-08-19T00:00:00Z	326	9	-79.25	1.125	100996.12	16.09856605529785
2013-08-19T00:00:00Z	10	316	-118.75	39.5	100742.695	23.873435974121094
2013-08-19T18:00:00Z	9	282	-118.875	35.25	100724.73	23.901334762573242
2013-08-20T00:00:00Z	12	318	-118.5	39.75	100842.96	22.24616050720215
2013-08-20T18:00:00Z	8	127	-119.0	15.875	100800.375	16.34515380859375
2013-08-20T18:00:00Z	8	282	-119.0	35.25	100899.69	20.27855110168457
2013-08-21T00:00:00Z	327	8	-79.125	1.0	100836.62	18.171810150146484
2013-08-21T00:00:00Z	9	316	-118.875	39.5	100748.71	15.412822723388672
2013-08-21T06:00:00Z	26	142	-116.75	17.75	98668.38	36.50442123413086
2013-08-21T12:00:00Z	21	147	-117.375	18.375	98636.82	38.04834747314453
2013-08-21T18:00:00Z	9	282	-118.875	35.25	100989.07	24.573001861572266
2013-08-21T18:00:00Z	12	523	-118.5	65.375	100250.75	30.256114959716797
2013-08-21T18:00:00Z	12	524	-118.5	65.5	100250.75	30.303159713745117
2013-08-22T00:00:00Z	327	9	-79.125	1.125	100921.484	20.4917049407959
2013-08-22T00:00:00Z	13	150	-118.375	18.75	100909.03	18.504074096679688
2013-08-22T00:00:00Z	13	506	-118.375	63.25	100052.37	28.56243896484375
2013-08-22T06:00:00Z	8	282	-119.0	35.25	100788.63	25.595775604248047
2013-08-22T18:00:00Z	327	8	-79.125	1.0	100981.07	15.494034767150879
2013-08-22T18:00:00Z	515	12	-55.625	1.5	100965.2	16.69512176513672
2013-08-23T00:00:00Z	10	316	-118.75	39.5	100770.44	25.854415893554688
2013-08-23T00:00:00Z	10	496	-118.75	62.0	100398.27	28.74736785888672
2013-08-23T06:00:00Z	8	282	-119.0	35.25	100827.48	18.702028274536133
2013-08-23T06:00:00Z	9	451	-118.875	56.375	100770.42	41.224853515625
2013-08-23T06:00:00Z	11	476	-118.625	59.5	100643.89	40.01173782348633
2013-08-23T12:00:00Z	9	451	-118.875	56.375	100881.92	36.42507553100586
2013-08-23T12:00:00Z	12	490	-118.5	61.25	100603.96	38.26787567138672
2013-08-23T18:00:00Z	327	8	-79.125	1.0	100994.86	11.88975715637207
2013-08-23T18:00:00Z	11	456	-118.625	57.0	100577.195	31.165983200073242
2013-08-23T18:00:00Z	13	485	-118.375	60.625	100480.83	30.295522689819336
2013-08-24T00:00:00Z	527	13	-54.125	1.625	100938.48	24.092607498168945
2013-08-24T00:00:00Z	8	100	-119.0	12.5	100833.65	24.993650436401367
2013-08-24T00:00:00Z	12	125	-118.5	15.625	100572.64	15.080233573913574
2013-08-24T00:00:00Z	10	316	-118.75	39.5	100537.375	20.756698608398438
2013-08-24T00:00:00Z	8	369	-119.0	46.125	100569.08	27.42703628540039
2013-08-24T06:00:00Z	12	318	-118.5	39.75	100593.484	22.812488555908203
2013-08-24T06:00:00Z	10	328	-118.75	41.0	100658.0	22.134170532226562
2013-08-24T12:00:00Z	9	468	-118.875	58.5	100213.43	26.354232788085938
2013-08-24T12:00:00Z	11	478	-118.625	59.75	100225.51	31.226409912109375
2013-08-24T18:00:00Z	8	392	-119.0	49.0	100759.914	23.99704360961914
2013-08-24T18:00:00Z	8	401	-119.0	50.125	100806.03	26.019601821899414
2013-08-24T18:00:00Z	13	467	-118.375	58.375	100070.27	22.02573013305664
2013-08-25T00:00:00Z	381	8	-72.375	1.0	100941.29	17.373008728027344
2013-08-25T00:00:00Z	415	11	-68.125	1.375	100938.88	20.19988441467285
2013-08-26T00:00:00Z	12	318	-118.5	39.75	100761.945	42.67115020751953
2013-08-27T00:00:00Z	10	310	-118.75	38.75	100861.03	43.8699836730957
2013-08-27T00:00:00Z	11	315	-118.625	39.375	100864.805	44.597129821777344
2013-08-27T00:00:00Z	784	530	-22.0	66.25	99594.92	28.628311157226562
2013-08-27T06:00:00Z	12	318	-118.5	39.75	100960.375	43.013675689697266
2013-08-27T06:00:00Z	11	484	-118.625	60.5	100989.414	17.89867401123047
2013-08-27T12:00:00Z	10	448	-118.75	56.0	100852.29	21.414287567138672
2013-08-27T12:00:00Z	12	490	-118.5	61.25	100995.06	19.20386505126953
2013-08-27T18:00:00Z	11	466	-118.625	58.25	100733.92	18.67046546936035
2013-08-28T00:00:00Z	11	315	-118.625	39.375	100573.984	41.9040412902832
2013-08-28T06:00:00Z	11	87	-118.625	10.875	100565.49	12.532645225524902
2013-08-28T18:00:00Z	341	13	-77.375	1.625	100793.2	22.1003360748291
2013-08-29T00:00:00Z	326	9	-79.25	1.125	100914.89	18.127317428588867
2013-08-29T00:00:00Z	10	311	-118.75	38.875	100762.64	43.64094924926758
2013-08-29T06:00:00Z	13	319	-118.375	39.875	100982.78	44.43869400024414
2013-08-29T18:00:00Z	13	384	-118.375	48.0	100982.87	37.405540466308594
2013-08-30T00:00:00Z	327	9	-79.125	1.125	100985.414	14.648670196533203
2013-08-31T06:00:00Z	32	161	-116.0	20.125	98260.62	36.81269073486328
2013-08-31T06:00:00Z	12	507	-118.5	63.375	100954.69	15.809292793273926
2013-08-31T12:00:00Z	28	166	-116.5	20.75	98205.17	36.15963363647461
2013-08-31T18:00:00Z	24	169	-117.0	21.125	98408.84	41.131160736083984
2013-09-01T00:00:00Z	22	173	-117.25	21.625	98556.41	40.87348556518555
2013-09-01T00:00:00Z	9	316	-118.875	39.5	100837.71	22.29124641418457
2013-09-01T12:00:00Z	12	368	-118.5	46.0	100823.97	40.37322998046875
2013-09-02T06:00:00Z	9	347	-118.875	43.375	100892.03	40.93437194824219
2013-09-02T06:00:00Z	9	370	-118.875	46.25	100328.9	47.82689666748047
2013-09-02T12:00:00Z	10	448	-118.75	56.0	100871.59	41.8165397644043
2013-09-02T18:00:00Z	8	369	-119.0	46.125	100850.91	40.07022476196289
2013-09-03T00:00:00Z	12	300	-118.5	37.5	100837.625	35.39945602416992
2013-09-04T00:00:00Z	11	317	-118.625	39.625	100869.09	27.805147171020508
2013-09-04T00:00:00Z	8	369	-119.0	46.125	100961.29	44.48680114746094
2013-09-04T00:00:00Z	12	498	-118.5	62.25	100637.83	42.113277435302734
2013-09-04T00:00:00Z	12	523	-118.5	65.375	100794.88	54.16175079345703
2013-09-04T00:00:00Z	12	524	-118.5	65.5	100794.88	54.32605743408203
2013-09-04T06:00:00Z	9	370	-118.875	46.25	100894.03	39.40842819213867
2013-09-04T06:00:00Z	11	500	-118.625	62.5	100239.41	32.02192687988281
2013-09-04T06:00:00Z	9	515	-118.875	64.375	100327.25	38.18101119995117
2013-09-04T12:00:00Z	11	501	-118.625	62.625	99874.55	30.5465030670166
2013-09-04T12:00:00Z	10	528	-118.75	66.0	99759.54	51.98365783691406
2013-09-04T18:00:00Z	12	523	-118.5	65.375	99636.51	54.1690788269043
2013-09-04T18:00:00Z	12	524	-118.5	65.5	99636.51	54.47090530395508
2013-09-04T18:00:00Z	13	540	-118.375	67.5	99606.33	50.965396881103516
2013-09-05T00:00:00Z	11	544	-118.625	68.0	99544.83	35.00047302246094
2013-09-05T06:00:00Z	9	370	-118.875	46.25	100890.92	42.39187240600586
2013-09-06T00:00:00Z	28	160	-116.5	20.0	99720.77	30.171993255615234
2013-09-07T18:00:00Z	11	501	-118.625	62.625	100592.77	34.10380172729492
2013-09-07T18:00:00Z	11	526	-118.625	65.75	100524.15	45.87173843383789
2013-09-08T00:00:00Z	13	516	-118.375	64.5	100235.17	41.583229064941406
2013-09-08T06:00:00Z	10	318	-118.75	39.75	100939.9	20.357540130615234
2013-09-08T06:00:00Z	10	329	-118.75	41.125	100988.96	23.430410385131836
2013-09-08T12:00:00Z	54	112	-113.25	14.0	98184.93	30.779020309448242
2013-09-08T12:00:00Z	10	448	-118.75	56.0	100953.8	10.987521171569824
2013-09-09T00:00:00Z	410	11	-68.75	1.375	100983.44	10.342000007629395
2013-09-09T00:00:00Z	55	115	-113.125	14.375	97393.75	40.52312469482422
2013-09-09T00:00:00Z	12	300	-118.5	37.5	100770.55	12.09455394744873
2013-09-09T00:00:00Z	9	316	-118.875	39.5	100786.9	14.15294075012207
2013-09-09T00:00:00Z	12	501	-118.5	62.625	99675.195	31.534847259521484
2013-09-09T06:00:00Z	53	117	-113.375	14.625	96916.29	42.494205474853516
2013-09-09T06:00:00Z	10	318	-118.75	39.75	100910.766	12.422677993774414
2013-09-09T06:00:00Z	9	515	-118.875	64.375	99453.39	19.187108993530273
2013-09-09T12:00:00Z	52	118	-113.5	14.75	96448.25	47.780147552490234
2013-09-09T12:00:00Z	12	523	-118.5	65.375	99355.47	21.386734008789062
2013-09-09T12:00:00Z	12	524	-118.5	65.5	99355.47	21.386734008789062
2013-09-09T18:00:00Z	53	122	-113.375	15.25	96861.94	47.07716369628906
2013-09-09T18:00:00Z	12	523	-118.5	65.375	99571.336	20.238431930541992
2013-09-09T18:00:00Z	12	524	-118.5	65.5	99571.336	20.238431930541992
2013-09-10T00:00:00Z	53	126	-113.375	15.75	97206.945	39.41532897949219
2013-09-10T00:00:00Z	12	300	-118.5	37.5	100640.05	10.019400596618652
2013-09-10T00:00:00Z	10	316	-118.75	39.5	100791.48	10.4953031539917
2013-09-10T00:00:00Z	13	518	-118.375	64.75	99863.76	18.793245315551758
2013-09-10T06:00:00Z	53	129	-113.375	16.125	97318.375	40.1359748840332
2013-09-10T06:00:00Z	9	316	-118.875	39.5	100934.62	10.976409912109375
2013-09-10T12:00:00Z	54	134	-113.25	16.75	97188.46	42.489349365234375
2013-09-10T18:00:00Z	52	139	-113.5	17.375	97341.055	42.42509078979492
2013-09-11T00:00:00Z	50	143	-113.75	17.875	97046.766	45.7950325012207
2013-09-11T00:00:00Z	12	300	-118.5	37.5	100835.58	24.873220443725586
2013-09-11T00:00:00Z	12	318	-118.5	39.75	100881.336	23.48023223876953
2013-09-11T00:00:00Z	10	329	-118.75	41.125	100971.44	13.68190860748291
2013-09-11T00:00:00Z	8	370	-119.0	46.25	100984.234	15.830423355102539
2013-09-11T06:00:00Z	47	145	-114.125	18.125	97316.984	47.18018341064453
2013-09-11T06:00:00Z	12	318	-118.5	39.75	100900.016	17.656526565551758
2013-09-11T06:00:00Z	8	327	-119.0	40.875	100999.734	11.830008506774902
2013-09-11T12:00:00Z	43	149	-114.625	18.625	97345.69	43.483123779296875
2013-09-11T12:00:00Z	448	270	-64.0	33.75	99557.7	28.673723220825195
2013-09-11T18:00:00Z	39	150	-115.125	18.75	98207.44	41.99697494506836
2013-09-11T18:00:00Z	441	273	-64.875	34.125	99306.05	31.486127853393555
2013-09-12T00:00:00Z	435	278	-65.625	34.75	98963.41	33.171043395996094
2013-09-12T00:00:00Z	10	330	-118.75	41.25	100973.055	11.933568000793457
2013-09-12T00:00:00Z	8	371	-119.0	46.375	100963.08	11.907175064086914
2013-09-12T06:00:00Z	430	284	-66.25	35.5	98516.914	35.0523681640625
2013-09-12T06:00:00Z	10	319	-118.75	39.875	100957.84	8.901686668395996
2013-09-12T06:00:00Z	9	370	-118.875	46.25	100917.49	10.88188648223877
2013-09-12T06:00:00Z	9	515	-118.875	64.375	100848.66	40.54417419433594
2013-09-12T06:00:00Z	10	528	-118.75	66.0	100743.586	44.9415397644043
2013-09-12T12:00:00Z	427	291	-66.625	36.375	98014.64	38.072147369384766
2013-09-12T12:00:00Z	13	517	-118.375	64.625	100250.68	49.97616958618164
2013-09-12T12:00:00Z	10	528	-118.75	66.0	100166.91	48.9851188659668
2013-09-12T18:00:00Z	429	300	-66.375	37.5	97783.984	41.860816955566406
2013-09-12T18:00:00Z	12	501	-118.5	62.625	99967.16	53.48097610473633
2013-09-12T18:00:00Z	13	529	-118.375	66.125	99758.164	35.66374969482422
2013-09-13T00:00:00Z	435	312	-65.625	39.0	98023.79	36.716331481933594
2013-09-13T00:00:00Z	10	448	-118.75	56.0	100643.06	30.560033798217773
2013-09-13T06:00:00Z	451	327	-63.625	40.875	98235.71	37.19160842895508
2013-09-13T06:00:00Z	9	370	-118.875	46.25	100710.74	9.0025634765625
2013-09-13T18:00:00Z	415	13	-68.125	1.625	100929.64	17.277027130126953
2013-09-13T18:00:00Z	11	275	-118.625	34.375	100921.79	29.79031753540039
2013-09-14T00:00:00Z	327	9	-79.125	1.125	100752.67	14.227649688720703
2013-09-14T00:00:00Z	8	370	-119.0	46.25	100356.48	8.787942886352539
2013-09-14T06:00:00Z	13	92	-118.375	11.5	100673.12	12.095484733581543
2013-09-14T12:00:00Z	13	234	-118.375	29.25	100723.24	18.853151321411133
2013-09-14T18:00:00Z	12	317	-118.5	39.625	100858.164	15.353805541992188
2013-09-14T18:00:00Z	13	350	-118.375	43.75	100820.28	8.678547859191895
2013-09-14T18:00:00Z	13	369	-118.375	46.125	100654.414	23.173765182495117
2013-09-15T00:00:00Z	9	316	-118.875	39.5	100454.87	15.833775520324707
2013-09-15T06:00:00Z	623	220	-42.125	27.5	99119.88	26.864967346191406
2013-09-15T06:00:00Z	8	346	-119.0	43.25	100635.79	9.093754768371582
2013-09-15T06:00:00Z	9	370	-118.875	46.25	100209.01	15.355998039245605
2013-09-15T12:00:00Z	615	222	-43.125	27.75	98640.1	34.43023681640625
2013-09-15T12:00:00Z	9	347	-118.875	43.375	100867.55	12.191442489624023
2013-09-15T18:00:00Z	452	13	-63.5	1.625	100918.63	17.61598777770996
2013-09-15T18:00:00Z	607	225	-44.125	28.125	98231.28	37.68290710449219
2013-09-15T18:00:00Z	9	282	-118.875	35.25	100769.85	27.053544998168945
2013-09-15T18:00:00Z	12	317	-118.5	39.625	100650.6	22.24127960205078
2013-09-15T18:00:00Z	12	368	-118.5	46.0	100289.26	13.759505271911621
2013-09-15T18:00:00Z	13	436	-118.375	54.5	100824.28	23.45024871826172
2013-09-15T18:00:00Z	9	468	-118.875	58.5	100787.55	17.96628189086914
2013-09-15T18:00:00Z	10	496	-118.75	62.0	100825.41	33.47711944580078
2013-09-16T00:00:00Z	326	9	-79.25	1.125	100946.266	14.01038646697998
2013-09-16T00:00:00Z	601	228	-44.875	28.5	98072.34	39.37096405029297
2013-09-16T00:00:00Z	10	448	-118.75	56.0	100510.07	25.08494758605957
2013-09-16T00:00:00Z	9	468	-118.875	58.5	100484.93	26.88387107849121
2013-09-16T00:00:00Z	11	483	-118.625	60.375	100551.85	26.879194259643555
2013-09-16T06:00:00Z	595	230	-45.625	28.75	97679.86	35.60142517089844
2013-09-16T12:00:00Z	590	235	-46.25	29.375	97333.055	42.18217086791992
2013-09-16T12:00:00Z	9	282	-118.875	35.25	100962.71	28.08194351196289
2013-09-16T12:00:00Z	10	448	-118.75	56.0	100065.57	23.286531448364258
2013-09-16T18:00:00Z	327	8	-79.125	1.0	100991.92	15.867101669311523
2013-09-16T18:00:00Z	584	241	-47.0	30.125	96992.36	46.87883377075195
2013-09-16T18:00:00Z	9	281	-118.875	35.125	100962.73	31.1533145904541
2013-09-16T18:00:00Z	12	299	-118.5	37.375	100984.586	29.403274536132812
2013-09-17T00:00:00Z	381	8	-72.375	1.0	100952.73	14.450801849365234
2013-09-17T00:00:00Z	389	8	-71.375	1.0	100954.5	14.568246841430664
2013-09-17T00:00:00Z	327	9	-79.125	1.125	100916.1	15.1961088180542
2013-09-17T00:00:00Z	579	246	-47.625	30.75	96770.914	40.993343353271484
2013-09-17T00:00:00Z	9	316	-118.875	39.5	100385.36	33.49907684326172
2013-09-17T00:00:00Z	8	383	-119.0	47.875	100741.266	34.02814865112305
2013-09-17T00:00:00Z	9	451	-118.875	56.375	99536.35	21.29640769958496
2013-09-17T06:00:00Z	575	255	-48.125	31.875	96817.234	42.27838897705078
2013-09-17T06:00:00Z	8	384	-119.0	48.0	100876.21	23.897520065307617
2013-09-17T06:00:00Z	9	451	-118.875	56.375	99717.5	18.668014526367188
2013-09-17T12:00:00Z	568	264	-49.0	33.0	97011.4	35.029354095458984
2013-09-17T18:00:00Z	427	10	-66.625	1.25	100972.125	13.813178062438965
2013-09-17T18:00:00Z	562	275	-49.75	34.375	97100.016	35.343074798583984
2013-09-18T00:00:00Z	325	9	-79.375	1.125	100932.01	13.625768661499023
2013-09-18T00:00:00Z	362	9	-74.75	1.125	100965.31	13.520235061645508
2013-09-18T00:00:00Z	12	417	-118.5	52.125	100602.3	24.179357528686523
2013-09-18T06:00:00Z	8	408	-119.0	51.0	100593.09	29.256906509399414
2013-09-18T18:00:00Z	549	318	-51.375	39.75	97419.7	33.55183029174805
2013-09-19T00:00:00Z	550	333	-51.25	41.625	97390.945	35.2054557800293
2013-09-19T06:00:00Z	557	348	-50.375	43.5	97597.3	35.00364303588867
2013-09-20T00:00:00Z	8	304	-119.0	38.0	100971.836	28.468420028686523
2013-09-20T00:00:00Z	11	484	-118.625	60.5	100656.5	45.246803283691406
2013-09-20T00:00:00Z	12	523	-118.5	65.375	100894.58	35.092071533203125
2013-09-20T00:00:00Z	12	524	-118.5	65.5	100894.58	32.95610809326172
2013-09-20T06:00:00Z	10	310	-118.75	38.75	100963.79	25.8845272064209
2013-09-20T06:00:00Z	10	448	-118.75	56.0	100672.68	29.282032012939453
2013-09-20T06:00:00Z	9	483	-118.875	60.375	100501.23	36.21586608886719
2013-09-20T12:00:00Z	13	368	-118.375	46.0	100822.875	26.030284881591797
2013-09-20T12:00:00Z	9	483	-118.875	60.375	100334.81	35.878196716308594
2013-09-20T12:00:00Z	11	501	-118.625	62.625	100576.555	32.8251953125
2013-09-20T18:00:00Z	455	10	-63.125	1.25	100990.164	15.216192245483398
2013-09-20T18:00:00Z	499	13	-57.625	1.625	100943.62	18.745006561279297
2013-09-20T18:00:00Z	9	500	-118.875	62.5	100000.73	37.82411575317383
2013-09-21T00:00:00Z	12	485	-118.5	60.625	99215.91	37.754642486572266
2013-09-21T00:00:00Z	13	498	-118.375	62.25	99263.695	41.7961311340332
2013-09-21T00:00:00Z	12	524	-118.5	65.5	99495.016	46.544193267822266
2013-09-21T06:00:00Z	472	8	-61.0	1.0	100998.836	15.925056457519531
2013-09-21T06:00:00Z	13	94	-118.375	11.75	100954.49	23.825349807739258
2013-09-21T06:00:00Z	8	374	-119.0	46.75	99937.336	34.47422790527344
2013-09-21T12:00:00Z	9	395	-118.875	49.375	100168.0	37.98576736450195
2013-09-21T12:00:00Z	13	428	-118.375	53.5	99855.41	32.33390426635742
2013-09-21T12:00:00Z	9	515	-118.875	64.375	98814.01	26.47896385192871
2013-09-21T12:00:00Z	11	526	-118.625	65.75	98808.04	18.835222244262695
2013-09-21T18:00:00Z	325	9	-79.375	1.125	100947.336	12.902094841003418
2013-09-21T18:00:00Z	8	395	-119.0	49.375	100275.27	42.79335403442383
2013-09-21T18:00:00Z	8	401	-119.0	50.125	100265.87	37.9358024597168
2013-09-21T18:00:00Z	12	523	-118.5	65.375	98621.945	27.127063751220703
2013-09-21T18:00:00Z	12	524	-118.5	65.5	98621.945	25.898265838623047
2013-09-22T00:00:00Z	327	9	-79.125	1.125	100810.086	12.748030662536621
2013-09-22T00:00:00Z	9	391	-118.875	48.875	100242.6	38.55643844604492
2013-09-22T00:00:00Z	13	506	-118.375	63.25	98426.59	29.39788818359375
2013-09-22T00:00:00Z	12	523	-118.5	65.375	98435.33	26.39873695373535
2013-09-22T00:00:00Z	12	524	-118.5	65.5	98435.33	25.900550842285156
2013-09-22T06:00:00Z	327	9	-79.125	1.125	100965.31	14.229094505310059
2013-09-22T06:00:00Z	13	88	-118.375	11.0	100936.81	21.593093872070312
2013-09-22T06:00:00Z	9	515	-118.875	64.375	98571.17	11.454310417175293
2013-09-22T06:00:00Z	11	527	-118.625	65.875	98578.13	12.680888175964355
2013-09-22T12:00:00Z	8	384	-119.0	48.0	100448.26	23.728803634643555
2013-09-22T12:00:00Z	13	527	-118.375	65.875	98674.88	12.015380859375
2013-09-22T18:00:00Z	9	468	-118.875	58.5	98984.086	13.1254243850708
2013-09-22T18:00:00Z	10	496	-118.75	62.0	98797.51	15.158853530883789
2013-09-22T18:00:00Z	12	523	-118.5	65.375	98811.56	11.478856086730957
2013-09-22T18:00:00Z	12	524	-118.5	65.5	98811.56	11.485464096069336
2013-09-23T00:00:00Z	326	9	-79.25	1.125	100984.77	14.536433219909668
2013-09-23T00:00:00Z	13	89	-118.375	11.125	100816.88	13.557162284851074
2013-09-23T00:00:00Z	12	274	-118.5	34.25	100934.46	29.73949432373047
2013-09-23T00:00:00Z	12	523	-118.5	65.375	99027.32	15.055953979492188
2013-09-23T00:00:00Z	12	524	-118.5	65.5	99027.32	14.671624183654785
2013-09-23T06:00:00Z	11	478	-118.625	59.75	99092.586	16.006214141845703
2013-09-23T12:00:00Z	8	384	-119.0	48.0	100959.3	49.04795837402344
2013-09-23T12:00:00Z	9	468	-118.875	58.5	99306.25	17.817447662353516
2013-09-23T12:00:00Z	11	478	-118.625	59.75	99345.29	19.20201301574707
2013-09-23T18:00:00Z	8	401	-119.0	50.125	100725.945	37.67721939086914
2013-09-23T18:00:00Z	9	468	-118.875	58.5	99348.28	16.002954483032227
2013-09-23T18:00:00Z	11	478	-118.625	59.75	99406.38	16.17832374572754
2013-09-23T18:00:00Z	12	523	-118.5	65.375	99708.61	11.243606567382812
2013-09-23T18:00:00Z	12	524	-118.5	65.5	99708.61	11.243606567382812
2013-09-24T00:00:00Z	8	391	-119.0	48.875	100991.836	45.73182678222656
2013-09-24T12:00:00Z	11	478	-118.625	59.75	100177.3	12.738842010498047
2013-09-24T18:00:00Z	11	459	-118.625	57.375	100458.68	17.16020393371582
2013-09-24T18:00:00Z	11	478	-118.625	59.75	100398.22	17.258804321289062
2013-09-25T00:00:00Z	328	10	-79.0	1.25	100840.47	22.05156707763672
2013-09-25T00:00:00Z	8	385	-119.0	48.125	100765.25	20.5788516998291
2013-09-26T00:00:00Z	327	9	-79.125	1.125	100839.74	17.123872756958008
2013-09-27T06:00:00Z	11	484	-118.625	60.5	100359.84	19.548763275146484
2013-09-27T06:00:00Z	9	500	-118.875	62.5	100312.51	16.029428482055664
2013-09-27T06:00:00Z	12	507	-118.5	63.375	100390.84	16.49654769897461
2013-09-27T12:00:00Z	8	469	-119.0	58.625	100159.2	8.912601470947266
2013-09-27T12:00:00Z	12	490	-118.5	61.25	100027.39	15.01430892944336
2013-09-27T12:00:00Z	9	500	-118.875	62.5	100028.375	16.5582275390625
2013-09-27T12:00:00Z	12	523	-118.5	65.375	100194.47	17.256031036376953
2013-09-27T12:00:00Z	12	524	-118.5	65.5	100194.47	17.14710235595703
2013-09-27T18:00:00Z	9	486	-118.875	60.75	99809.3	9.035648345947266
2013-09-27T18:00:00Z	10	486	-118.75	60.75	99809.3	9.035648345947266
2013-09-27T18:00:00Z	10	501	-118.75	62.625	99867.484	10.248396873474121
2013-09-27T18:00:00Z	12	523	-118.5	65.375	100028.766	21.747760772705078
2013-09-27T18:00:00Z	12	524	-118.5	65.5	100028.766	21.756742477416992
2013-09-28T00:00:00Z	327	9	-79.125	1.125	100857.93	21.683361053466797
2013-09-28T00:00:00Z	11	484	-118.625	60.5	99554.25	13.454697608947754
2013-09-28T00:00:00Z	11	501	-118.625	62.625	99703.22	10.871198654174805
2013-09-28T12:00:00Z	13	428	-118.375	53.5	100197.6	33.63326644897461
2013-09-28T12:00:00Z	11	501	-118.625	62.625	99494.2	13.635222434997559
2013-09-28T18:00:00Z	8	401	-119.0	50.125	100185.22	40.50170135498047
2013-09-28T18:00:00Z	12	436	-118.5	54.5	99294.81	24.10099220275879
2013-09-28T18:00:00Z	12	523	-118.5	65.375	99613.625	18.643526077270508
2013-09-28T18:00:00Z	12	524	-118.5	65.5	99613.625	18.694475173950195
2013-09-29T00:00:00Z	10	438	-118.75	54.75	98626.555	27.23326301574707
2013-09-29T00:00:00Z	11	483	-118.625	60.375	99082.664	25.714008331298828
2013-09-29T00:00:00Z	12	524	-118.5	65.5	99555.875	18.382556915283203
2013-09-29T06:00:00Z	9	402	-118.875	50.25	98909.72	45.19953918457031
2013-09-29T06:00:00Z	12	410	-118.5	51.25	98903.8	45.114810943603516
2013-09-29T06:00:00Z	13	428	-118.375	53.5	98303.055	42.85612106323242
2013-09-29T06:00:00Z	11	440	-118.625	55.0	98132.414	30.888856887817383
2013-09-29T12:00:00Z	9	451	-118.875	56.375	98374.31	24.32404136657715
2013-09-29T12:00:00Z	9	456	-118.875	57.0	98381.17	24.81639862060547
2013-09-30T06:00:00Z	13	428	-118.375	53.5	99014.57	32.0923957824707
2013-09-30T12:00:00Z	12	428	-118.5	53.5	98743.88	20.928882598876953
2013-09-30T12:00:00Z	12	436	-118.5	54.5	98798.47	20.670949935913086
2013-09-30T18:00:00Z	9	391	-118.875	48.875	100157.016	40.16225051879883
2013-09-30T18:00:00Z	8	401	-119.0	50.125	99949.055	31.091594696044922
2013-10-01T00:00:00Z	10	448	-118.75	56.0	99740.35	15.003669738769531
2013-10-02T00:00:00Z	366	9	-74.25	1.125	100854.69	15.919878005981445
2013-10-02T18:00:00Z	328	9	-79.0	1.125	100981.18	23.589675903320312
2013-10-02T18:00:00Z	366	10	-74.25	1.25	100952.375	17.694211959838867
2013-10-02T18:00:00Z	427	11	-66.625	1.375	100883.664	17.583383560180664
2013-10-03T00:00:00Z	328	10	-79.0	1.25	100807.336	28.706945419311523
2013-10-03T00:00:00Z	10	316	-118.75	39.5	100927.94	39.48164749145508
2013-10-03T06:00:00Z	427	13	-66.625	1.625	100929.28	20.27741241455078
2013-10-03T18:00:00Z	427	13	-66.625	1.625	100704.125	27.89836883544922
2013-10-04T00:00:00Z	11	96	-118.625	12.0	100667.13	20.14814567565918
2013-10-04T06:00:00Z	480	9	-60.0	1.125	100878.18	15.790255546569824
2013-10-04T18:00:00Z	427	12	-66.625	1.5	100859.41	15.534627914428711
2013-10-04T18:00:00Z	441	13	-64.875	1.625	100800.92	16.28293228149414
2013-10-04T18:00:00Z	453	13	-63.375	1.625	100814.266	16.027606964111328
2013-10-04T18:00:00Z	11	501	-118.625	62.625	100896.9	22.91956329345703
2013-10-04T18:00:00Z	13	506	-118.375	63.25	100908.26	20.508745193481445
2013-10-05T00:00:00Z	470	13	-61.25	1.625	100742.67	17.61597442626953
2013-10-05T00:00:00Z	12	490	-118.5	61.25	100559.15	26.22925567626953
2013-10-05T00:00:00Z	11	501	-118.625	62.625	100495.09	17.781417846679688
2013-10-05T00:00:00Z	13	506	-118.375	63.25	100498.86	16.909461975097656
2013-10-05T12:00:00Z	11	478	-118.625	59.75	100695.59	31.57684326171875
2013-10-06T00:00:00Z	327	9	-79.125	1.125	100931.63	17.25957489013672
2013-10-06T00:00:00Z	415	11	-68.125	1.375	100924.0	12.16946029663086
2013-10-06T12:00:00Z	9	96	-118.875	12.0	100904.97	15.558813095092773
2013-10-06T18:00:00Z	9	105	-118.875	13.125	100919.75	13.373627662658691
2013-10-07T00:00:00Z	325	9	-79.375	1.125	100938.625	12.492365837097168
2013-10-07T00:00:00Z	527	13	-54.125	1.625	100990.92	13.434883117675781
2013-10-07T00:00:00Z	10	115	-118.75	14.375	100832.79	16.72718620300293
2013-10-07T06:00:00Z	12	428	-118.5	53.5	100352.66	35.19041442871094
2013-10-07T06:00:00Z	10	462	-118.75	57.75	100427.914	41.888389587402344
2013-10-07T06:00:00Z	11	500	-118.625	62.5	100738.266	41.488136291503906
2013-10-07T12:00:00Z	13	428	-118.375	53.5	100053.78	40.37955093383789
2013-10-07T12:00:00Z	11	484	-118.625	60.5	100198.81	31.985321044921875
2013-10-08T00:00:00Z	327	9	-79.125	1.125	100987.016	16.024932861328125
2013-10-08T00:00:00Z	8	403	-119.0	50.375	100511.18	21.988475799560547
2013-10-08T06:00:00Z	12	318	-118.5	39.75	100993.98	38.55861282348633
2013-10-08T12:00:00Z	8	403	-119.0	50.375	100906.07	12.244239807128906
2013-10-09T06:00:00Z	11	500	-118.625	62.5	100814.086	66.00001525878906
2013-10-09T06:00:00Z	10	528	-118.75	66.0	100645.6	51.77463912963867
2013-10-09T06:00:00Z	11	528	-118.625	66.0	100645.6	51.77463912963867
2013-10-09T12:00:00Z	12	525	-118.5	65.625	99850.88	62.84902572631836
2013-10-09T18:00:00Z	9	437	-118.875	54.625	100462.914	24.61993980407715
2013-10-09T18:00:00Z	9	500	-118.875	62.5	98990.27	40.76759719848633
2013-10-09T18:00:00Z	9	515	-118.875	64.375	98889.74	46.59286880493164
2013-10-09T18:00:00Z	12	525	-118.5	65.625	98917.84	47.943031311035156
2013-10-10T00:00:00Z	11	500	-118.625	62.5	98290.4	53.01337814331055
2013-10-10T00:00:00Z	9	515	-118.875	64.375	98194.94	50.32657241821289
2013-10-10T00:00:00Z	12	523	-118.5	65.375	98211.42	46.77799606323242
2013-10-10T00:00:00Z	12	524	-118.5	65.5	98211.42	46.41197204589844
2013-10-10T06:00:00Z	10	296	-118.75	37.0	100498.84	39.31059265136719
2013-10-10T06:00:00Z	8	408	-119.0	51.0	100852.414	30.70572280883789
2013-10-10T06:00:00Z	13	516	-118.375	64.5	97954.44	29.86044692993164
2013-10-11T06:00:00Z	10	448	-118.75	56.0	100972.13	27.922679901123047
2013-10-11T06:00:00Z	11	478	-118.625	59.75	100641.47	11.082225799560547
2013-10-11T12:00:00Z	11	478	-118.625	59.75	100991.05	15.115523338317871
2013-10-12T06:00:00Z	480	9	-60.0	1.125	100916.695	24.12056541442871
2013-10-12T12:00:00Z	13	101	-118.375	12.625	100917.76	9.306775093078613
2013-10-12T18:00:00Z	455	11	-63.125	1.375	100754.766	24.13039207458496
2013-10-13T00:00:00Z	391	8	-71.125	1.0	100764.08	17.084022521972656
2013-10-13T00:00:00Z	9	316	-118.875	39.5	100861.67	35.7071418762207
2013-10-13T06:00:00Z	468	11	-61.5	1.375	100871.5	19.321720123291016
2013-10-13T06:00:00Z	529	11	-53.875	1.375	100959.92	24.12862777709961
2013-10-13T12:00:00Z	455	10	-63.125	1.25	100984.77	15.837961196899414
2013-10-13T12:00:00Z	468	11	-61.5	1.375	100980.734	16.950254440307617
2013-10-13T18:00:00Z	324	8	-79.5	1.0	100856.86	16.16166877746582
2013-10-13T18:00:00Z	431	13	-66.125	1.625	100779.67	16.57725715637207
2013-10-14T00:00:00Z	325	9	-79.375	1.125	100807.33	15.367498397827148
2013-10-14T00:00:00Z	427	13	-66.625	1.625	100608.7	17.059904098510742
2013-10-14T06:00:00Z	415	11	-68.125	1.375	100999.69	18.199932098388672
2013-10-14T06:00:00Z	13	65	-118.375	8.125	100951.86	16.07744598388672
2013-10-14T18:00:00Z	427	10	-66.625	1.25	100997.93	20.527921676635742
2013-10-14T18:00:00Z	452	12	-63.5	1.5	100983.54	18.613210678100586
2013-10-14T18:00:00Z	11	500	-118.625	62.5	100892.055	39.42926788330078
2013-10-14T18:00:00Z	9	515	-118.875	64.375	100809.445	40.954044342041016
2013-10-14T18:00:00Z	12	528	-118.5	66.0	100732.89	40.165679931640625
2013-10-16T00:00:00Z	12	141	-118.5	17.625	100998.234	14.21375846862793
2013-10-16T06:00:00Z	8	141	-119.0	17.625	100928.7	13.20579719543457
2013-10-17T12:00:00Z	559	12	-50.125	1.5	100974.42	14.146099090576172
2013-10-17T18:00:00Z	325	9	-79.375	1.125	100936.99	18.197368621826172
2013-10-18T00:00:00Z	526	13	-54.25	1.625	100665.68	15.792815208435059
2013-10-18T06:00:00Z	540	9	-52.5	1.125	100916.766	13.755855560302734
2013-10-18T06:00:00Z	405	10	-69.375	1.25	100904.31	26.473445892333984
2013-10-18T06:00:00Z	679	12	-35.125	1.5	100919.99	14.656700134277344
2013-10-18T12:00:00Z	404	9	-69.5	1.125	100950.91	23.095989227294922
2013-10-18T12:00:00Z	480	9	-60.0	1.125	100962.67	16.828948974609375
2013-10-18T12:00:00Z	411	10	-68.625	1.25	100949.46	25.66769790649414
2013-10-18T12:00:00Z	421	10	-67.375	1.25	100953.16	25.647422790527344
2013-10-18T18:00:00Z	327	8	-79.125	1.0	100783.19	18.03758430480957
2013-10-18T18:00:00Z	540	10	-52.5	1.25	100656.125	13.604887008666992
2013-10-19T00:00:00Z	327	9	-79.125	1.125	100670.88	15.927969932556152
2013-10-19T00:00:00Z	389	9	-71.375	1.125	100613.82	18.752145767211914
2013-10-19T00:00:00Z	451	12	-63.625	1.5	100773.95	25.92464256286621
2013-10-19T00:00:00Z	502	12	-57.25	1.5	100896.83	13.542523384094238
2013-10-19T00:00:00Z	11	474	-118.625	59.25	100665.984	34.458099365234375
2013-10-19T06:00:00Z	381	8	-72.375	1.0	100842.695	15.43915843963623
2013-10-19T06:00:00Z	391	8	-71.125	1.0	100844.555	15.979637145996094
2013-10-19T06:00:00Z	480	9	-60.0	1.125	100974.42	14.734102249145508
2013-10-19T06:00:00Z	405	10	-69.375	1.25	100826.07	15.6657075881958
2013-10-19T06:00:00Z	11	474	-118.625	59.25	100764.73	34.014339447021484
2013-10-19T06:00:00Z	11	501	-118.625	62.625	100905.414	26.037458419799805
2013-10-19T12:00:00Z	391	8	-71.125	1.0	100986.56	17.147823333740234
2013-10-19T12:00:00Z	416	11	-68.0	1.375	100982.74	17.400861740112305
2013-10-19T12:00:00Z	406	13	-69.25	1.625	100981.09	18.062686920166016
2013-10-19T12:00:00Z	427	13	-66.625	1.625	100975.18	19.173452377319336
2013-10-19T18:00:00Z	370	8	-73.75	1.0	100834.914	15.966025352478027
2013-10-19T18:00:00Z	425	8	-66.875	1.0	100817.51	15.582283973693848
2013-10-19T18:00:00Z	376	9	-73.0	1.125	100841.28	16.263835906982422
2013-10-19T18:00:00Z	401	9	-69.875	1.125	100825.98	16.63955307006836
2013-10-20T00:00:00Z	327	9	-79.125	1.125	100741.05	13.961957931518555
2013-10-20T06:00:00Z	381	8	-72.375	1.0	100958.77	16.48322105407715
2013-10-20T06:00:00Z	415	12	-68.125	1.5	100910.71	16.38759422302246
2013-10-20T06:00:00Z	11	543	-118.625	67.875	100992.55	26.767847061157227
2013-10-20T12:00:00Z	11	484	-118.625	60.5	100838.58	43.669822692871094
2013-10-20T12:00:00Z	12	490	-118.5	61.25	100850.56	42.48009490966797
2013-10-20T12:00:00Z	9	500	-118.875	62.5	100836.26	38.817970275878906
2013-10-20T18:00:00Z	376	9	-73.0	1.125	100949.0	15.624287605285645
2013-10-20T18:00:00Z	402	9	-69.75	1.125	100951.75	16.970857620239258
2013-10-20T18:00:00Z	427	10	-66.625	1.25	100920.13	16.240568161010742
2013-10-20T18:00:00Z	468	10	-61.5	1.25	100915.805	12.919906616210938
2013-10-20T18:00:00Z	9	515	-118.875	64.375	100734.57	32.39582824707031
2013-10-20T18:00:00Z	11	526	-118.625	65.75	100726.414	27.9698543548584
2013-10-21T00:00:00Z	11	474	-118.625	59.25	100958.805	45.539710998535156
2013-10-21T00:00:00Z	12	529	-118.5	66.125	100687.56	23.445470809936523
2013-10-21T00:00:00Z	11	544	-118.625	68.0	100660.17	20.378324508666992
2013-10-21T06:00:00Z	13	529	-118.375	66.125	100635.016	19.313451766967773
2013-10-21T06:00:00Z	11	544	-118.625	68.0	100578.06	15.050734519958496
2013-10-21T18:00:00Z	376	9	-73.0	1.125	100909.59	10.44996166229248
2013-10-21T18:00:00Z	461	13	-62.375	1.625	100831.94	12.666003227233887
2013-10-22T00:00:00Z	362	8	-74.75	1.0	100657.375	12.549864768981934
2013-10-22T00:00:00Z	381	8	-72.375	1.0	100731.72	11.801834106445312
2013-10-22T06:00:00Z	511	12	-56.125	1.5	100917.68	16.515426635742188
2013-10-22T12:00:00Z	467	11	-61.625	1.375	100933.44	16.4879207611084
2013-10-22T18:00:00Z	397	8	-70.375	1.0	100871.4	13.571353912353516
2013-10-22T18:00:00Z	390	9	-71.25	1.125	100873.19	13.325990676879883
2013-10-22T18:00:00Z	481	10	-59.875	1.25	100779.1	14.909669876098633
2013-10-23T00:00:00Z	362	8	-74.75	1.0	100807.8	15.149125099182129
2013-10-23T00:00:00Z	452	11	-63.5	1.375	100700.46	15.284566879272461
2013-10-23T18:00:00Z	441	13	-64.875	1.625	100997.17	14.50251293182373
2013-10-24T00:00:00Z	10	80	-118.75	10.0	100916.22	14.440913200378418
2013-10-24T12:00:00Z	9	500	-118.875	62.5	100293.99	36.2282600402832
2013-10-24T12:00:00Z	9	515	-118.875	64.375	100479.43	29.728092193603516
2013-10-27T18:00:00Z	9	111	-118.875	13.875	100974.85	13.05575942993164
2013-10-27T18:00:00Z	11	386	-118.625	48.25	100962.57	23.50124168395996
2013-10-28T00:00:00Z	11	112	-118.625	14.0	100810.37	14.28425121307373
2013-10-28T00:00:00Z	11	320	-118.625	40.0	99905.414	28.858308792114258
2013-10-28T06:00:00Z	12	120	-118.5	15.0	100795.57	16.76987648010254
2013-10-28T12:00:00Z	13	123	-118.375	15.375	100664.58	15.851778030395508
2013-10-28T18:00:00Z	13	128	-118.375	16.0	100709.86	15.023451805114746
2013-10-28T18:00:00Z	10	310	-118.75	38.75	100100.59	16.64512825012207
2013-10-29T00:00:00Z	11	500	-118.625	62.5	100759.44	48.13938522338867
2013-10-29T00:00:00Z	9	515	-118.875	64.375	100728.45	53.77104949951172
2013-10-29T00:00:00Z	12	528	-118.5	66.0	100680.66	58.81705856323242
2013-10-29T06:00:00Z	468	9	-61.5	1.125	100958.91	15.386625289916992
2013-10-29T06:00:00Z	10	528	-118.75	66.0	100153.195	50.77168273925781
2013-10-29T12:00:00Z	11	500	-118.625	62.5	99475.99	39.436500549316406
2013-10-29T12:00:00Z	9	515	-118.875	64.375	99467.79	38.90103530883789
2013-10-29T18:00:00Z	391	8	-71.125	1.0	100895.5	16.33118438720703
2013-10-29T18:00:00Z	451	12	-63.625	1.5	100908.51	20.64667510986328
2013-10-29T18:00:00Z	10	501	-118.75	62.625	99001.59	45.635337829589844
2013-10-29T18:00:00Z	10	528	-118.75	66.0	98609.58	29.36733627319336
2013-10-30T00:00:00Z	451	12	-63.625	1.5	100867.14	18.37212562561035
2013-10-30T18:00:00Z	451	13	-63.625	1.625	100773.625	18.03716468811035
2013-10-30T18:00:00Z	10	445	-118.75	55.625	100649.38	47.07081604003906
2013-10-31T00:00:00Z	451	12	-63.625	1.5	100700.45	20.64878273010254
2013-10-31T06:00:00Z	455	10	-63.125	1.25	100921.81	19.676313400268555
2013-10-31T06:00:00Z	414	11	-68.25	1.375	100860.18	19.329177856445312
2013-10-31T06:00:00Z	11	478	-118.625	59.75	99649.52	36.941978454589844
2013-10-31T12:00:00Z	402	9	-69.75	1.125	100953.164	18.095571517944336
2013-10-31T12:00:00Z	415	11	-68.125	1.375	100956.1	17.756399154663086
2013-10-31T12:00:00Z	11	478	-118.625	59.75	99711.65	35.32627868652344
2013-10-31T18:00:00Z	452	12	-63.5	1.5	100799.484	20.651201248168945
2013-11-01T00:00:00Z	480	9	-60.0	1.125	100796.13	21.1226863861084
2013-11-01T00:00:00Z	452	12	-63.5	1.5	100744.914	19.034482955932617
2013-11-01T00:00:00Z	528	13	-54.0	1.625	100835.96	24.917203903198242
2013-11-01T00:00:00Z	11	478	-118.625	59.75	100166.96	30.98283576965332
2013-11-01T00:00:00Z	13	483	-118.375	60.375	100152.734	28.771629333496094
2013-11-01T06:00:00Z	408	12	-69.0	1.5	100912.31	20.09624671936035
2013-11-01T12:00:00Z	404	10	-69.5	1.25	100994.96	19.616376876831055
2013-11-01T12:00:00Z	11	478	-118.625	59.75	100584.95	26.93691062927246
2013-11-01T18:00:00Z	453	13	-63.375	1.625	100875.06	19.579626083374023
2013-11-02T00:00:00Z	831	421	-16.125	52.625	98796.305	47.67228317260742
2013-11-02T12:00:00Z	13	368	-118.375	46.0	100568.52	54.229068756103516
2013-11-02T12:00:00Z	11	410	-118.625	51.25	100847.38	53.77707290649414
2013-11-02T18:00:00Z	8	383	-119.0	47.875	100080.09	49.10246658325195
2013-11-02T18:00:00Z	10	410	-118.75	51.25	100017.41	39.749393463134766
2013-11-03T00:00:00Z	452	12	-63.5	1.5	100704.97	21.633506774902344
2013-11-03T00:00:00Z	427	13	-66.625	1.625	100686.18	21.219560623168945
2013-11-03T00:00:00Z	9	391	-118.875	48.875	100037.36	26.13262939453125
2013-11-03T00:00:00Z	12	410	-118.5	51.25	99934.58	20.30124855041504
2013-11-03T12:00:00Z	522	9	-54.75	1.125	100991.46	22.87057876586914
2013-11-03T12:00:00Z	540	9	-52.5	1.125	100991.016	23.52770233154297
2013-11-03T12:00:00Z	532	13	-53.5	1.625	100971.414	23.58984375
2013-11-04T06:00:00Z	461	9	-62.375	1.125	100774.164	21.70847511291504
2013-11-04T06:00:00Z	467	11	-61.625	1.375	100770.89	21.325977325439453
2013-11-04T06:00:00Z	579	12	-47.625	1.5	100891.16	24.385339736938477
2013-11-04T06:00:00Z	427	13	-66.625	1.625	100823.195	21.243764877319336
2013-11-04T12:00:00Z	481	9	-59.875	1.125	100871.45	22.508834838867188
2013-11-04T12:00:00Z	486	9	-59.25	1.125	100870.05	21.842567443847656
2013-11-04T12:00:00Z	522	9	-54.75	1.125	100926.36	21.480878829956055
2013-11-04T12:00:00Z	455	10	-63.125	1.25	100924.85	22.583995819091797
2013-11-04T12:00:00Z	475	10	-60.625	1.25	100870.85	22.108078002929688
2013-11-04T12:00:00Z	558	11	-50.25	1.375	100938.5	21.661954879760742
2013-11-04T12:00:00Z	566	11	-49.25	1.375	100958.086	22.25911521911621
2013-11-04T18:00:00Z	481	10	-59.875	1.25	100664.03	21.975114822387695
2013-11-04T18:00:00Z	438	11	-65.25	1.375	100889.56	22.59891128540039
2013-11-04T18:00:00Z	474	12	-60.75	1.5	100667.445	20.91080665588379
2013-11-04T18:00:00Z	450	13	-63.75	1.625	100766.25	21.115428924560547
2013-11-04T18:00:00Z	11	265	-118.625	33.125	100907.15	30.331562042236328
2013-11-04T18:00:00Z	13	289	-118.375	36.125	100858.76	32.16435623168945
2013-11-05T00:00:00Z	381	8	-72.375	1.0	100887.51	20.833337783813477
2013-11-05T00:00:00Z	453	11	-63.375	1.375	100914.84	24.890167236328125
2013-11-05T00:00:00Z	12	275	-118.5	34.375	100912.07	47.521568298339844
2013-11-05T06:00:00Z	467	12	-61.625	1.5	100951.75	28.249374389648438
2013-11-05T06:00:00Z	8	469	-119.0	58.625	100904.086	17.47805404663086
2013-11-05T06:00:00Z	11	483	-118.625	60.375	100769.94	18.60293960571289
2013-11-05T06:00:00Z	12	523	-118.5	65.375	100938.13	18.9020938873291
2013-11-05T06:00:00Z	12	524	-118.5	65.5	100938.13	18.94818687438965
2013-11-05T12:00:00Z	8	469	-119.0	58.625	100686.21	15.803201675415039
2013-11-05T12:00:00Z	11	483	-118.625	60.375	100570.836	15.31174087524414
2013-11-05T12:00:00Z	12	523	-118.5	65.375	100735.11	18.029254913330078
2013-11-05T12:00:00Z	12	524	-118.5	65.5	100735.11	18.151840209960938
2013-11-05T18:00:00Z	444	8	-64.5	1.0	100939.96	24.530406951904297
2013-11-05T18:00:00Z	325	9	-79.375	1.125	100994.125	17.293264389038086
2013-11-05T18:00:00Z	467	11	-61.625	1.375	100967.8	24.319522857666016
2013-11-05T18:00:00Z	396	12	-70.5	1.5	100901.61	23.28302001953125
2013-11-05T18:00:00Z	452	12	-63.5	1.5	100892.49	24.657615661621094
2013-11-05T18:00:00Z	554	12	-50.75	1.5	100881.96	29.649049758911133
2013-11-05T18:00:00Z	415	13	-68.125	1.625	100922.54	24.42011260986328
2013-11-05T18:00:00Z	11	484	-118.625	60.5	100508.33	13.296167373657227
2013-11-05T18:00:00Z	12	523	-118.5	65.375	100747.07	19.526845932006836
2013-11-05T18:00:00Z	12	524	-118.5	65.5	100747.07	19.64644432067871
2013-11-06T00:00:00Z	381	8	-72.375	1.0	100830.72	20.748302459716797
2013-11-06T00:00:00Z	380	13	-72.5	1.625	100820.88	20.76457405090332
2013-11-06T00:00:00Z	10	106	-118.75	13.25	100894.43	20.26422882080078
2013-11-06T00:00:00Z	12	485	-118.5	60.625	100445.305	13.536900520324707
2013-11-06T00:00:00Z	12	524	-118.5	65.5	100759.87	20.209367752075195
2013-11-06T06:00:00Z	11	478	-118.625	59.75	100729.23	15.343624114990234
2013-11-06T12:00:00Z	13	100	-118.375	12.5	100956.84	16.706140518188477
2013-11-07T00:00:00Z	326	9	-79.25	1.125	100963.74	21.62546157836914
2013-11-07T18:00:00Z	414	11	-68.25	1.375	100982.68	15.945910453796387
2013-11-07T18:00:00Z	427	11	-66.625	1.375	100964.984	19.05283546447754
2013-11-07T18:00:00Z	483	11	-59.625	1.375	100834.36	21.12529182434082
2013-11-07T18:00:00Z	427	12	-66.625	1.5	100964.984	18.883167266845703
2013-11-08T00:00:00Z	417	9	-67.875	1.125	100978.914	17.932615280151367
2013-11-08T00:00:00Z	526	13	-54.25	1.625	100939.1	19.83281135559082
2013-11-08T00:00:00Z	10	401	-118.75	50.125	100690.766	20.50830078125
2013-11-08T18:00:00Z	486	9	-59.25	1.125	100854.055	25.351171493530273
2013-11-08T18:00:00Z	409	13	-68.875	1.625	100888.625	23.54461097717285
2013-11-09T00:00:00Z	529	11	-53.875	1.375	100635.15	22.417125701904297
2013-11-09T12:00:00Z	494	11	-58.25	1.375	100913.484	17.087181091308594
2013-11-09T12:00:00Z	12	103	-118.5	12.875	100990.24	16.010604858398438
2013-11-10T06:00:00Z	502	12	-57.25	1.5	100924.29	16.37270164489746
2013-11-10T12:00:00Z	486	9	-59.25	1.125	100887.23	15.910896301269531
2013-11-10T12:00:00Z	621	11	-42.375	1.375	100991.52	15.011266708374023
2013-11-10T12:00:00Z	503	12	-57.125	1.5	100899.984	14.953934669494629
2013-11-10T12:00:00Z	527	13	-54.125	1.625	100947.24	15.039128303527832
2013-11-10T12:00:00Z	545	13	-51.875	1.625	100927.91	16.26754379272461
2013-11-10T18:00:00Z	468	11	-61.5	1.375	100714.234	15.792397499084473
2013-11-10T18:00:00Z	474	12	-60.75	1.5	100719.13	15.564122200012207
2013-11-10T18:00:00Z	554	12	-50.75	1.5	100703.27	15.185708045959473
2013-11-11T06:00:00Z	629	8	-41.375	1.0	100878.87	13.59354019165039
2013-11-11T06:00:00Z	315	10	-80.625	1.25	100975.586	13.675914764404297
2013-11-11T06:00:00Z	452	11	-63.5	1.375	100896.086	15.329791069030762
2013-11-11T06:00:00Z	503	11	-57.125	1.375	100978.836	15.233527183532715
2013-11-11T18:00:00Z	326	8	-79.25	1.0	100886.36	15.920320510864258
2013-11-11T18:00:00Z	611	13	-43.625	1.625	100973.02	13.265664100646973
2013-11-12T06:00:00Z	589	10	-46.375	1.25	100905.3	11.862000465393066
2013-11-12T06:00:00Z	590	10	-46.25	1.25	100905.3	11.80881118774414
2013-11-12T06:00:00Z	415	11	-68.125	1.375	100800.125	12.732006072998047
2013-11-12T06:00:00Z	512	13	-56.0	1.625	100952.72	14.729995727539062
2013-11-12T12:00:00Z	362	9	-74.75	1.125	100905.2	15.191169738769531
2013-11-12T18:00:00Z	475	10	-60.625	1.25	100770.61	15.235960006713867
2013-11-12T18:00:00Z	481	10	-59.875	1.25	100762.766	15.51248836517334
2013-11-12T18:00:00Z	554	12	-50.75	1.5	100894.75	15.678898811340332
2013-11-13T00:00:00Z	323	8	-79.625	1.0	100749.84	13.735647201538086
2013-11-13T00:00:00Z	527	12	-54.125	1.5	100792.305	13.995361328125
2013-11-13T06:00:00Z	503	11	-57.125	1.375	100891.72	14.596684455871582
2013-11-13T12:00:00Z	461	9	-62.375	1.125	100973.11	12.784395217895508
2013-11-13T12:00:00Z	19	10	-117.625	1.25	100970.54	20.929584503173828
2013-11-13T18:00:00Z	444	8	-64.5	1.0	100756.42	12.749650955200195
2013-11-13T18:00:00Z	409	13	-68.875	1.625	100916.23	9.635512351989746
2013-11-14T00:00:00Z	327	9	-79.125	1.125	100659.11	14.538886070251465
2013-11-14T00:00:00Z	466	9	-61.75	1.125	100814.79	14.38003921508789
2013-11-14T00:00:00Z	480	9	-60.0	1.125	100817.39	14.212961196899414
2013-11-14T00:00:00Z	427	12	-66.625	1.5	100809.95	12.793574333190918
2013-11-14T00:00:00Z	452	12	-63.5	1.5	100809.49	11.428934097290039
2013-11-14T06:00:00Z	596	9	-45.5	1.125	100885.914	23.70235824584961
2013-11-14T06:00:00Z	531	10	-53.625	1.25	100962.14	15.73252010345459
2013-11-14T06:00:00Z	452	11	-63.5	1.375	100977.69	11.035422325134277
2013-11-14T06:00:00Z	8	60	-119.0	7.5	100807.71	19.45077133178711
2013-11-14T06:00:00Z	11	544	-118.625	68.0	100038.78	50.6482048034668
2013-11-14T12:00:00Z	13	539	-118.375	67.375	99056.734	38.549556732177734
2013-11-14T12:00:00Z	11	544	-118.625	68.0	99061.0	38.665138244628906
2013-11-14T18:00:00Z	13	467	-118.375	58.375	99806.164	41.726036071777344
2013-11-15T00:00:00Z	381	8	-72.375	1.0	100974.5	11.840216636657715
2013-11-15T00:00:00Z	401	9	-69.875	1.125	100954.96	10.10813045501709
2013-11-15T00:00:00Z	468	11	-61.5	1.375	100891.555	12.977859497070312
2013-11-15T00:00:00Z	528	12	-54.0	1.5	100867.53	13.52527904510498
2013-11-15T06:00:00Z	468	13	-61.5	1.625	100999.24	12.348660469055176
2013-11-15T06:00:00Z	505	13	-56.875	1.625	100985.516	13.67082405090332
2013-11-15T12:00:00Z	12	269	-118.5	33.625	100627.8	37.533668518066406
2013-11-15T12:00:00Z	10	448	-118.75	56.0	99560.164	46.67774200439453
2013-11-15T18:00:00Z	452	12	-63.5	1.5	100830.01	15.914463996887207
2013-11-15T18:00:00Z	10	528	-118.75	66.0	99817.445	38.633750915527344
2013-11-16T00:00:00Z	391	8	-71.125	1.0	100917.57	11.302360534667969
2013-11-16T00:00:00Z	13	100	-118.375	12.5	100789.08	16.487937927246094
2013-11-16T00:00:00Z	9	336	-118.875	42.0	100842.21	35.40329360961914
2013-11-16T00:00:00Z	8	401	-119.0	50.125	99607.164	36.72195816040039
2013-11-16T00:00:00Z	698	540	-32.75	67.5	98827.16	50.2199592590332
2013-11-16T06:00:00Z	468	13	-61.5	1.625	100905.22	16.647377014160156
2013-11-16T06:00:00Z	13	339	-118.375	42.375	100427.164	47.321327209472656
2013-11-16T06:00:00Z	8	401	-119.0	50.125	99041.19	32.45751190185547
2013-11-16T06:00:00Z	11	415	-118.625	51.875	98991.28	27.939071655273438
2013-11-16T12:00:00Z	10	332	-118.75	41.5	100527.055	58.067359924316406
2013-11-16T12:00:00Z	13	389	-118.375	48.625	99023.46	34.99806594848633
2013-11-16T12:00:00Z	8	403	-119.0	50.375	99089.26	33.80784225463867
2013-11-16T18:00:00Z	327	9	-79.125	1.125	100899.875	15.202766418457031
2013-11-16T18:00:00Z	483	11	-59.625	1.375	100807.71	21.968046188354492
2013-11-17T00:00:00Z	327	9	-79.125	1.125	100763.14	15.05879020690918
2013-11-17T00:00:00Z	92	13	-108.5	1.625	100978.63	19.90740394592285
2013-11-17T00:00:00Z	427	13	-66.625	1.625	100669.29	19.922592163085938
2013-11-17T00:00:00Z	8	384	-119.0	48.0	99908.99	73.67395782470703
2013-11-17T06:00:00Z	420	8	-67.5	1.0	100799.16	17.319293975830078
2013-11-17T06:00:00Z	513	13	-55.875	1.625	100848.23	20.23550033569336
2013-11-17T06:00:00Z	12	298	-118.5	37.25	100739.82	29.212793350219727
2013-11-17T12:00:00Z	471	9	-61.125	1.125	100812.09	18.906192779541016
2013-11-17T12:00:00Z	281	13	-84.875	1.625	100936.02	16.444721221923828
2013-11-17T12:00:00Z	8	401	-119.0	50.125	100882.91	71.98981475830078
2013-11-17T18:00:00Z	326	8	-79.25	1.0	100873.76	16.669330596923828
2013-11-17T18:00:00Z	474	10	-60.75	1.25	100574.22	19.344295501708984
2013-11-17T18:00:00Z	685	12	-34.375	1.5	100928.86	25.10865592956543
2013-11-17T18:00:00Z	12	390	-118.5	48.75	100961.43	57.046390533447266
2013-11-17T18:00:00Z	12	428	-118.5	53.5	100938.195	54.695594787597656
2013-11-18T00:00:00Z	526	13	-54.25	1.625	100454.51	17.6251220703125
2013-11-18T00:00:00Z	8	415	-119.0	51.875	100709.445	65.76739501953125
2013-11-18T00:00:00Z	12	426	-118.5	53.25	100639.15	71.00382995605469
2013-11-18T06:00:00Z	414	10	-68.25	1.25	100619.734	16.885812759399414
2013-11-18T06:00:00Z	560	11	-50.0	1.375	100678.7	18.60042381286621
2013-11-18T06:00:00Z	568	11	-49.0	1.375	100680.68	19.0604305267334
2013-11-18T06:00:00Z	9	383	-118.875	47.875	100883.695	41.53725814819336
2013-11-18T06:00:00Z	8	403	-119.0	50.375	100703.766	55.206058502197266
2013-11-18T06:00:00Z	10	426	-118.75	53.25	100731.24	70.28759002685547
2013-11-18T12:00:00Z	474	11	-60.75	1.375	100713.23	16.191381454467773
2013-11-18T12:00:00Z	528	12	-54.0	1.5	100793.016	19.3850154876709
2013-11-18T12:00:00Z	380	13	-72.5	1.625	100756.08	21.18113136291504
2013-11-18T12:00:00Z	9	427	-118.875	53.375	100886.05	67.25350189208984
2013-11-18T18:00:00Z	418	8	-67.75	1.0	100654.45	21.527299880981445
2013-11-18T18:00:00Z	372	10	-73.5	1.25	100660.97	25.940610885620117
2013-11-18T18:00:00Z	9	426	-118.875	53.25	100884.28	64.39995574951172
2013-11-19T00:00:00Z	514	8	-55.75	1.0	100512.375	16.576501846313477
2013-11-19T00:00:00Z	503	9	-57.125	1.125	100518.92	18.485435485839844
2013-11-19T00:00:00Z	468	11	-61.5	1.375	100497.52	18.776960372924805
2013-11-19T00:00:00Z	527	13	-54.125	1.625	100540.41	18.446422576904297
2013-11-19T00:00:00Z	8	391	-119.0	48.875	100541.17	48.0909538269043
2013-11-19T00:00:00Z	11	397	-118.625	49.625	100510.414	48.982460021972656
2013-11-19T06:00:00Z	480	9	-60.0	1.125	100709.48	16.960826873779297
2013-11-19T06:00:00Z	495	11	-58.125	1.375	100700.04	18.26744842529297
2013-11-19T06:00:00Z	452	12	-63.5	1.5	100715.51	24.52122688293457
2013-11-19T06:00:00Z	560	12	-50.0	1.5	100815.52	19.572834014892578
2013-11-19T06:00:00Z	10	401	-118.75	50.125	99853.42	38.300933837890625
2013-11-19T12:00:00Z	414	9	-68.25	1.125	100852.07	19.77098274230957
2013-11-19T12:00:00Z	480	9	-60.0	1.125	100948.47	22.096044540405273
2013-11-19T12:00:00Z	468	10	-61.5	1.25	100927.12	19.594894409179688
2013-11-19T12:00:00Z	426	11	-66.75	1.375	100837.99	17.568435668945312
2013-11-19T12:00:00Z	495	11	-58.125	1.375	100955.89	18.98634147644043
2013-11-19T12:00:00Z	451	12	-63.625	1.5	100940.45	20.831758499145508
2013-11-19T18:00:00Z	326	8	-79.25	1.0	100847.38	22.845069885253906
2013-11-19T18:00:00Z	468	10	-61.5	1.25	100812.29	16.802270889282227
2013-11-19T18:00:00Z	412	11	-68.5	1.375	100657.734	16.303916931152344
2013-11-19T18:00:00Z	452	12	-63.5	1.5	100766.05	15.796228408813477
2013-11-20T00:00:00Z	324	9	-79.5	1.125	100844.42	18.369400024414062
2013-11-20T00:00:00Z	452	12	-63.5	1.5	100706.46	15.529583930969238
2013-11-20T00:00:00Z	505	13	-56.875	1.625	100782.32	18.331838607788086
2013-11-20T00:00:00Z	526	13	-54.25	1.625	100821.79	15.837392807006836
2013-11-20T06:00:00Z	455	10	-63.125	1.25	100913.42	13.674732208251953
2013-11-20T18:00:00Z	482	11	-59.75	1.375	100949.36	14.300694465637207
2013-11-20T18:00:00Z	452	13	-63.5	1.625	100915.88	14.136679649353027
2013-11-20T18:00:00Z	461	13	-62.375	1.625	100960.78	16.2025203704834
2013-11-21T00:00:00Z	452	12	-63.5	1.5	100839.28	16.484092712402344
2013-11-21T00:00:00Z	427	13	-66.625	1.625	100758.72	15.851627349853516
2013-11-21T18:00:00Z	475	10	-60.625	1.25	100946.85	18.613449096679688
2013-11-21T18:00:00Z	482	10	-59.75	1.25	100931.3	18.33824348449707
2013-11-21T18:00:00Z	452	13	-63.5	1.625	100920.88	19.64780616760254
2013-11-21T18:00:00Z	461	13	-62.375	1.625	100974.42	19.527921676635742
2013-11-22T00:00:00Z	452	12	-63.5	1.5	100880.53	21.317134857177734
2013-11-23T00:00:00Z	381	8	-72.375	1.0	100830.81	12.852315902709961
2013-11-23T00:00:00Z	503	10	-57.125	1.25	100808.59	18.988636016845703
2013-11-23T00:00:00Z	452	11	-63.5	1.375	100809.95	19.564062118530273
2013-11-23T00:00:00Z	427	13	-66.625	1.625	100815.8	18.708919525146484
2013-11-23T06:00:00Z	539	9	-52.625	1.125	100830.83	19.69426727294922
2013-11-23T12:00:00Z	542	8	-52.25	1.0	100907.83	16.761680603027344
2013-11-23T18:00:00Z	11	465	-118.625	58.125	100843.29	46.540504455566406
2013-11-23T18:00:00Z	10	499	-118.75	62.375	100410.26	43.6151237487793
2013-11-23T18:00:00Z	12	525	-118.5	65.625	100643.42	33.348724365234375
2013-11-24T00:00:00Z	327	9	-79.125	1.125	100848.734	16.58962631225586
2013-11-24T00:00:00Z	10	499	-118.75	62.375	99846.47	28.96664810180664
2013-11-25T00:00:00Z	326	9	-79.25	1.125	100932.39	15.750277519226074
2013-11-25T12:00:00Z	381	8	-72.375	1.0	100909.84	13.0914945602417
2013-11-26T00:00:00Z	327	9	-79.125	1.125	100931.39	15.265974044799805
2013-11-26T12:00:00Z	540	9	-52.5	1.125	100917.3	22.55138397216797
2013-11-26T18:00:00Z	387	10	-71.625	1.25	100752.195	18.35304069519043
2013-11-26T18:00:00Z	330	13	-78.75	1.625	100914.26	14.109016418457031
2013-11-27T00:00:00Z	326	9	-79.25	1.125	100874.43	11.517940521240234
2013-11-27T06:00:00Z	391	8	-71.125	1.0	100799.19	13.970329284667969
2013-11-27T12:00:00Z	486	9	-59.25	1.125	100907.09	18.33702278137207
2013-11-27T12:00:00Z	10	63	-118.75	7.875	100819.664	17.652597427368164
2013-11-27T18:00:00Z	481	10	-59.875	1.25	100782.836	16.5950870513916
2013-11-27T18:00:00Z	495	10	-58.125	1.25	100747.36	18.57540512084961
2013-11-27T18:00:00Z	438	11	-65.25	1.375	100732.44	13.23066520690918
2013-11-27T18:00:00Z	330	13	-78.75	1.625	100927.336	11.34234619140625
2013-11-28T00:00:00Z	326	9	-79.25	1.125	100907.28	13.951282501220703
2013-11-28T00:00:00Z	278	12	-85.25	1.5	100931.4	16.481563568115234
2013-11-28T00:00:00Z	427	13	-66.625	1.625	100634.82	12.769327163696289
2013-11-28T18:00:00Z	452	13	-63.5	1.625	100826.266	13.509907722473145
2013-11-28T18:00:00Z	10	445	-118.75	55.625	100673.41	28.155426025390625
2013-11-28T18:00:00Z	10	462	-118.75	57.75	100349.21	24.801694869995117
2013-11-28T18:00:00Z	10	482	-118.75	60.25	100471.78	19.549301147460938
2013-11-29T00:00:00Z	327	9	-79.125	1.125	100996.48	21.37465476989746
2013-11-29T06:00:00Z	12	475	-118.5	59.375	100555.125	21.051481246948242
2013-11-29T18:00:00Z	452	12	-63.5	1.5	100775.11	14.51973819732666
2013-11-30T00:00:00Z	326	9	-79.25	1.125	100929.43	23.8148250579834
2013-11-30T06:00:00Z	468	10	-61.5	1.25	100753.0	17.0465087890625
2013-11-30T12:00:00Z	452	11	-63.5	1.375	100873.266	13.2212495803833
2013-11-30T12:00:00Z	499	13	-57.625	1.625	100957.336	16.671720504760742
2013-11-30T12:00:00Z	13	76	-118.375	9.5	100918.77	15.658994674682617
2013-11-30T18:00:00Z	328	8	-79.0	1.0	100933.445	22.064958572387695
2013-11-30T18:00:00Z	468	10	-61.5	1.25	100734.36	17.228864669799805
2013-11-30T18:00:00Z	332	13	-78.5	1.625	100948.56	21.69438362121582
2013-11-30T18:00:00Z	461	13	-62.375	1.625	100738.13	15.568195343017578
